# Dataset name: CDF_RunII	
#	  qT [GeV]   	   pred.     	    exp.     	  hes.err(%) 	  hes.err(%) * exp 	
0	2.500000e-01	2.209728e-01	3.613000e+00	2.999639e-02	1.083770e-01	
1	7.500000e-01	6.345219e-01	1.008000e+01	2.958022e-02	2.981686e-01	
2	1.250000e+00	9.691572e-01	1.551000e+01	2.883946e-02	4.473000e-01	
3	1.750000e+00	1.213112e+00	1.947000e+01	2.791424e-02	5.434902e-01	
4	2.250000e+00	1.368669e+00	2.158000e+01	2.693917e-02	5.813474e-01	
5	2.750000e+00	1.454473e+00	2.295000e+01	2.601116e-02	5.969562e-01	
6	3.250000e+00	1.483944e+00	2.258000e+01	2.515009e-02	5.678891e-01	
7	3.750000e+00	1.468331e+00	2.235000e+01	2.433064e-02	5.437898e-01	
8	4.250000e+00	1.418987e+00	2.061000e+01	2.353162e-02	4.849866e-01	
9	4.750000e+00	1.350385e+00	1.987000e+01	2.277675e-02	4.525740e-01	
10	5.250000e+00	1.268597e+00	1.876000e+01	2.204239e-02	4.135152e-01	
11	5.750000e+00	1.184477e+00	1.729000e+01	2.139084e-02	3.698476e-01	
12	6.250000e+00	1.104083e+00	1.563000e+01	2.081704e-02	3.253704e-01	
13	6.750000e+00	1.028410e+00	1.468000e+01	2.031939e-02	2.982887e-01	
14	7.250000e+00	9.582572e-01	1.374000e+01	1.990336e-02	2.734722e-01	
15	7.750000e+00	8.950285e-01	1.307000e+01	1.954990e-02	2.555172e-01	
16	8.250000e+00	8.371716e-01	1.183000e+01	1.924313e-02	2.276462e-01	
17	8.750000e+00	7.834355e-01	1.112000e+01	1.896650e-02	2.109074e-01	
18	9.250000e+00	7.346188e-01	1.033000e+01	1.871539e-02	1.933300e-01	
19	9.750000e+00	6.889635e-01	1.024000e+01	1.847231e-02	1.891564e-01	
20	1.025000e+01	6.465145e-01	9.043000e+00	1.822985e-02	1.648526e-01	
21	1.075000e+01	6.064508e-01	8.295000e+00	1.797706e-02	1.491198e-01	
22	1.125000e+01	5.683040e-01	8.319000e+00	1.770552e-02	1.472922e-01	
23	1.175000e+01	5.324414e-01	7.780000e+00	1.741982e-02	1.355262e-01	
24	1.225000e+01	4.979981e-01	7.465000e+00	1.711296e-02	1.277482e-01	
25	1.275000e+01	4.665006e-01	6.839000e+00	1.681384e-02	1.149898e-01	
26	1.325000e+01	4.365429e-01	6.411000e+00	1.651227e-02	1.058602e-01	
27	1.375000e+01	4.104441e-01	6.220000e+00	1.626051e-02	1.011404e-01	
28	1.425000e+01	3.858920e-01	5.890000e+00	1.603095e-02	9.442230e-02	
29	1.475000e+01	3.655481e-01	5.363000e+00	1.588350e-02	8.518321e-02	
30	1.525000e+01	3.459748e-01	5.186000e+00	1.575299e-02	8.169500e-02	
31	1.575000e+01	3.275678e-01	4.792000e+00	1.557605e-02	7.464045e-02	
32	1.625000e+01	3.108726e-01	4.431000e+00	1.548042e-02	6.859375e-02	
33	1.675000e+01	2.970842e-01	4.149000e+00	1.543095e-02	6.402300e-02	
34	1.725000e+01	2.816451e-01	4.346000e+00	1.530900e-02	6.653292e-02	
35	1.775000e+01	2.679736e-01	3.931000e+00	1.517300e-02	5.964505e-02	
36	1.825000e+01	2.546975e-01	3.757000e+00	1.502112e-02	5.643435e-02	
37	1.875000e+01	2.396471e-01	3.753000e+00	1.476470e-02	5.541191e-02	
38	1.925000e+01	2.260551e-01	3.586000e+00	1.448891e-02	5.195724e-02	
39	1.975000e+01	2.112216e-01	3.303000e+00	1.412951e-02	4.666976e-02	
40	2.025000e+01	2.009582e-01	2.952000e+00	1.398939e-02	4.129667e-02	
41	2.075000e+01	1.891638e-01	2.923000e+00	1.369625e-02	4.003415e-02	
42	2.125000e+01	1.779240e-01	2.877000e+00	1.343950e-02	3.866545e-02	
43	2.175000e+01	1.693636e-01	2.603000e+00	1.331346e-02	3.465493e-02	
44	2.225000e+01	1.614906e-01	2.624000e+00	1.321386e-02	3.467318e-02	
45	2.275000e+01	1.549449e-01	2.590000e+00	1.321160e-02	3.421805e-02	
46	2.325000e+01	1.476855e-01	2.516000e+00	1.310418e-02	3.297011e-02	
47	2.375000e+01	1.430956e-01	2.200000e+00	1.320679e-02	2.905493e-02	
48	2.425000e+01	1.389385e-01	1.948000e+00	1.332661e-02	2.596024e-02	
49	2.475000e+01	1.326665e-01	2.179000e+00	1.323483e-02	2.883870e-02	
50	2.550000e+01	1.258868e-01	2.032000e+00	1.327263e-02	2.696999e-02	
51	2.650000e+01	1.132468e-01	1.736000e+00	1.293921e-02	2.246248e-02	
52	2.750000e+01	1.022458e-01	1.633000e+00	1.263415e-02	2.063157e-02	
53	2.850000e+01	9.276332e-02	1.616000e+00	1.240191e-02	2.004149e-02	
54	2.950000e+01	8.348638e-02	1.381000e+00	1.223845e-02	1.690130e-02	
55	3.100000e+01	7.669325e-02	1.284000e+00	1.232970e-02	1.583133e-02	
56	3.300000e+01	7.062942e-02	1.005000e+00	1.258733e-02	1.265027e-02	
57	3.500000e+01	5.599014e-02	8.769000e-01	1.239077e-02	1.086547e-02	
58	3.700000e+01	4.394417e-02	7.959000e-01	1.366371e-02	1.087495e-02	
59	3.900000e+01	3.854789e-02	7.068000e-01	1.399764e-02	9.893533e-03	
60	4.200000e+01	2.563014e-02	5.605000e-01	1.925358e-02	1.079163e-02	
61	4.600000e+01	9.927272e-03	4.600000e-01	5.850870e-02	2.691400e-02	
62	5.000000e+01	2.426207e-03	3.552000e-01	2.456838e-01	8.726688e-02	
63	5.400000e+01	-3.465771e-04	2.760000e-01	-1.602901e+00	-4.424008e-01	
64	5.800000e+01	-8.612133e-04	2.311000e-01	-5.711680e-01	-1.319969e-01	
65	6.250000e+01	-1.870059e-04	1.618000e-01	-2.036398e+00	-3.294892e-01	
66	6.750000e+01	-1.040246e-02	1.343000e-01	-5.405209e-02	-7.259196e-03	
67	7.250000e+01	-1.406532e-02	1.094000e-01	-4.051737e-02	-4.432600e-03	
68	7.750000e+01	-1.284454e-02	8.415000e-02	-3.838763e-02	-3.230319e-03	
69	8.250000e+01	-1.451036e-02	6.347000e-02	-3.797071e-02	-2.410001e-03	
70	8.750000e+01	-1.020471e-02	4.982000e-02	-3.761779e-02	-1.874118e-03	
71	9.250000e+01	0.000000e+00	3.786000e-02	-nan	-nan	
72	9.750000e+01	0.000000e+00	2.988000e-02	-nan	-nan	
73	1.050000e+02	0.000000e+00	2.298000e-02	-nan	-nan	
74	1.150000e+02	0.000000e+00	1.449000e-02	-nan	-nan	
75	1.250000e+02	0.000000e+00	9.369000e-03	-nan	-nan	
76	1.350000e+02	0.000000e+00	8.395000e-03	-nan	-nan	
77	1.450000e+02	0.000000e+00	5.304000e-03	-nan	-nan	
78	1.625000e+02	0.000000e+00	1.861000e-03	-nan	-nan	
79	1.875000e+02	0.000000e+00	5.283000e-04	-nan	-nan	
80	2.250000e+02	0.000000e+00	2.838000e-04	-nan	-nan	
81	3.000000e+02	0.000000e+00	1.489000e-04	-nan	-nan	
