# Dataset name: COMPASS_Deu_Pp_Kp_x_0.0455_z_0.244	
#	  PhT [GeV]   	   pred.     	    exp.     	  hes.err(%) 	  hes.err * exp 	
0	2.994996e-01	2.901772e+00	5.221900e+00	2.639151e-03	1.378138e-02	
1	3.315117e-01	2.694342e+00	5.429400e+00	2.683566e-03	1.457015e-02	
2	3.598611e-01	2.500475e+00	4.537100e+00	2.764852e-03	1.254441e-02	
3	3.935734e-01	2.269073e+00	4.123000e+00	2.993826e-03	1.234354e-02	
4	4.275512e-01	2.040846e+00	3.785400e+00	3.373153e-03	1.276873e-02	
5	4.613025e-01	1.821116e+00	3.103700e+00	3.860596e-03	1.198213e-02	
6	4.995998e-01	1.587355e+00	2.811200e+00	4.590963e-03	1.290612e-02	
7	5.335729e-01	1.399330e+00	2.311200e+00	5.391924e-03	1.246181e-02	
8	5.699123e-01	1.215779e+00	2.072800e+00	6.321815e-03	1.310386e-02	
9	6.118006e-01	1.029413e+00	1.673000e+00	7.540014e-03	1.261444e-02	
10	6.539113e-01	8.675428e-01	1.452700e+00	8.876319e-03	1.289463e-02	
11	6.996428e-01	7.165660e-01	1.061200e+00	1.043013e-02	1.106846e-02	
12	7.468601e-01	5.844229e-01	8.773000e-01	1.217582e-02	1.068185e-02	
13	7.997500e-01	4.598322e-01	7.199000e-01	1.434676e-02	1.032823e-02	
14	8.473488e-01	3.651846e-01	5.335000e-01	1.657125e-02	8.840764e-03	
15	9.017206e-01	2.745123e-01	3.426000e-01	1.965540e-02	6.733940e-03	
16	9.654533e-01	1.886831e-01	2.840000e-01	2.453150e-02	6.966945e-03	
17	1.028348e+00	1.223155e-01	1.991000e-01	3.164439e-02	6.300397e-03	
18	1.084804e+00	7.466462e-02	1.409000e-01	4.283318e-02	6.035196e-03	
19	1.142672e+00	3.675088e-02	1.119000e-01	6.955173e-02	7.782839e-03	
20	1.202248e+00	8.559868e-03	7.830000e-02	2.337887e-01	1.830565e-02	
21	1.262418e+00	-1.190098e-02	7.040000e-02	-1.235608e-01	-8.698680e-03	
22	1.331616e+00	-2.775835e-02	4.700000e-02	-3.421719e-02	-1.608208e-03	
23	1.394382e+00	-3.602385e-02	4.680000e-02	-1.609726e-02	-7.533519e-04	
24	1.481013e+00	-4.023608e-02	2.630000e-02	-7.286981e-03	-1.916476e-04	
25	1.575881e+00	-3.901562e-02	1.700000e-02	-9.505614e-03	-1.615954e-04	
26	1.679047e+00	-3.377768e-02	1.760000e-02	-1.571640e-02	-2.766086e-04	
