# Dataset name: COMPASS_Deu_Pp_Kp_x_0.2909_z_0.482	
#	  PhT [GeV]   	   pred.     	    exp.     	  hes.err(%) 	  hes.err * exp 	
0	1.720465e-01	6.477580e-01	1.370800e+00	2.928159e-03	4.013921e-03	
1	2.227106e-01	6.168869e-01	1.414000e+00	2.903121e-03	4.105013e-03	
2	2.638181e-01	5.868378e-01	1.342900e+00	2.884656e-03	3.873805e-03	
3	2.989983e-01	5.594792e-01	1.117800e+00	2.860331e-03	3.197278e-03	
4	3.304542e-01	5.334421e-01	1.197600e+00	2.841543e-03	3.403031e-03	
5	3.605551e-01	5.067414e-01	1.078800e+00	2.815364e-03	3.037215e-03	
6	3.943349e-01	4.757955e-01	1.119400e+00	2.788079e-03	3.120976e-03	
7	4.283690e-01	4.446457e-01	8.622000e-01	2.752063e-03	2.372828e-03	
8	4.618441e-01	4.131148e-01	8.788000e-01	2.717658e-03	2.388277e-03	
9	4.989990e-01	3.787495e-01	7.827000e-01	2.669219e-03	2.089198e-03	
10	5.335729e-01	3.467494e-01	6.398000e-01	2.624892e-03	1.679406e-03	
11	5.696490e-01	3.146332e-01	5.862000e-01	2.568800e-03	1.505831e-03	
12	6.115554e-01	2.782003e-01	5.407000e-01	2.504253e-03	1.354050e-03	
13	6.551336e-01	2.427657e-01	4.492000e-01	2.429045e-03	1.091127e-03	
14	6.996428e-01	2.086227e-01	3.887000e-01	2.356754e-03	9.160705e-04	
15	7.475293e-01	1.753222e-01	3.193000e-01	2.287977e-03	7.305509e-04	
16	7.987490e-01	1.430229e-01	2.293000e-01	2.256248e-03	5.173576e-04	
17	8.476438e-01	1.161051e-01	2.215000e-01	2.312756e-03	5.122754e-04	
18	9.002777e-01	9.066747e-02	1.603000e-01	2.550244e-03	4.088041e-04	
19	9.687621e-01	6.343016e-02	1.258000e-01	3.355350e-03	4.221030e-04	
20	1.025085e+00	4.535062e-02	9.170000e-02	4.692488e-03	4.303012e-04	
21	1.085127e+00	2.967662e-02	6.630000e-02	7.322605e-03	4.854887e-04	
22	1.141709e+00	1.808999e-02	4.810000e-02	1.227446e-02	5.904016e-04	
23	1.202664e+00	8.288882e-03	4.270000e-02	2.698506e-02	1.152262e-03	
24	1.263606e+00	9.348882e-04	2.910000e-02	2.374140e-01	6.908747e-03	
25	1.329398e+00	-4.953961e-03	1.670000e-02	-4.358012e-02	-7.277881e-04	
26	1.391797e+00	-8.928762e-03	1.100000e-02	-2.320021e-02	-2.552023e-04	
27	1.475466e+00	-1.249468e-02	1.220000e-02	-1.537349e-02	-1.875566e-04	
28	1.584298e+00	-1.503940e-02	8.000000e-03	-1.125080e-02	-9.000642e-05	
29	1.670509e+00	-1.600706e-02	3.100000e-03	-9.377027e-03	-2.906878e-05	
