# Dataset name: COMPASS_Deu_Pp_Kp_x_0.0752_z_0.482	
#	  PhT [GeV]   	   pred.     	    exp.     	  hes.err(%) 	  hes.err * exp 	
0	1.729162e-01	5.808168e-01	1.380700e+00	4.000291e-03	5.523202e-03	
1	2.236068e-01	5.482197e-01	1.339800e+00	3.990898e-03	5.347006e-03	
2	2.645751e-01	5.169140e-01	1.242600e+00	3.983377e-03	4.949744e-03	
3	3.000000e-01	4.879637e-01	1.195500e+00	3.978580e-03	4.756393e-03	
4	3.315117e-01	4.604739e-01	1.137900e+00	3.974949e-03	4.523094e-03	
5	3.601389e-01	4.347411e-01	1.073300e+00	3.975739e-03	4.267161e-03	
6	3.934463e-01	4.038490e-01	9.778000e-01	3.977375e-03	3.889077e-03	
7	4.275512e-01	3.723565e-01	8.869000e-01	3.990702e-03	3.539353e-03	
8	4.610857e-01	3.410928e-01	8.228000e-01	4.007802e-03	3.297619e-03	
9	4.995998e-01	3.062085e-01	7.293000e-01	4.053854e-03	2.956476e-03	
10	5.334792e-01	2.761041e-01	6.349000e-01	4.107152e-03	2.607631e-03	
11	5.693856e-01	2.458376e-01	5.737000e-01	4.211143e-03	2.415933e-03	
12	6.117189e-01	2.118051e-01	4.955000e-01	4.372338e-03	2.166494e-03	
13	6.551336e-01	1.798655e-01	4.118000e-01	4.658240e-03	1.918263e-03	
14	6.992138e-01	1.501195e-01	3.635000e-01	5.056978e-03	1.838212e-03	
15	7.478636e-01	1.211848e-01	3.009000e-01	5.768323e-03	1.735688e-03	
16	7.986864e-01	9.475549e-02	2.278000e-01	6.823944e-03	1.554494e-03	
17	8.476438e-01	7.330014e-02	1.906000e-01	8.408231e-03	1.602609e-03	
18	9.014433e-01	5.355267e-02	1.426000e-01	1.092845e-02	1.558397e-03	
19	9.649352e-01	3.509147e-02	1.106000e-01	1.594634e-02	1.763665e-03	
20	1.027910e+00	2.123660e-02	7.940000e-02	2.516207e-02	1.997868e-03	
21	1.084988e+00	1.174683e-02	6.150000e-02	4.317042e-02	2.654981e-03	
22	1.143460e+00	4.640076e-03	4.260000e-02	1.033486e-01	4.402651e-03	
23	1.202622e+00	-5.447684e-04	3.210000e-02	-8.208252e-01	-2.634849e-02	
24	1.264160e+00	-4.176401e-03	2.320000e-02	-9.887001e-02	-2.293784e-03	
25	1.326461e+00	-6.553859e-03	1.600000e-02	-5.735888e-02	-9.177421e-04	
26	1.394417e+00	-8.026036e-03	1.080000e-02	-4.180754e-02	-4.515214e-04	
27	1.479662e+00	-8.774801e-03	7.000000e-03	-3.254552e-02	-2.278187e-04	
28	1.577783e+00	-8.725619e-03	4.800000e-03	-2.643102e-02	-1.268689e-04	
29	1.671556e+00	-8.195243e-03	2.800000e-03	-2.218908e-02	-6.212943e-05	
