# Dataset name: COMPASS_Deu_Pp_Kp_x_0.0254_z_0.482	
#	  PhT [GeV]   	   pred.     	    exp.     	  hes.err(%) 	  hes.err * exp 	
0	1.729162e-01	5.137874e-01	1.288300e+00	1.059789e-02	1.365327e-02	
1	2.238303e-01	4.813179e-01	1.163400e+00	1.061332e-02	1.234754e-02	
2	2.641969e-01	4.514677e-01	1.121700e+00	1.062791e-02	1.192132e-02	
3	2.998333e-01	4.230263e-01	1.141900e+00	1.064917e-02	1.216029e-02	
4	3.319639e-01	3.962129e-01	1.039900e+00	1.067745e-02	1.110348e-02	
5	3.606938e-01	3.714876e-01	1.006300e+00	1.070729e-02	1.077474e-02	
6	3.929377e-01	3.433537e-01	9.286000e-01	1.074760e-02	9.980223e-03	
7	4.274342e-01	3.134551e-01	8.152000e-01	1.081504e-02	8.816425e-03	
8	4.611941e-01	2.844250e-01	7.790000e-01	1.088846e-02	8.482112e-03	
9	4.996999e-01	2.526115e-01	6.238000e-01	1.102378e-02	6.876633e-03	
10	5.332917e-01	2.258042e-01	5.883000e-01	1.115818e-02	6.564355e-03	
11	5.693856e-01	1.988210e-01	5.326000e-01	1.137616e-02	6.058943e-03	
12	6.119640e-01	1.692101e-01	4.448000e-01	1.171143e-02	5.209242e-03	
13	6.549809e-01	1.422122e-01	3.864000e-01	1.220229e-02	4.714964e-03	
14	6.999286e-01	1.171482e-01	3.239000e-01	1.292936e-02	4.187818e-03	
15	7.477968e-01	9.397402e-02	2.591000e-01	1.403215e-02	3.635730e-03	
16	7.984986e-01	7.326834e-02	2.109000e-01	1.575132e-02	3.321954e-03	
17	8.477028e-01	5.658640e-02	1.714000e-01	1.812310e-02	3.106300e-03	
18	9.010549e-01	4.199734e-02	1.324000e-01	2.188962e-02	2.898186e-03	
19	9.645206e-01	2.857061e-02	9.480000e-02	2.858670e-02	2.710019e-03	
20	1.029223e+00	1.858474e-02	7.110000e-02	3.948300e-02	2.807241e-03	
21	1.085910e+00	1.224059e-02	4.970000e-02	5.467856e-02	2.717524e-03	
22	1.143022e+00	7.634520e-03	3.900000e-02	7.991469e-02	3.116673e-03	
23	1.203620e+00	4.204316e-03	3.110000e-02	1.304740e-01	4.057742e-03	
24	1.263962e+00	1.945603e-03	2.120000e-02	2.525021e-01	5.353044e-03	
25	1.327968e+00	3.909526e-04	1.630000e-02	1.101392e+00	1.795270e-02	
26	1.397533e+00	-5.677995e-04	1.140000e-02	-6.505422e-01	-7.416181e-03	
27	1.479054e+00	-1.128200e-03	7.800000e-03	-2.664184e-01	-2.078064e-03	
28	1.575405e+00	-1.303713e-03	4.700000e-03	-1.746157e-01	-8.206937e-04	
29	1.678064e+00	-1.213541e-03	3.300000e-03	-1.315689e-01	-4.341773e-04	
