# Dataset name: COMPASS_Deu_Pp_Kp_x_0.2544_z_0.346	
#	  PhT [GeV]   	   pred.     	    exp.     	  hes.err(%) 	  hes.err * exp 	
0	2.236068e-01	1.730759e+00	4.247100e+00	2.110321e-03	8.962743e-03	
1	2.643861e-01	1.615726e+00	4.103100e+00	2.091033e-03	8.579716e-03	
2	2.998333e-01	1.507320e+00	3.544400e+00	2.072013e-03	7.344043e-03	
3	3.312099e-01	1.405077e+00	3.309900e+00	2.056602e-03	6.807147e-03	
4	3.605551e-01	1.308369e+00	3.054200e+00	2.039350e-03	6.228583e-03	
5	3.937004e-01	1.197720e+00	2.658300e+00	2.022807e-03	5.377227e-03	
6	4.276681e-01	1.083514e+00	2.509300e+00	2.009585e-03	5.042651e-03	
7	4.607602e-01	9.757975e-01	2.252500e+00	2.004038e-03	4.514096e-03	
8	4.993996e-01	8.534963e-01	1.923600e+00	2.010677e-03	3.867738e-03	
9	5.337603e-01	7.516541e-01	1.556500e+00	2.041004e-03	3.176823e-03	
10	5.687706e-01	6.536782e-01	1.322400e+00	2.097375e-03	2.773569e-03	
11	6.115554e-01	5.450861e-01	1.077000e+00	2.235877e-03	2.408040e-03	
12	6.552099e-01	4.463831e-01	8.415000e-01	2.470039e-03	2.078538e-03	
13	6.995713e-01	3.581902e-01	6.806000e-01	2.850964e-03	1.940366e-03	
14	7.465923e-01	2.785833e-01	5.027000e-01	3.471940e-03	1.745344e-03	
15	7.981854e-01	2.052920e-01	3.655000e-01	4.487329e-03	1.640119e-03	
16	8.473488e-01	1.484525e-01	2.462000e-01	6.002521e-03	1.477821e-03	
17	9.012769e-01	9.815614e-02	1.878000e-01	8.719649e-03	1.637550e-03	
18	9.657122e-01	5.189806e-02	1.291000e-01	1.554316e-02	2.006623e-03	
19	1.026255e+00	1.975593e-02	8.040000e-02	3.817578e-02	3.069333e-03	
20	1.085818e+00	-3.533812e-03	5.580000e-02	-1.967031e-01	-1.097603e-02	
21	1.139912e+00	-1.883339e-02	2.940000e-02	-3.393858e-02	-9.977944e-04	
22	1.203952e+00	-3.157585e-02	2.960000e-02	-1.798852e-02	-5.324603e-04	
23	1.260595e+00	-3.902640e-02	1.830000e-02	-1.299209e-02	-2.377552e-04	
24	1.326537e+00	-4.396903e-02	1.350000e-02	-9.887309e-03	-1.334787e-04	
25	1.385929e+00	-4.630062e-02	7.100000e-03	-8.035620e-03	-5.705290e-05	
26	1.478276e+00	-4.659863e-02	5.000000e-03	-6.155828e-03	-3.077914e-05	
27	1.563969e+00	-4.431849e-02	2.200000e-03	-4.879621e-03	-1.073517e-05	
28	1.676037e+00	-3.972142e-02	1.200000e-03	-3.548901e-03	-4.258682e-06	
