# Dataset name: COMPASS_Deu_Pp_Kp_x_0.0678_z_0.483	
#	  PhT [GeV]   	   pred.     	    exp.     	  hes.err(%) 	  hes.err * exp 	
0	1.726268e-01	5.899891e-01	1.693300e+00	6.249948e-03	1.058304e-02	
1	2.233831e-01	5.526660e-01	1.626200e+00	6.288037e-03	1.022561e-02	
2	2.643861e-01	5.179104e-01	1.491600e+00	6.334313e-03	9.448262e-03	
3	3.000000e-01	4.849166e-01	1.412900e+00	6.370662e-03	9.001108e-03	
4	3.315117e-01	4.544464e-01	1.280800e+00	6.424329e-03	8.228281e-03	
5	3.604164e-01	4.255004e-01	1.231100e+00	6.467885e-03	7.962614e-03	
6	3.933192e-01	3.924000e-01	1.163200e+00	6.546944e-03	7.615406e-03	
7	4.273172e-01	3.578597e-01	1.004600e+00	6.622632e-03	6.653096e-03	
8	4.610857e-01	3.243175e-01	9.126000e-01	6.739385e-03	6.150363e-03	
9	5.000000e-01	2.864667e-01	8.364000e-01	6.873009e-03	5.748585e-03	
10	5.336666e-01	2.553632e-01	7.256000e-01	7.046741e-03	5.113116e-03	
11	5.692978e-01	2.239328e-01	6.490000e-01	7.239269e-03	4.698286e-03	
12	6.119640e-01	1.891733e-01	5.315000e-01	7.558439e-03	4.017310e-03	
13	6.552099e-01	1.571527e-01	4.819000e-01	7.970728e-03	3.841094e-03	
14	6.990708e-01	1.282861e-01	3.712000e-01	8.539454e-03	3.169845e-03	
15	7.470609e-01	1.007793e-01	2.945000e-01	9.395710e-03	2.767036e-03	
16	7.987490e-01	7.580713e-02	2.256000e-01	1.073077e-02	2.420862e-03	
17	8.469357e-01	5.653569e-02	1.796000e-01	1.256908e-02	2.257406e-03	
18	9.004999e-01	3.923937e-02	1.301000e-01	1.573984e-02	2.047753e-03	
19	9.650389e-01	2.334927e-02	8.640000e-02	2.264610e-02	1.956623e-03	
20	1.027959e+00	1.223170e-02	6.050000e-02	3.780399e-02	2.287141e-03	
21	1.084020e+00	5.136104e-03	4.550000e-02	7.994761e-02	3.637616e-03	
22	1.141753e+00	1.032545e-04	2.930000e-02	3.554717e+00	1.041532e-01	
23	1.204948e+00	-3.482489e-03	1.880000e-02	-9.274203e-02	-1.743550e-03	
24	1.264476e+00	-5.439756e-03	1.410000e-02	-5.267873e-02	-7.427701e-04	
25	1.324689e+00	-6.466191e-03	1.080000e-02	-3.891705e-02	-4.203041e-04	
26	1.394417e+00	-6.806083e-03	6.800000e-03	-3.155112e-02	-2.145476e-04	
27	1.482262e+00	-6.462212e-03	4.800000e-03	-2.660729e-02	-1.277150e-04	
28	1.581803e+00	-5.530273e-03	1.700000e-03	-2.335687e-02	-3.970668e-05	
29	1.674545e+00	-4.479162e-03	1.300000e-03	-2.104341e-02	-2.735643e-05	
