# Dataset name: COMPASS_Deu_Pp_Kp_x_0.0161_z_0.244	
#	  PhT [GeV]   	   pred.     	    exp.     	  hes.err(%) 	  hes.err * exp 	
0	3.604164e-01	1.912667e+00	4.814500e+00	1.179584e-02	5.679108e-02	
1	3.934463e-01	1.695331e+00	4.363300e+00	1.225693e-02	5.348066e-02	
2	4.275512e-01	1.477292e+00	3.793600e+00	1.280007e-02	4.855833e-02	
3	4.610857e-01	1.281400e+00	3.441100e+00	1.352682e-02	4.654715e-02	
4	4.992995e-01	1.082692e+00	2.840000e+00	1.451048e-02	4.120975e-02	
5	5.336666e-01	9.272147e-01	2.444900e+00	1.548933e-02	3.786985e-02	
6	5.693856e-01	7.897472e-01	2.070800e+00	1.665260e-02	3.448420e-02	
7	6.114736e-01	6.527701e-01	1.602800e+00	1.799826e-02	2.884760e-02	
8	6.547519e-01	5.372896e-01	1.309200e+00	1.943325e-02	2.544200e-02	
9	6.991423e-01	4.394838e-01	1.029800e+00	2.089567e-02	2.151836e-02	
10	7.466592e-01	3.523400e-01	7.555000e-01	2.241718e-02	1.693618e-02	
11	7.984986e-01	2.741022e-01	5.977000e-01	2.412834e-02	1.442151e-02	
12	8.472308e-01	2.132708e-01	4.607000e-01	2.580439e-02	1.188808e-02	
13	9.009440e-01	1.582843e-01	3.392000e-01	2.779684e-02	9.428688e-03	
14	9.655050e-01	1.064870e-01	2.517000e-01	3.051564e-02	7.680785e-03	
15	1.028300e+00	6.863443e-02	1.676000e-01	3.361885e-02	5.634519e-03	
16	1.084389e+00	4.356012e-02	1.367000e-01	3.712017e-02	5.074328e-03	
17	1.142804e+00	2.456928e-02	9.610000e-02	4.211884e-02	4.047621e-03	
18	1.202456e+00	1.106832e-02	6.980000e-02	5.094232e-02	3.555774e-03	
19	1.263566e+00	2.358904e-03	5.670000e-02	9.797019e-02	5.554910e-03	
20	1.325670e+00	0.000000e+00	4.020000e-02	-nan	-nan	
21	1.393485e+00	0.000000e+00	3.170000e-02	-nan	-nan	
22	1.481182e+00	0.000000e+00	1.890000e-02	-nan	-nan	
23	1.576198e+00	0.000000e+00	1.330000e-02	-nan	-nan	
24	1.675589e+00	0.000000e+00	8.100000e-03	-nan	-nan	
