# Dataset name: COMPASS_Deu_Pp_Kp_x_0.0678_z_0.483	
#	  PhT [GeV]   	   pred.     	    exp.     	  hes.err(%) 	  hes.err * exp 	
0	1.726268e-01	2.384429e-01	1.693300e+00	3.594569e-02	6.086683e-02	
1	2.233831e-01	2.233474e-01	1.626200e+00	3.576315e-02	5.815804e-02	
2	2.643861e-01	2.093531e-01	1.491600e+00	3.555497e-02	5.303380e-02	
3	3.000000e-01	1.959683e-01	1.412900e+00	3.536685e-02	4.996983e-02	
4	3.315117e-01	1.837007e-01	1.280800e+00	3.513906e-02	4.500611e-02	
5	3.604164e-01	1.719367e-01	1.231100e+00	3.493471e-02	4.300812e-02	
6	3.933192e-01	1.586376e-01	1.163200e+00	3.461460e-02	4.026371e-02	
7	4.273172e-01	1.446096e-01	1.004600e+00	3.428647e-02	3.444419e-02	
8	4.610857e-01	1.311372e-01	9.126000e-01	3.384414e-02	3.088616e-02	
9	5.000000e-01	1.157752e-01	8.364000e-01	3.331892e-02	2.786795e-02	
10	5.336666e-01	1.032802e-01	7.256000e-01	3.272035e-02	2.374189e-02	
11	5.692978e-01	9.054108e-02	6.490000e-01	3.204451e-02	2.079689e-02	
12	6.119640e-01	7.652337e-02	5.315000e-01	3.103476e-02	1.649498e-02	
13	6.552099e-01	6.357994e-02	4.819000e-01	2.981284e-02	1.436681e-02	
14	6.990708e-01	5.193526e-02	3.712000e-01	2.828917e-02	1.050094e-02	
15	7.470609e-01	4.083437e-02	2.945000e-01	2.626108e-02	7.733888e-03	
16	7.987490e-01	3.076869e-02	2.256000e-01	2.363696e-02	5.332499e-03	
17	8.469357e-01	2.299761e-02	1.796000e-01	2.104751e-02	3.780133e-03	
18	9.004999e-01	1.603452e-02	1.301000e-01	1.963432e-02	2.554425e-03	
19	9.650389e-01	9.637123e-03	8.640000e-02	2.787981e-02	2.408815e-03	
20	1.027959e+00	5.191671e-03	6.050000e-02	6.074867e-02	3.675294e-03	
21	1.084020e+00	2.335209e-03	4.550000e-02	1.524456e-01	6.936273e-03	
22	1.141753e+00	3.377900e-04	2.930000e-02	1.127939e+00	3.304861e-02	
23	1.204948e+00	-1.092924e-03	1.880000e-02	-3.526298e-01	-6.629440e-03	
24	1.264476e+00	-1.854223e-03	1.410000e-02	-2.013206e-01	-2.838620e-03	
25	1.324689e+00	-2.253484e-03	1.080000e-02	-1.548528e-01	-1.672410e-03	
26	1.394417e+00	-2.368638e-03	6.800000e-03	-1.316086e-01	-8.949387e-04	
27	1.482262e+00	-2.212365e-03	4.800000e-03	-1.165292e-01	-5.593401e-04	
28	1.581803e+00	-1.822292e-03	1.700000e-03	-1.073499e-01	-1.824949e-04	
29	1.674545e+00	-1.397072e-03	1.300000e-03	-1.012296e-01	-1.315985e-04	
