# Dataset name: COMPASS_Deu_Pp_Kp_x_0.0455_z_0.244	
#	  PhT [GeV]   	   pred.     	    exp.     	  hes.err(%) 	  hes.err * exp 	
0	2.994996e-01	6.543974e-01	5.221900e+00	3.313643e-02	1.730351e-01	
1	3.315117e-01	6.169717e-01	5.429400e+00	3.185739e-02	1.729665e-01	
2	3.598611e-01	5.805311e-01	4.537100e+00	3.064868e-02	1.390561e-01	
3	3.935734e-01	5.378664e-01	4.123000e+00	2.897051e-02	1.194454e-01	
4	4.275512e-01	4.955844e-01	3.785400e+00	2.716504e-02	1.028305e-01	
5	4.613025e-01	4.535240e-01	3.103700e+00	2.533645e-02	7.863674e-02	
6	4.995998e-01	4.079691e-01	2.811200e+00	2.324989e-02	6.536010e-02	
7	5.335729e-01	3.709228e-01	2.311200e+00	2.150161e-02	4.969453e-02	
8	5.699123e-01	3.331859e-01	2.072800e+00	1.982885e-02	4.110124e-02	
9	6.118006e-01	2.937150e-01	1.673000e+00	1.825105e-02	3.053401e-02	
10	6.539113e-01	2.580540e-01	1.452700e+00	1.715112e-02	2.491543e-02	
11	6.996428e-01	2.231344e-01	1.061200e+00	1.652469e-02	1.753600e-02	
12	7.468601e-01	1.910815e-01	8.773000e-01	1.649244e-02	1.446881e-02	
13	7.997500e-01	1.592245e-01	7.199000e-01	1.709222e-02	1.230469e-02	
14	8.473488e-01	1.336921e-01	5.335000e-01	1.809187e-02	9.652014e-03	
15	9.017206e-01	1.080405e-01	3.426000e-01	1.976047e-02	6.769937e-03	
16	9.654533e-01	8.244747e-02	2.840000e-01	2.246122e-02	6.378986e-03	
17	1.028348e+00	6.131195e-02	1.991000e-01	2.582876e-02	5.142506e-03	
18	1.084804e+00	4.500053e-02	1.409000e-01	2.983381e-02	4.203584e-03	
19	1.142672e+00	3.106809e-02	1.119000e-01	3.569858e-02	3.994671e-03	
20	1.202248e+00	1.993767e-02	7.830000e-02	4.549785e-02	3.562482e-03	
21	1.262418e+00	1.081414e-02	7.040000e-02	6.479403e-02	4.561500e-03	
22	1.331616e+00	2.622486e-03	4.700000e-02	1.894137e-01	8.902444e-03	
23	1.394382e+00	-2.751329e-03	4.680000e-02	-1.278283e-01	-5.982364e-03	
24	1.481013e+00	-7.489269e-03	2.630000e-02	-3.053552e-02	-8.030842e-04	
25	1.575881e+00	-1.024251e-02	1.700000e-02	-2.068496e-02	-3.516443e-04	
26	1.679047e+00	-1.115887e-02	1.760000e-02	-2.277321e-02	-4.008084e-04	
