# Dataset name: COMPASS_Deu_Pp_Kp_x_0.1488_z_0.245	
#	  PhT [GeV]   	   pred.     	    exp.     	  hes.err(%) 	  hes.err * exp 	
0	3.315117e-01	5.999182e-01	6.357100e+00	1.552949e-02	9.872252e-02	
1	3.602777e-01	5.585863e-01	5.905800e+00	1.492714e-02	8.815670e-02	
2	3.933192e-01	5.120148e-01	5.226700e+00	1.412271e-02	7.381517e-02	
3	4.273172e-01	4.644778e-01	4.580600e+00	1.320755e-02	6.049852e-02	
4	4.606517e-01	4.188122e-01	3.955200e+00	1.225682e-02	4.847816e-02	
5	4.992995e-01	3.687048e-01	3.361100e+00	1.110423e-02	3.732242e-02	
6	5.332917e-01	3.284190e-01	2.831200e+00	1.010371e-02	2.860563e-02	
7	5.692978e-01	2.888245e-01	2.341100e+00	9.114218e-03	2.133730e-02	
8	6.116371e-01	2.471972e-01	1.883200e+00	8.134997e-03	1.531983e-02	
9	6.543699e-01	2.102924e-01	1.481400e+00	7.470618e-03	1.106697e-02	
10	6.986415e-01	1.767135e-01	1.095700e+00	7.225271e-03	7.916729e-03	
11	7.466592e-01	1.451860e-01	8.409000e-01	7.543292e-03	6.343155e-03	
12	7.988742e-01	1.157072e-01	5.793000e-01	8.536102e-03	4.944964e-03	
13	8.475848e-01	9.206728e-02	4.503000e-01	1.001450e-02	4.509531e-03	
14	9.007774e-01	7.008501e-02	3.182000e-01	1.233001e-02	3.923410e-03	
15	9.639502e-01	4.853093e-02	1.985000e-01	1.630833e-02	3.237204e-03	
16	1.028251e+00	3.114444e-02	1.396000e-01	2.254901e-02	3.147841e-03	
17	1.084942e+00	1.872629e-02	9.660000e-02	3.292382e-02	3.180441e-03	
18	1.143153e+00	8.739846e-03	7.020000e-02	6.029394e-02	4.232634e-03	
19	1.202788e+00	1.286892e-03	5.250000e-02	3.458669e-01	1.815801e-02	
20	1.261666e+00	-4.034831e-03	3.150000e-02	-8.893116e-02	-2.801332e-03	
21	1.326047e+00	-8.117218e-03	2.740000e-02	-3.409487e-02	-9.341994e-04	
22	1.395564e+00	-1.057531e-02	1.600000e-02	-1.934051e-02	-3.094482e-04	
23	1.474890e+00	-1.164065e-02	1.080000e-02	-1.226089e-02	-1.324176e-04	
24	1.574960e+00	-1.130984e-02	6.900000e-03	-9.049260e-03	-6.243990e-05	
25	1.674873e+00	-9.884961e-03	4.500000e-03	-9.852769e-03	-4.433746e-05	
