# Dataset name: COMPASS_Deu_Pp_Kp_x_0.0427_z_0.244	
#	  PhT [GeV]   	   pred.     	    exp.     	  hes.err(%) 	  hes.err * exp 	
0	3.931921e-01	4.851544e-01	4.682200e+00	3.209564e-02	1.502782e-01	
1	4.274342e-01	4.410804e-01	4.121200e+00	2.994114e-02	1.233934e-01	
2	4.609772e-01	3.984915e-01	3.662200e+00	2.778928e-02	1.017699e-01	
3	4.994998e-01	3.530768e-01	3.034200e+00	2.531677e-02	7.681616e-02	
4	5.333854e-01	3.169317e-01	2.604000e+00	2.330080e-02	6.067528e-02	
5	5.692978e-01	2.812890e-01	2.190300e+00	2.143574e-02	4.695070e-02	
6	6.118823e-01	2.438707e-01	1.726000e+00	1.972591e-02	3.404693e-02	
7	6.547519e-01	2.107085e-01	1.366100e+00	1.864876e-02	2.547607e-02	
8	6.992138e-01	1.802917e-01	1.104900e+00	1.818553e-02	2.009319e-02	
9	7.468601e-01	1.517043e-01	8.253000e-01	1.836510e-02	1.515672e-02	
10	7.987490e-01	1.244700e-01	6.066000e-01	1.918082e-02	1.163509e-02	
11	8.475848e-01	1.019493e-01	4.571000e-01	2.039363e-02	9.321928e-03	
12	9.008329e-01	8.070752e-02	3.571000e-01	2.221709e-02	7.933723e-03	
13	9.649870e-01	5.927057e-02	2.360000e-01	2.511480e-02	5.927093e-03	
14	1.028154e+00	4.194950e-02	1.660000e-01	2.865436e-02	4.756623e-03	
15	1.084758e+00	2.893954e-02	1.224000e-01	3.279536e-02	4.014152e-03	
16	1.142804e+00	1.813007e-02	9.530000e-02	3.915601e-02	3.731568e-03	
17	1.203038e+00	9.833814e-03	6.380000e-02	5.190852e-02	3.311764e-03	
18	1.263012e+00	3.303395e-03	4.990000e-02	9.586164e-02	4.783496e-03	
19	1.327855e+00	-2.020117e-03	3.820000e-02	-7.034241e-02	-2.687080e-03	
20	1.393485e+00	-5.571825e-03	2.660000e-02	-1.246307e-02	-3.315176e-04	
21	1.478952e+00	-8.140112e-03	2.020000e-02	-2.109093e-02	-4.260367e-04	
22	1.577847e+00	-9.241827e-03	1.350000e-02	-2.927190e-02	-3.951707e-04	
23	1.679673e+00	-8.926125e-03	8.100000e-03	-3.539889e-02	-2.867310e-04	
