# Dataset name: COMPASS_Deu_Pp_Kp_x_0.2544_z_0.346	
#	  PhT [GeV]   	   pred.     	    exp.     	  hes.err(%) 	  hes.err * exp 	
0	2.236068e-01	5.050032e-01	4.247100e+00	9.357209e-03	3.974100e-02	
1	2.643861e-01	4.725758e-01	4.103100e+00	9.236713e-03	3.789916e-02	
2	2.998333e-01	4.421710e-01	3.544400e+00	9.104996e-03	3.227175e-02	
3	3.312099e-01	4.131509e-01	3.309900e+00	8.979182e-03	2.972019e-02	
4	3.605551e-01	3.860321e-01	3.054200e+00	8.836277e-03	2.698776e-02	
5	3.937004e-01	3.548359e-01	2.658300e+00	8.657134e-03	2.301326e-02	
6	4.276681e-01	3.224605e-01	2.509300e+00	8.452858e-03	2.121076e-02	
7	4.607602e-01	2.920566e-01	2.252500e+00	8.225982e-03	1.852902e-02	
8	4.993996e-01	2.572337e-01	1.923600e+00	7.937018e-03	1.526765e-02	
9	5.337603e-01	2.283709e-01	1.556500e+00	7.654214e-03	1.191378e-02	
10	5.687706e-01	2.003409e-01	1.322400e+00	7.347107e-03	9.715814e-03	
11	6.115554e-01	1.693394e-01	1.077000e+00	6.968646e-03	7.505232e-03	
12	6.552099e-01	1.409853e-01	8.415000e-01	6.605295e-03	5.558356e-03	
13	6.995713e-01	1.154422e-01	6.806000e-01	6.340123e-03	4.315088e-03	
14	7.465923e-01	9.229642e-02	5.027000e-01	6.331525e-03	3.182857e-03	
15	7.981854e-01	7.068700e-02	3.655000e-01	6.866714e-03	2.509784e-03	
16	8.473488e-01	5.381222e-02	2.462000e-01	8.291442e-03	2.041353e-03	
17	9.012769e-01	3.861303e-02	1.878000e-01	1.122738e-02	2.108502e-03	
18	9.657122e-01	2.433543e-02	1.291000e-01	1.770668e-02	2.285932e-03	
19	1.026255e+00	1.413400e-02	8.040000e-02	3.012525e-02	2.422070e-03	
20	1.085818e+00	6.466180e-03	5.580000e-02	6.365321e-02	3.551849e-03	
21	1.139912e+00	1.216917e-03	2.940000e-02	3.223696e-01	9.477666e-03	
22	1.203952e+00	-3.445007e-03	2.960000e-02	-1.048156e-01	-3.102541e-03	
23	1.260595e+00	-6.420092e-03	1.830000e-02	-5.152258e-02	-9.428632e-04	
24	1.326537e+00	-8.713849e-03	1.350000e-02	-3.337614e-02	-4.505779e-04	
25	1.385929e+00	-1.013103e-02	7.100000e-03	-2.512375e-02	-1.783786e-04	
26	1.478276e+00	-1.119641e-02	5.000000e-03	-1.809849e-02	-9.049246e-05	
27	1.563969e+00	-1.125717e-02	2.200000e-03	-1.400727e-02	-3.081600e-05	
28	1.676037e+00	-1.069616e-02	1.200000e-03	-1.015725e-02	-1.218870e-05	
