# Dataset name: COMPASS_Deu_Pp_Kp_x_0.0106_z_0.482	
#	  PhT [GeV]   	   pred.     	    exp.     	  hes.err(%) 	  hes.err * exp 	
0	1.726268e-01	2.676182e-01	1.003400e+00	9.504125e-02	9.536439e-02	
1	2.231591e-01	2.502499e-01	9.091000e-01	9.438110e-02	8.580186e-02	
2	2.638181e-01	2.341453e-01	8.837000e-01	9.368768e-02	8.279180e-02	
3	2.998333e-01	2.186789e-01	8.842000e-01	9.294708e-02	8.218381e-02	
4	3.319639e-01	2.042449e-01	8.769000e-01	9.216631e-02	8.082063e-02	
5	3.604164e-01	1.911410e-01	8.023000e-01	9.137076e-02	7.330676e-02	
6	3.931921e-01	1.759132e-01	7.206000e-01	9.031678e-02	6.508227e-02	
7	4.274342e-01	1.600671e-01	6.704000e-01	8.903929e-02	5.969194e-02	
8	4.606517e-01	1.450224e-01	5.822000e-01	8.758489e-02	5.099192e-02	
9	4.993996e-01	1.280597e-01	5.208000e-01	8.562310e-02	4.459251e-02	
10	5.336666e-01	1.138231e-01	4.530000e-01	8.357739e-02	3.786056e-02	
11	5.696490e-01	9.979207e-02	4.186000e-01	8.107648e-02	3.393862e-02	
12	6.120458e-01	8.457188e-02	3.673000e-01	7.760327e-02	2.850368e-02	
13	6.549809e-01	7.076548e-02	3.134000e-01	7.335522e-02	2.298953e-02	
14	6.994283e-01	5.813869e-02	2.669000e-01	6.809251e-02	1.817389e-02	
15	7.478636e-01	4.632753e-02	2.238000e-01	6.114913e-02	1.368518e-02	
16	7.996249e-01	3.578642e-02	1.818000e-01	5.227531e-02	9.503652e-03	
17	8.477618e-01	2.774274e-02	1.462000e-01	4.307084e-02	6.296956e-03	
18	9.010549e-01	2.059853e-02	1.138000e-01	3.483848e-02	3.964620e-03	
19	9.659710e-01	1.396441e-02	9.040000e-02	4.220302e-02	3.815153e-03	
20	1.027570e+00	9.407158e-03	6.890000e-02	7.670326e-02	5.284855e-03	
21	1.084159e+00	6.365074e-03	5.700000e-02	1.310208e-01	7.468187e-03	
22	1.142891e+00	4.115550e-03	4.250000e-02	2.171090e-01	9.227132e-03	
23	1.202123e+00	2.543385e-03	3.000000e-02	3.532879e-01	1.059864e-02	
24	1.262537e+00	1.469569e-03	2.350000e-02	5.852837e-01	1.375417e-02	
25	1.327290e+00	7.353607e-04	2.000000e-02	1.069736e+00	2.139473e-02	
26	1.396352e+00	2.705693e-04	1.550000e-02	2.537577e+00	3.933244e-02	
27	1.479899e+00	-1.419296e-05	9.200000e-03	-3.899559e+01	-3.587595e-01	
28	1.580158e+00	-1.379429e-04	6.400000e-03	-2.864230e+00	-1.833107e-02	
29	1.678154e+00	-1.433725e-04	4.600000e-03	-1.779336e+00	-8.184948e-03	
