# Dataset name: COMPASS_Deu_Pp_Kp_x_0.1488_z_0.482	
#	  PhT [GeV]   	   pred.     	    exp.     	  hes.err(%) 	  hes.err * exp 	
0	1.729162e-01	2.402831e-01	1.390700e+00	1.621422e-02	2.254912e-02	
1	2.236068e-01	2.278650e-01	1.297000e+00	1.610428e-02	2.088725e-02	
2	2.647640e-01	2.156815e-01	1.268800e+00	1.602768e-02	2.033591e-02	
3	2.998333e-01	2.047584e-01	1.228600e+00	1.591609e-02	1.955450e-02	
4	3.313608e-01	1.941703e-01	1.111300e+00	1.582278e-02	1.758385e-02	
5	3.605551e-01	1.839030e-01	1.072500e+00	1.570772e-02	1.684653e-02	
6	3.930649e-01	1.720419e-01	9.992000e-01	1.558106e-02	1.556860e-02	
7	4.275512e-01	1.595643e-01	9.026000e-01	1.540569e-02	1.390518e-02	
8	4.611941e-01	1.470663e-01	8.469000e-01	1.522841e-02	1.289694e-02	
9	4.993996e-01	1.332642e-01	7.632000e-01	1.497428e-02	1.142837e-02	
10	5.335729e-01	1.209438e-01	6.902000e-01	1.473224e-02	1.016819e-02	
11	5.695612e-01	1.086201e-01	5.948000e-01	1.441284e-02	8.572755e-03	
12	6.118006e-01	9.454748e-02	5.281000e-01	1.400636e-02	7.396758e-03	
13	6.550573e-01	8.126897e-02	4.462000e-01	1.348400e-02	6.016560e-03	
14	6.995713e-01	6.846718e-02	3.889000e-01	1.287007e-02	5.005171e-03	
15	7.474624e-01	5.620083e-02	3.049000e-01	1.205601e-02	3.675879e-03	
16	7.991245e-01	4.434369e-02	2.506000e-01	1.103105e-02	2.764381e-03	
17	8.474078e-01	3.488450e-02	1.981000e-01	9.963584e-03	1.973786e-03	
18	9.008884e-01	2.589632e-02	1.531000e-01	8.962840e-03	1.372211e-03	
19	9.645206e-01	1.716763e-02	1.158000e-01	9.857801e-03	1.141533e-03	
20	1.028348e+00	1.039217e-02	8.620000e-02	1.742593e-02	1.502115e-03	
21	1.085035e+00	5.703773e-03	6.010000e-02	3.706799e-02	2.227786e-03	
22	1.142804e+00	2.111669e-03	4.950000e-02	1.133354e-01	5.610102e-03	
23	1.202497e+00	-6.663978e-04	3.600000e-02	-3.860918e-01	-1.389931e-02	
24	1.263725e+00	-2.653500e-03	2.680000e-02	-9.991042e-02	-2.677599e-03	
25	1.327177e+00	-4.054402e-03	1.870000e-02	-6.496890e-02	-1.214919e-03	
26	1.393628e+00	-4.951683e-03	1.350000e-02	-5.125615e-02	-6.919581e-04	
27	1.476787e+00	-5.506092e-03	8.200000e-03	-4.255241e-02	-3.489298e-04	
28	1.575246e+00	-5.645667e-03	5.500000e-03	-3.637772e-02	-2.000775e-04	
29	1.680655e+00	-5.445870e-03	2.600000e-03	-3.162715e-02	-8.223059e-05	
