# Dataset name: COMPASS_Deu_Pp_Kp_x_0.0752_z_0.345	
#	  PhT [GeV]   	   pred.     	    exp.     	  hes.err(%) 	  hes.err * exp 	
0	2.643861e-01	3.922960e-01	3.500400e+00	3.497492e-02	1.224262e-01	
1	2.996665e-01	3.677878e-01	3.308300e+00	3.427591e-02	1.133950e-01	
2	3.316625e-01	3.434086e-01	3.026100e+00	3.361251e-02	1.017148e-01	
3	3.601389e-01	3.222552e-01	2.811000e+00	3.284600e-02	9.233010e-02	
4	3.931921e-01	2.969381e-01	2.523700e+00	3.188065e-02	8.045718e-02	
5	4.274342e-01	2.704585e-01	2.244400e+00	3.076983e-02	6.905981e-02	
6	4.610857e-01	2.456606e-01	2.065500e+00	2.948275e-02	6.089661e-02	
7	4.996999e-01	2.174579e-01	1.785100e+00	2.790985e-02	4.982188e-02	
8	5.334792e-01	1.949775e-01	1.563700e+00	2.630588e-02	4.113451e-02	
9	5.694734e-01	1.718467e-01	1.309300e+00	2.451497e-02	3.209745e-02	
10	6.117189e-01	1.478155e-01	1.074500e+00	2.218350e-02	2.383617e-02	
11	6.546755e-01	1.257681e-01	9.142000e-01	1.972205e-02	1.802990e-02	
12	6.987847e-01	1.058325e-01	7.283000e-01	1.721182e-02	1.253537e-02	
13	7.468601e-01	8.731478e-02	5.460000e-01	1.488827e-02	8.128998e-03	
14	7.989368e-01	7.022110e-02	4.237000e-01	1.358063e-02	5.754114e-03	
15	8.474078e-01	5.707836e-02	3.163000e-01	1.453090e-02	4.596122e-03	
16	9.008884e-01	4.505503e-02	2.168000e-01	1.819907e-02	3.945559e-03	
17	9.654015e-01	3.337372e-02	1.567000e-01	2.555317e-02	4.004181e-03	
18	1.027862e+00	2.458607e-02	1.034000e-01	3.515299e-02	3.634819e-03	
19	1.084896e+00	1.820829e-02	7.600000e-02	4.615268e-02	3.507604e-03	
20	1.143022e+00	1.313809e-02	5.540000e-02	6.006455e-02	3.327576e-03	
21	1.202705e+00	8.949482e-03	3.750000e-02	7.957083e-02	2.983906e-03	
22	1.264437e+00	5.641026e-03	2.670000e-02	1.100603e-01	2.938611e-03	
23	1.327441e+00	3.078764e-03	2.050000e-02	1.687158e-01	3.458674e-03	
24	1.396531e+00	8.853738e-04	1.540000e-02	4.610598e-01	7.100321e-03	
25	1.480574e+00	-8.580492e-04	9.900000e-03	-3.342582e-01	-3.309156e-03	
26	1.575627e+00	-2.082629e-03	5.900000e-03	-8.123770e-02	-4.793024e-04	
27	1.675261e+00	-2.732411e-03	3.500000e-03	-2.627789e-02	-9.197260e-05	
