# Dataset name: COMPASS_Deu_Pp_Kp_x_0.0260_z_0.345	
#	  PhT [GeV]   	   pred.     	    exp.     	  hes.err(%) 	  hes.err * exp 	
0	1.729162e-01	4.425869e-01	2.877900e+00	4.997885e-02	1.438341e-01	
1	2.236068e-01	4.158297e-01	2.761200e+00	4.903175e-02	1.353865e-01	
2	2.640076e-01	3.916601e-01	2.573600e+00	4.797331e-02	1.234641e-01	
3	2.998333e-01	3.684688e-01	2.439500e+00	4.681314e-02	1.142006e-01	
4	3.312099e-01	3.456177e-01	2.358800e+00	4.578291e-02	1.079927e-01	
5	3.608324e-01	3.252389e-01	2.149000e+00	4.448931e-02	9.560753e-02	
6	3.933192e-01	3.016821e-01	2.004400e+00	4.300835e-02	8.620595e-02	
7	4.273172e-01	2.770298e-01	1.771500e+00	4.127238e-02	7.311402e-02	
8	4.614109e-01	2.534569e-01	1.545700e+00	3.929870e-02	6.074400e-02	
9	4.994998e-01	2.270549e-01	1.469900e+00	3.700228e-02	5.438965e-02	
10	5.335729e-01	2.057866e-01	1.339400e+00	3.470368e-02	4.648211e-02	
11	5.697368e-01	1.836759e-01	1.142000e+00	3.223945e-02	3.681745e-02	
12	6.119640e-01	1.610405e-01	9.110000e-01	2.925491e-02	2.665123e-02	
13	6.545991e-01	1.401254e-01	7.900000e-01	2.638620e-02	2.084509e-02	
14	6.992138e-01	1.208488e-01	6.407000e-01	2.376102e-02	1.522369e-02	
15	7.474624e-01	1.028893e-01	4.984000e-01	2.183049e-02	1.088031e-02	
16	7.994998e-01	8.605889e-02	4.031000e-01	2.119875e-02	8.545217e-03	
17	8.479387e-01	7.297690e-02	3.150000e-01	2.241861e-02	7.061862e-03	
18	9.008329e-01	6.079777e-02	2.333000e-01	2.537958e-02	5.921055e-03	
19	9.659193e-01	4.833820e-02	1.788000e-01	3.062979e-02	5.476607e-03	
20	1.027278e+00	3.883348e-02	1.323000e-01	3.650584e-02	4.829722e-03	
21	1.084528e+00	3.144411e-02	1.093000e-01	4.232636e-02	4.626271e-03	
22	1.142454e+00	2.532964e-02	7.110000e-02	4.828208e-02	3.432856e-03	
23	1.204243e+00	1.978347e-02	5.900000e-02	5.469028e-02	3.226727e-03	
24	1.263606e+00	1.547053e-02	4.150000e-02	6.086924e-02	2.526074e-03	
25	1.328345e+00	1.154359e-02	3.460000e-02	6.765035e-02	2.340702e-03	
26	1.393951e+00	8.168071e-03	2.180000e-02	7.598090e-02	1.656384e-03	
27	1.479831e+00	4.901801e-03	1.750000e-02	8.984986e-02	1.572373e-03	
28	1.584266e+00	1.907844e-03	1.080000e-02	1.329806e-01	1.436190e-03	
29	1.678213e+00	2.162705e-05	8.500000e-03	5.865178e+00	4.985401e-02	
