# Dataset name: COMPASS_Deu_Pp_Kp_x_0.0678_z_0.685	
#	  PhT [GeV]   	   pred.     	    exp.     	  hes.err(%) 	  hes.err * exp 	
0	1.737815e-01	9.148835e-02	5.252000e-01	3.978523e-02	2.089521e-02	
1	2.231591e-01	8.650272e-02	5.520000e-01	3.969527e-02	2.191179e-02	
2	2.641969e-01	8.164461e-02	5.056000e-01	3.962563e-02	2.003472e-02	
3	3.000000e-01	7.705710e-02	4.932000e-01	3.951494e-02	1.948877e-02	
4	3.318132e-01	7.268184e-02	4.674000e-01	3.942619e-02	1.842780e-02	
5	3.613862e-01	6.851564e-02	3.976000e-01	3.929913e-02	1.562533e-02	
6	3.939543e-01	6.375892e-02	3.891000e-01	3.917148e-02	1.524162e-02	
7	4.275512e-01	5.880276e-02	3.581000e-01	3.900629e-02	1.396815e-02	
8	4.618441e-01	5.375664e-02	3.154000e-01	3.879731e-02	1.223667e-02	
9	4.992995e-01	4.828421e-02	2.729000e-01	3.855202e-02	1.052085e-02	
10	5.343220e-01	4.333137e-02	2.440000e-01	3.824464e-02	9.331693e-03	
11	5.695612e-01	3.849934e-02	2.183000e-01	3.790639e-02	8.274965e-03	
12	6.118823e-01	3.299573e-02	1.944000e-01	3.741361e-02	7.273207e-03	
13	6.550573e-01	2.780378e-02	1.730000e-01	3.674259e-02	6.356469e-03	
14	6.992138e-01	2.292559e-02	1.429000e-01	3.591788e-02	5.132666e-03	
15	7.473286e-01	1.819068e-02	1.140000e-01	3.468122e-02	3.953659e-03	
16	7.984360e-01	1.380073e-02	9.810000e-02	3.292080e-02	3.229530e-03	
17	8.480566e-01	1.016941e-02	7.170000e-02	3.049171e-02	2.186255e-03	
18	9.007219e-01	6.967334e-03	5.730000e-02	2.678051e-02	1.534523e-03	
19	9.646761e-01	3.871666e-03	4.940000e-02	2.184025e-02	1.078908e-03	
20	1.027424e+00	1.605821e-03	3.680000e-02	4.815935e-02	1.772264e-03	
21	1.083282e+00	9.994678e-05	2.270000e-02	1.160112e+00	2.633454e-02	
22	1.141359e+00	-1.019824e-03	2.100000e-02	-1.486953e-01	-3.122602e-03	
23	1.199208e+00	-1.793127e-03	9.700000e-03	-9.792939e-02	-9.499150e-04	
24	1.261031e+00	-2.318405e-03	8.300000e-03	-8.200913e-02	-6.806758e-04	
25	1.327215e+00	-2.620825e-03	5.300000e-03	-7.474499e-02	-3.961484e-04	
26	1.399464e+00	-2.745621e-03	3.800000e-03	-7.051953e-02	-2.679742e-04	
27	1.482026e+00	-2.704853e-03	2.400000e-03	-6.812485e-02	-1.634996e-04	
28	1.572228e+00	-2.539724e-03	8.000000e-04	-6.652682e-02	-5.322146e-05	
29	1.678660e+00	-2.256502e-03	7.000000e-04	-6.557439e-02	-4.590207e-05	
