# Dataset name: COMPASS_Deu_Pp_Kp_x_0.2909_z_0.245	
#	  PhT [GeV]   	   pred.     	    exp.     	  hes.err(%) 	  hes.err * exp 	
0	2.998333e-01	7.007456e-01	6.984800e+00	7.812184e-03	5.456654e-02	
1	3.316625e-01	6.552008e-01	6.276300e+00	7.623137e-03	4.784510e-02	
2	3.604164e-01	6.121886e-01	6.033400e+00	7.430294e-03	4.482994e-02	
3	3.938274e-01	5.607719e-01	5.260900e+00	7.184357e-03	3.779619e-02	
4	4.274342e-01	5.102857e-01	4.781000e+00	6.924311e-03	3.310513e-02	
5	4.607602e-01	4.612549e-01	4.180900e+00	6.656856e-03	2.783165e-02	
6	4.999000e-01	4.059818e-01	3.540500e+00	6.359002e-03	2.251405e-02	
7	5.344156e-01	3.611408e-01	2.792900e+00	6.136276e-03	1.713800e-02	
8	5.693856e-01	3.189181e-01	2.325300e+00	5.953970e-03	1.384477e-02	
9	6.119640e-01	2.722187e-01	1.806400e+00	5.852665e-03	1.057225e-02	
10	6.543699e-01	2.312126e-01	1.386000e+00	5.905510e-03	8.185036e-03	
11	6.987131e-01	1.933362e-01	1.108600e+00	6.150613e-03	6.818569e-03	
12	7.464583e-01	1.579381e-01	8.053000e-01	6.668269e-03	5.369957e-03	
13	7.989368e-01	1.244416e-01	6.177000e-01	7.569975e-03	4.675973e-03	
14	8.484692e-01	9.737121e-02	4.721000e-01	8.799848e-03	4.154408e-03	
15	8.992775e-01	7.360438e-02	2.988000e-01	1.066020e-02	3.185267e-03	
16	9.667988e-01	4.762845e-02	2.027000e-01	1.461357e-02	2.962171e-03	
17	1.024207e+00	3.018472e-02	1.288000e-01	2.058356e-02	2.651163e-03	
18	1.084528e+00	1.524873e-02	8.430000e-02	3.567386e-02	3.007307e-03	
19	1.140526e+00	4.394235e-03	6.220000e-02	1.081582e-01	6.727439e-03	
20	1.205695e+00	-4.899909e-03	3.120000e-02	-8.295357e-02	-2.588151e-03	
21	1.256821e+00	-1.001239e-02	2.070000e-02	-3.483766e-02	-7.211396e-04	
22	1.329511e+00	-1.507059e-02	2.310000e-02	-1.845664e-02	-4.263483e-04	
23	1.392803e+00	-1.753041e-02	1.580000e-02	-1.297162e-02	-2.049516e-04	
24	1.478749e+00	-1.868298e-02	1.070000e-02	-9.157319e-03	-9.798331e-05	
25	1.577308e+00	-1.799573e-02	4.300000e-03	-7.091114e-03	-3.049179e-05	
26	1.682676e+00	-1.594895e-02	1.500000e-03	-6.510631e-03	-9.765947e-06	
