# Dataset name: COMPASS_Deu_Pp_Kp_x_0.0752_z_0.683	
#	  PhT [GeV]   	   pred.     	    exp.     	  hes.err(%) 	  hes.err * exp 	
0	1.720465e-01	8.087726e-02	3.800000e-01	3.684512e-02	1.400114e-02	
1	2.231591e-01	7.703302e-02	3.628000e-01	3.673551e-02	1.332764e-02	
2	2.651415e-01	7.331750e-02	3.654000e-01	3.662263e-02	1.338191e-02	
3	2.998333e-01	6.986791e-02	3.571000e-01	3.654546e-02	1.305039e-02	
4	3.318132e-01	6.653667e-02	3.223000e-01	3.640919e-02	1.173468e-02	
5	3.604164e-01	6.337452e-02	3.097000e-01	3.630981e-02	1.124515e-02	
6	3.931921e-01	5.965908e-02	2.903000e-01	3.614492e-02	1.049287e-02	
7	4.273172e-01	5.565948e-02	2.716000e-01	3.597677e-02	9.771290e-03	
8	4.610857e-01	5.163574e-02	2.509000e-01	3.578989e-02	8.979683e-03	
9	4.996999e-01	4.708575e-02	2.310000e-01	3.549194e-02	8.198639e-03	
10	5.333854e-01	4.311320e-02	2.118000e-01	3.522744e-02	7.461172e-03	
11	5.690343e-01	3.902180e-02	1.905000e-01	3.486399e-02	6.641591e-03	
12	6.128621e-01	3.413830e-02	1.659000e-01	3.436634e-02	5.701376e-03	
13	6.551336e-01	2.964283e-02	1.458000e-01	3.378407e-02	4.925717e-03	
14	6.987847e-01	2.533950e-02	1.265000e-01	3.299169e-02	4.173449e-03	
15	7.474624e-01	2.087312e-02	1.107000e-01	3.193509e-02	3.535215e-03	
16	7.996249e-01	1.661231e-02	8.840000e-02	3.037465e-02	2.685119e-03	
17	8.477028e-01	1.310853e-02	7.670000e-02	2.852186e-02	2.187626e-03	
18	9.012769e-01	9.748801e-03	6.390000e-02	2.561700e-02	1.636926e-03	
19	9.656086e-01	6.367500e-03	4.710000e-02	2.083685e-02	9.814155e-04	
20	1.029272e+00	3.724426e-03	3.730000e-02	1.833595e-02	6.839311e-04	
21	1.085633e+00	1.866422e-03	2.990000e-02	4.379550e-02	1.309486e-03	
22	1.143984e+00	3.827744e-04	2.170000e-02	3.136004e-01	6.805128e-03	
23	1.202497e+00	-7.287993e-04	1.770000e-02	-2.100038e-01	-3.717066e-03	
24	1.262775e+00	-1.563780e-03	1.150000e-02	-1.128976e-01	-1.298322e-03	
25	1.326725e+00	-2.143209e-03	8.500000e-03	-8.947381e-02	-7.605273e-04	
26	1.395278e+00	-2.531353e-03	6.800000e-03	-7.844337e-02	-5.334149e-04	
27	1.475974e+00	-2.731299e-03	4.400000e-03	-7.241181e-02	-3.186119e-04	
28	1.576071e+00	-2.754089e-03	2.200000e-03	-6.817111e-02	-1.499764e-04	
29	1.679613e+00	-2.602922e-03	1.300000e-03	-6.590465e-02	-8.567604e-05	
