# Dataset name: HERMES_Deu_Kp_x_0.35_0.6_z_0.6_0.8	
#	  PhT [GeV]   	   pred.     	    exp.     	  hes.err(%) 	  hes.err * exp 	
0	1.059945e-01	2.147815e-02	3.042557e-02	1.047491e-01	3.187052e-03	
1	1.983015e-01	3.741258e-02	7.348958e-02	1.046567e-01	7.691179e-03	
2	2.883788e-01	4.860564e-02	4.907174e-02	1.044942e-01	5.127714e-03	
3	3.934518e-01	5.507530e-02	7.304527e-02	1.041819e-01	7.609997e-03	
4	5.199018e-01	5.354066e-02	7.589865e-02	1.035917e-01	7.862468e-03	
5	6.920894e-01	3.970898e-02	6.344416e-02	1.021772e-01	6.482545e-03	
6	9.252778e-01	1.460692e-02	9.922105e-03	1.024450e-01	1.016470e-03	
