# Dataset name: HERMES_Deu_Km_x_0.35_0.6_z_0.375_0.475	
#	  PhT [GeV]   	   pred.     	    exp.     	  hes.err(%) 	  hes.err * exp 	
0	9.782756e-02	1.030533e-02	4.203498e-02	7.256151e-01	3.050122e-02	
1	2.077053e-01	2.026888e-02	8.820959e-02	6.938876e-01	6.120754e-02	
2	3.215477e-01	2.729935e-02	6.730130e-02	6.384520e-01	4.296865e-02	
3	3.867801e-01	2.964485e-02	8.262539e-02	5.938407e-01	4.906632e-02	
4	5.092223e-01	3.093357e-02	1.624406e-01	4.880979e-01	7.928691e-02	
5	6.836932e-01	2.769424e-02	7.500476e-02	3.050451e-01	2.287984e-02	
6	8.919142e-01	2.048098e-02	1.313192e-02	1.805762e-01	2.371312e-03	
