# Dataset name: HERMES_Pro_Kp_x_0.35_0.6_z_0.3_0.375	
#	  PhT [GeV]   	   pred.     	    exp.     	  hes.err(%) 	  hes.err * exp 	
0	1.047192e-01	1.225721e-01	1.390101e-01	9.301860e-02	1.293052e-02	
1	2.038873e-01	2.146483e-01	4.263149e-01	9.174798e-02	3.911353e-02	
2	2.997725e-01	2.647246e-01	3.989543e-01	8.942479e-02	3.567640e-02	
3	3.966583e-01	2.717104e-01	3.755867e-01	8.566503e-02	3.217465e-02	
4	5.142346e-01	2.340132e-01	2.975210e-01	7.906258e-02	2.352278e-02	
5	6.997799e-01	1.367338e-01	1.783713e-01	6.910397e-02	1.232616e-02	
6	8.653902e-01	6.140512e-02	4.867617e-02	1.035132e-01	5.038625e-03	
