# Dataset name: HERMES_Pro_Km_x_0.2_0.35_z_0.2_0.25	
#	  PhT [GeV]   	   pred.     	    exp.     	  hes.err(%) 	  hes.err * exp 	
0	1.024848e-01	8.236891e-02	1.048945e-01	3.222500e-01	3.380225e-02	
1	1.974662e-01	1.499139e-01	2.806172e-01	3.240085e-01	9.092237e-02	
2	2.993815e-01	1.910594e-01	3.780179e-01	3.008533e-01	1.137279e-01	
3	4.015828e-01	1.900742e-01	2.379086e-01	2.467340e-01	5.870013e-02	
4	5.239053e-01	1.567899e-01	2.192179e-01	1.709486e-01	3.747499e-02	
5	6.887055e-01	1.031361e-01	1.251054e-01	1.415817e-01	1.771263e-02	
6	9.272516e-01	3.564861e-02	8.238811e-02	2.173888e-01	1.791025e-02	
