# Dataset name: HERMES_Deu_Kp_x_0.2_0.35_z_0.25_0.3	
#	  PhT [GeV]   	   pred.     	    exp.     	  hes.err(%) 	  hes.err * exp 	
0	9.531710e-02	1.184812e-01	2.506540e-01	1.361838e-01	3.413502e-02	
1	2.006803e-01	2.278530e-01	3.226056e-01	1.328444e-01	4.285633e-02	
2	2.995657e-01	2.828217e-01	4.684348e-01	1.246817e-01	5.840526e-02	
3	3.987054e-01	2.816810e-01	3.819220e-01	1.095736e-01	4.184855e-02	
4	5.178924e-01	2.313563e-01	3.035436e-01	8.562330e-02	2.599041e-02	
5	6.891560e-01	1.424775e-01	1.311934e-01	8.128836e-02	1.066450e-02	
6	9.165945e-01	5.381934e-02	3.816262e-02	1.921405e-01	7.332584e-03	
