# Dataset name: HERMES_Deu_Km_x_0.12_0.2_z_0.2_0.25	
#	  PhT [GeV]   	   pred.     	    exp.     	  hes.err(%) 	  hes.err * exp 	
0	9.959061e-02	8.078193e-02	1.586540e-01	3.275993e-01	5.197495e-02	
1	2.028098e-01	1.561678e-01	2.549928e-01	3.316914e-01	8.457891e-02	
2	3.019139e-01	1.931949e-01	2.474187e-01	3.137624e-01	7.763069e-02	
3	3.986251e-01	1.872685e-01	3.149648e-01	2.690504e-01	8.474140e-02	
4	5.174503e-01	1.497546e-01	2.052333e-01	1.977153e-01	4.057777e-02	
5	6.838458e-01	9.560252e-02	8.762311e-02	1.353509e-01	1.185987e-02	
6	8.988555e-01	3.959124e-02	2.963056e-02	1.060546e-01	3.142457e-03	
