# Dataset name: HERMES_Deu_Km_x_0.12_0.2_z_0.375_0.475	
#	  PhT [GeV]   	   pred.     	    exp.     	  hes.err(%) 	  hes.err * exp 	
0	1.005030e-01	2.041379e-02	2.922955e-02	1.920967e-01	5.614900e-03	
1	2.041043e-01	3.763522e-02	5.649088e-02	1.885243e-01	1.064990e-02	
2	3.007544e-01	4.759977e-02	7.349348e-02	1.830239e-01	1.345106e-02	
3	4.018558e-01	5.112360e-02	8.856695e-02	1.737384e-01	1.538748e-02	
4	5.231338e-01	4.759653e-02	5.772082e-02	1.574494e-01	9.088108e-03	
5	6.873157e-01	3.587239e-02	4.437765e-02	1.276895e-01	5.666560e-03	
6	9.276130e-01	1.880769e-02	1.177934e-02	1.152464e-01	1.357527e-03	
