# Dataset name: HERMES_Deu_Km_x_0.35_0.6_z_0.3_0.375	
#	  PhT [GeV]   	   pred.     	    exp.     	  hes.err(%) 	  hes.err * exp 	
0	9.939068e-02	2.422551e-02	5.997379e-02	5.985110e-01	3.589497e-02	
1	1.983724e-01	4.476150e-02	1.213555e-01	5.746914e-01	6.974197e-02	
2	2.983724e-01	5.903230e-02	1.837504e-01	5.296874e-01	9.733027e-02	
3	4.005031e-01	6.568484e-02	1.756449e-01	4.606682e-01	8.091402e-02	
4	5.227124e-01	6.444941e-02	9.467348e-02	3.536589e-01	3.348212e-02	
5	6.245075e-01	5.845386e-02	9.305129e-02	2.577483e-01	2.398382e-02	
6	9.633616e-01	2.840818e-02	1.861007e-02	2.859481e-01	5.321513e-03	
