# Dataset name: HERMES_Deu_Pip_x_0.2_0.35_z_0.475_0.6	
#	  PhT [GeV]   	   pred.     	    exp.     	  hes.err(%) 	  hes.err * exp 	
0	1.010375e-01	1.219782e-01	1.877351e-01	6.088812e-02	1.143084e-02	
1	2.030211e-01	2.231674e-01	4.405604e-01	6.071194e-02	2.674728e-02	
2	3.012857e-01	2.847058e-01	5.217692e-01	6.042987e-02	3.153044e-02	
3	4.009482e-01	3.052101e-01	5.310403e-01	5.996558e-02	3.184414e-02	
4	5.219686e-01	2.793998e-01	5.152790e-01	5.906993e-02	3.043749e-02	
5	6.873226e-01	1.887821e-01	2.941378e-01	5.695613e-02	1.675295e-02	
6	9.151833e-01	5.313604e-02	6.540642e-02	6.370146e-02	4.166485e-03	
