# Dataset name: HERMES_Pro_Pip_x_0.2_0.35_z_0.6_0.8	
#	  PhT [GeV]   	   pred.     	    exp.     	  hes.err(%) 	  hes.err * exp 	
0	9.939533e-02	6.259644e-02	9.604158e-02	6.038605e-02	5.799572e-03	
1	2.026394e-01	1.175194e-01	2.289709e-01	6.034769e-02	1.381786e-02	
2	3.008186e-01	1.529641e-01	2.679422e-01	6.027266e-02	1.614959e-02	
3	3.998817e-01	1.687800e-01	2.614272e-01	6.014866e-02	1.572449e-02	
4	5.211443e-01	1.619734e-01	2.491065e-01	5.991345e-02	1.492483e-02	
5	6.895752e-01	1.193143e-01	1.607010e-01	5.931562e-02	9.532079e-03	
6	9.349834e-01	4.038971e-02	5.920023e-02	5.857391e-02	3.467589e-03	
