# Dataset name: HERMES_Deu_Pim_x_0.35_0.6_z_0.3_0.375	
#	  PhT [GeV]   	   pred.     	    exp.     	  hes.err(%) 	  hes.err * exp 	
0	9.764513e-02	3.317709e-01	5.518773e-01	6.588908e-02	3.636269e-02	
1	2.044775e-01	6.165411e-01	1.151321e+00	6.539471e-02	7.529030e-02	
2	2.986955e-01	7.478160e-01	1.508392e+00	6.458754e-02	9.742333e-02	
3	3.975217e-01	7.496088e-01	1.625871e+00	6.334029e-02	1.029831e-01	
4	5.211664e-01	6.036477e-01	1.362117e+00	6.181471e-02	8.419886e-02	
5	6.757772e-01	3.407655e-01	5.361315e-01	6.692924e-02	3.588287e-02	
6	9.154175e-01	2.897955e-02	1.107776e-01	5.569175e-01	6.169398e-02	
