# Dataset name: HERMES_Pro_Pip_x_0.35_0.6_z_0.475_0.6	
#	  PhT [GeV]   	   pred.     	    exp.     	  hes.err(%) 	  hes.err * exp 	
0	9.885051e-02	1.383383e-01	1.807288e-01	5.633967e-02	1.018220e-02	
1	2.041226e-01	2.602233e-01	5.976104e-01	5.616181e-02	3.356288e-02	
2	3.003605e-01	3.316446e-01	5.858430e-01	5.589420e-02	3.274523e-02	
3	3.999113e-01	3.586269e-01	6.863173e-01	5.544256e-02	3.805119e-02	
4	5.177316e-01	3.336811e-01	5.719740e-01	5.460285e-02	3.123141e-02	
5	6.881568e-01	2.272766e-01	1.675222e-01	5.251031e-02	8.796643e-03	
6	8.951508e-01	7.804931e-02	7.136719e-02	5.486917e-02	3.915859e-03	
