# Dataset name: HERMES_Deu_Pip_x_0.35_0.6_z_0.25_0.3	
#	  PhT [GeV]   	   pred.     	    exp.     	  hes.err(%) 	  hes.err * exp 	
0	1.053806e-01	7.817205e-01	1.088151e+00	6.047777e-02	6.580894e-02	
1	2.037242e-01	1.359382e+00	2.901240e+00	5.995349e-02	1.739395e-01	
2	3.005075e-01	1.629704e+00	3.145327e+00	5.869460e-02	1.846137e-01	
3	3.977619e-01	1.553009e+00	3.116061e+00	5.654405e-02	1.761947e-01	
4	5.154488e-01	1.158269e+00	1.858204e+00	5.375737e-02	9.989216e-02	
5	6.843754e-01	5.289199e-01	4.579712e-01	6.534787e-02	2.992744e-02	
6	9.210122e-01	-1.452294e-02	5.203098e-02	-1.846633e+00	-9.608213e-02	
