# Dataset name: HERMES_Pro_Pip_x_0.12_0.2_z_0.2_0.25	
#	  PhT [GeV]   	   pred.     	    exp.     	  hes.err(%) 	  hes.err * exp 	
0	1.016154e-01	9.008181e-01	1.847455e+00	5.121196e-02	9.461180e-02	
1	2.032590e-01	1.718147e+00	3.776470e+00	5.163392e-02	1.949939e-01	
2	3.001776e-01	2.060819e+00	4.380336e+00	5.016649e-02	2.197461e-01	
3	3.978186e-01	1.850803e+00	3.715513e+00	4.677218e-02	1.737826e-01	
4	5.178970e-01	1.263767e+00	2.038461e+00	4.486820e-02	9.146208e-02	
5	6.830358e-01	6.384669e-01	7.625644e-01	5.610012e-02	4.277996e-02	
6	9.170666e-01	1.725059e-01	8.306189e-02	6.447094e-02	5.355078e-03	
