# Dataset name: HERMES_Pro_Pim_x_0.2_0.35_z_0.6_0.8	
#	  PhT [GeV]   	   pred.     	    exp.     	  hes.err(%) 	  hes.err * exp 	
0	1.032566e-01	3.016943e-02	5.137324e-02	1.042564e-01	5.355989e-03	
1	2.016946e-01	5.435710e-02	1.324507e-01	1.043489e-01	1.382108e-02	
2	3.011040e-01	7.083716e-02	1.106495e-01	1.045505e-01	1.156847e-02	
3	3.975786e-01	7.769939e-02	1.431822e-01	1.048679e-01	1.501521e-02	
4	5.215886e-01	7.388154e-02	1.210586e-01	1.055643e-01	1.277947e-02	
5	6.877197e-01	5.331701e-02	7.885035e-02	1.076387e-01	8.487345e-03	
6	9.342938e-01	1.524063e-02	2.808487e-02	1.264753e-01	3.552041e-03	
