# Dataset name: HERMES_Pro_Pip_x_0.12_0.2_z_0.3_0.375	
#	  PhT [GeV]   	   pred.     	    exp.     	  hes.err(%) 	  hes.err * exp 	
0	1.000063e-01	3.998808e-01	7.798529e-01	4.774880e-02	3.723704e-02	
1	2.028664e-01	7.250630e-01	1.657596e+00	4.730571e-02	7.841375e-02	
2	3.005534e-01	8.839714e-01	2.100811e+00	4.646534e-02	9.761490e-02	
3	3.987392e-01	8.770118e-01	2.046103e+00	4.506143e-02	9.220033e-02	
4	5.174031e-01	7.101835e-01	1.355529e+00	4.266014e-02	5.782706e-02	
5	6.805782e-01	4.087254e-01	5.966530e-01	4.079702e-02	2.434167e-02	
6	9.171139e-01	1.058685e-01	8.905530e-02	9.050075e-02	8.059572e-03	
