# Dataset name: HERMES_Pro_Pip_x_0.35_0.6_z_0.375_0.475	
#	  PhT [GeV]   	   pred.     	    exp.     	  hes.err(%) 	  hes.err * exp 	
0	1.028415e-01	2.885521e-01	3.497287e-01	4.825113e-02	1.687480e-02	
1	2.019101e-01	5.112391e-01	9.278412e-01	4.797740e-02	4.451541e-02	
2	3.043648e-01	6.439895e-01	1.451229e+00	4.747445e-02	6.889630e-02	
3	3.990046e-01	6.673706e-01	1.161587e+00	4.676536e-02	5.432203e-02	
4	5.173808e-01	5.844914e-01	8.241262e-01	4.550399e-02	3.750103e-02	
5	6.798517e-01	3.624141e-01	5.716079e-01	4.401753e-02	2.516077e-02	
6	8.921141e-01	8.190203e-02	1.156430e-01	1.052916e-01	1.217624e-02	
