# Dataset name: COMPASS_Deu_Pm_Km_x_0.0752_z_0.244	
#	  PhT [GeV]   	   pred.     	    exp.     	  hes.err(%) 	  hes.err * exp 	
0	3.602777e-01	2.525100e+00	4.498600e+00	2.506464e-03	1.127558e-02	
1	3.934463e-01	2.247320e+00	4.075700e+00	2.616372e-03	1.066355e-02	
2	4.276681e-01	1.970326e+00	3.612900e+00	2.878015e-03	1.039798e-02	
3	4.610857e-01	1.714021e+00	3.114700e+00	3.278876e-03	1.021271e-02	
4	4.994998e-01	1.445306e+00	2.636200e+00	3.948850e-03	1.040996e-02	
5	5.335729e-01	1.234950e+00	2.241200e+00	4.722054e-03	1.058307e-02	
6	5.690343e-01	1.042271e+00	1.850500e+00	5.638024e-03	1.043316e-02	
7	6.113101e-01	8.470628e-01	1.468600e+00	6.906961e-03	1.014356e-02	
8	6.545991e-01	6.819144e-01	1.208200e+00	8.352336e-03	1.009129e-02	
9	6.989993e-01	5.426335e-01	8.740000e-01	9.970424e-03	8.714150e-03	
10	7.467262e-01	4.206883e-01	6.628000e-01	1.190171e-02	7.888451e-03	
11	7.986238e-01	3.137654e-01	4.640000e-01	1.430810e-02	6.638958e-03	
12	8.467585e-01	2.335874e-01	3.520000e-01	1.697959e-02	5.976816e-03	
13	9.003333e-01	1.620478e-01	2.419000e-01	2.087281e-02	5.049133e-03	
14	9.650907e-01	9.618735e-02	1.716000e-01	2.811291e-02	4.824175e-03	
15	1.027813e+00	5.014181e-02	1.176000e-01	4.156897e-02	4.888511e-03	
16	1.085173e+00	1.931963e-02	8.150000e-02	8.059308e-02	6.568336e-03	
17	1.142760e+00	-2.223412e-03	5.450000e-02	-4.900127e-01	-2.670569e-02	
18	1.203412e+00	-1.608237e-02	3.830000e-02	-4.367931e-02	-1.672918e-03	
19	1.263091e+00	-2.353922e-02	3.090000e-02	-1.619286e-02	-5.003594e-04	
20	1.326235e+00	-2.715187e-02	1.740000e-02	-6.931078e-03	-1.206008e-04	
21	1.397605e+00	-2.683089e-02	1.210000e-02	-1.034130e-02	-1.251297e-04	
22	1.477870e+00	-2.301982e-02	8.300000e-03	-1.820550e-02	-1.511056e-04	
23	1.573182e+00	-1.676442e-02	4.700000e-03	-3.098410e-02	-1.456253e-04	
24	1.677558e+00	-9.768426e-03	2.600000e-03	-5.531228e-02	-1.438119e-04	
