# Dataset name: COMPASS_Deu_Pm_Km_x_0.2909_z_0.243	
#	  PhT [GeV]   	   pred.     	    exp.     	  hes.err(%) 	  hes.err * exp 	
0	3.003331e-01	3.255419e+00	4.687300e+00	2.095464e-03	9.822066e-03	
1	3.319639e-01	3.004301e+00	4.713600e+00	1.958744e-03	9.232736e-03	
2	3.600000e-01	2.774692e+00	4.106600e+00	1.830828e-03	7.518477e-03	
3	3.929377e-01	2.497419e+00	3.627700e+00	1.647311e-03	5.975950e-03	
4	4.273172e-01	2.216194e+00	3.132700e+00	1.435465e-03	4.496880e-03	
5	4.619524e-01	1.943939e+00	2.974400e+00	1.230003e-03	3.658522e-03	
6	4.993996e-01	1.665789e+00	2.578100e+00	1.061413e-03	2.736428e-03	
7	5.334792e-01	1.436251e+00	1.998200e+00	1.046979e-03	2.092073e-03	
8	5.694734e-01	1.216888e+00	1.806100e+00	1.258137e-03	2.272322e-03	
9	6.116371e-01	9.900754e-01	1.350800e+00	1.781915e-03	2.407011e-03	
10	6.533758e-01	7.985954e-01	1.144100e+00	2.529763e-03	2.894302e-03	
11	7.002143e-01	6.170382e-01	8.143000e-01	3.619908e-03	2.947691e-03	
12	7.469270e-01	4.668411e-01	5.844000e-01	5.044979e-03	2.948285e-03	
13	7.989368e-01	3.302988e-01	4.908000e-01	7.236911e-03	3.551876e-03	
14	8.503529e-01	2.207709e-01	2.946000e-01	1.061420e-02	3.126943e-03	
15	8.999444e-01	1.350579e-01	2.584000e-01	1.660353e-02	4.290353e-03	
16	9.623409e-01	5.077497e-02	1.482000e-01	4.083692e-02	6.052032e-03	
17	1.024109e+00	-9.646074e-03	9.980000e-02	-1.929964e-01	-1.926104e-02	
18	1.087060e+00	-5.484010e-02	7.190000e-02	-2.963441e-02	-2.130714e-03	
19	1.141709e+00	-8.215277e-02	4.430000e-02	-1.720663e-02	-7.622538e-04	
20	1.205114e+00	-1.020562e-01	2.760000e-02	-1.161488e-02	-3.205706e-04	
21	1.261467e+00	-1.103127e-01	2.170000e-02	-8.950750e-03	-1.942313e-04	
22	1.332404e+00	-1.137978e-01	1.250000e-02	-6.650003e-03	-8.312503e-05	
23	1.385135e+00	-1.120886e-01	7.300000e-03	-5.404581e-03	-3.945344e-05	
24	1.497364e+00	-9.957147e-02	4.600000e-03	-3.414936e-03	-1.570871e-05	
25	1.576769e+00	-8.748399e-02	4.900000e-03	-2.295741e-03	-1.124913e-05	
26	1.665773e+00	-7.297765e-02	2.500000e-03	-1.299317e-03	-3.248293e-06	
