# Dataset name: COMPASS_Deu_Pm_Km_x_0.0427_z_0.344	
#	  PhT [GeV]   	   pred.     	    exp.     	  hes.err(%) 	  hes.err * exp 	
0	2.641969e-01	1.411264e+00	2.309500e+00	6.577124e-03	1.518987e-02	
1	2.996665e-01	1.314796e+00	2.241600e+00	6.314489e-03	1.415456e-02	
2	3.315117e-01	1.221637e+00	2.114700e+00	6.088306e-03	1.287494e-02	
3	3.604164e-01	1.137354e+00	1.903800e+00	5.803201e-03	1.104813e-02	
4	3.931921e-01	1.040272e+00	1.772400e+00	5.476560e-03	9.706655e-03	
5	4.274342e-01	9.382454e-01	1.644800e+00	5.140562e-03	8.455196e-03	
6	4.613025e-01	8.417256e-01	1.407200e+00	4.790898e-03	6.741751e-03	
7	4.994998e-01	7.358304e-01	1.286300e+00	4.498461e-03	5.786370e-03	
8	5.339476e-01	6.480979e-01	1.143400e+00	4.371970e-03	4.998911e-03	
9	5.692978e-01	5.630758e-01	1.012200e+00	4.503862e-03	4.558809e-03	
10	6.118823e-01	4.721005e-01	8.496000e-01	5.184708e-03	4.404928e-03	
11	6.549809e-01	3.907314e-01	6.748000e-01	6.484076e-03	4.375454e-03	
12	6.997142e-01	3.173463e-01	5.742000e-01	8.448367e-03	4.851052e-03	
13	7.472617e-01	2.520530e-01	4.536000e-01	1.129300e-02	5.122503e-03	
14	7.987490e-01	1.934124e-01	3.423000e-01	1.520171e-02	5.203546e-03	
15	8.471718e-01	1.488017e-01	2.782000e-01	1.997918e-02	5.558208e-03	
16	9.011104e-01	1.090822e-01	2.020000e-01	2.681332e-02	5.416290e-03	
17	9.648316e-01	7.303716e-02	1.434000e-01	3.795513e-02	5.442765e-03	
18	1.028591e+00	4.663574e-02	1.077000e-01	5.473391e-02	5.894842e-03	
19	1.085449e+00	2.924996e-02	8.010000e-02	7.907113e-02	6.333597e-03	
20	1.142322e+00	1.665083e-02	6.140000e-02	1.235871e-01	7.588246e-03	
21	1.203204e+00	6.829533e-03	4.430000e-02	2.586611e-01	1.145868e-02	
22	1.263210e+00	2.364357e-04	3.370000e-02	6.293678e+00	2.120969e-01	
23	1.327366e+00	-4.246744e-03	2.490000e-02	-2.829162e-01	-7.044614e-03	
24	1.395314e+00	-7.328869e-03	1.720000e-02	-1.248019e-01	-2.146593e-03	
25	1.480101e+00	-8.997876e-03	1.180000e-02	-6.806074e-02	-8.031167e-04	
26	1.577308e+00	-9.270292e-03	8.200000e-03	-3.587754e-02	-2.941958e-04	
27	1.671616e+00	-8.519590e-03	5.300000e-03	-1.619697e-02	-8.584393e-05	
