# Dataset name: COMPASS_Deu_Pm_Km_x_0.0106_z_0.686	
#	  PhT [GeV]   	   pred.     	    exp.     	  hes.err(%) 	  hes.err * exp 	
0	1.732051e-01	2.785980e-01	2.743000e-01	2.372776e-02	6.508526e-03	
1	2.231591e-01	2.616886e-01	2.675000e-01	2.367040e-02	6.331831e-03	
2	2.638181e-01	2.457857e-01	2.770000e-01	2.361136e-02	6.540346e-03	
3	2.994996e-01	2.305733e-01	2.530000e-01	2.354892e-02	5.957877e-03	
4	3.315117e-01	2.162043e-01	2.457000e-01	2.348275e-02	5.769710e-03	
5	3.601389e-01	2.029655e-01	2.144000e-01	2.341482e-02	5.020137e-03	
6	3.940812e-01	1.869930e-01	2.097000e-01	2.332092e-02	4.890398e-03	
7	4.270831e-01	1.713888e-01	1.891000e-01	2.321673e-02	4.390284e-03	
8	4.609772e-01	1.555199e-01	1.789000e-01	2.309178e-02	4.131120e-03	
9	4.996999e-01	1.378241e-01	1.494000e-01	2.292596e-02	3.425138e-03	
10	5.336666e-01	1.228831e-01	1.290000e-01	2.275660e-02	2.935602e-03	
11	5.701754e-01	1.075968e-01	1.293000e-01	2.254752e-02	2.915394e-03	
12	6.110646e-01	9.160953e-02	1.125000e-01	2.227575e-02	2.506021e-03	
13	6.549046e-01	7.594423e-02	7.750000e-02	2.193944e-02	1.700307e-03	
14	6.997142e-01	6.161793e-02	7.350000e-02	2.155628e-02	1.584387e-03	
15	7.477968e-01	4.817775e-02	6.450000e-02	2.113936e-02	1.363489e-03	
16	7.987490e-01	3.608542e-02	5.780000e-02	2.083651e-02	1.204350e-03	
17	8.472308e-01	2.651465e-02	4.490000e-02	2.108715e-02	9.468131e-04	
18	9.031058e-01	1.762010e-02	3.930000e-02	2.348225e-02	9.228523e-04	
19	9.631199e-01	1.030080e-02	3.200000e-02	3.358751e-02	1.074800e-03	
20	1.028056e+00	4.547144e-03	2.470000e-02	7.517897e-02	1.856921e-03	
21	1.086370e+00	9.223230e-04	1.820000e-02	3.894147e-01	7.087348e-03	
22	1.144028e+00	-1.549811e-03	1.320000e-02	-2.416749e-01	-3.190108e-03	
23	1.205156e+00	-3.254728e-03	1.030000e-02	-1.173862e-01	-1.209078e-03	
24	1.260635e+00	-4.196282e-03	9.300000e-03	-9.069445e-02	-8.434584e-04	
25	1.331278e+00	-4.813165e-03	7.600000e-03	-7.670233e-02	-5.829377e-04	
26	1.388524e+00	-4.985330e-03	4.700000e-03	-7.107369e-02	-3.340463e-04	
27	1.478107e+00	-4.889692e-03	3.400000e-03	-6.641726e-02	-2.258187e-04	
28	1.581202e+00	-4.486019e-03	2.500000e-03	-6.372990e-02	-1.593248e-04	
29	1.675470e+00	-3.998085e-03	1.900000e-03	-6.232105e-02	-1.184100e-04	
