# Dataset name: COMPASS_Deu_Pm_Km_x_0.0678_z_0.345	
#	  PhT [GeV]   	   pred.     	    exp.     	  hes.err(%) 	  hes.err * exp 	
0	2.996665e-01	1.330694e+00	2.590400e+00	5.139553e-03	1.331350e-02	
1	3.315117e-01	1.227232e+00	2.268900e+00	5.113977e-03	1.160310e-02	
2	3.604164e-01	1.129697e+00	2.172900e+00	5.098921e-03	1.107944e-02	
3	3.931921e-01	1.020017e+00	1.910800e+00	5.094872e-03	9.735281e-03	
4	4.274342e-01	9.065087e-01	1.903600e+00	5.114481e-03	9.735925e-03	
5	4.608687e-01	8.002131e-01	1.546700e+00	5.176987e-03	8.007246e-03	
6	4.995998e-01	6.843975e-01	1.397800e+00	5.322218e-03	7.439397e-03	
7	5.341348e-01	5.893457e-01	1.223800e+00	5.547634e-03	6.789194e-03	
8	5.697368e-01	5.006125e-01	9.594000e-01	5.911987e-03	5.671961e-03	
9	6.111465e-01	4.092611e-01	8.316000e-01	6.542031e-03	5.440353e-03	
10	6.549809e-01	3.268166e-01	6.527000e-01	7.549006e-03	4.927236e-03	
11	6.982120e-01	2.580392e-01	4.929000e-01	8.879117e-03	4.376517e-03	
12	7.473286e-01	1.944634e-01	3.596000e-01	1.103630e-02	3.968655e-03	
13	7.981228e-01	1.419659e-01	2.875000e-01	1.406187e-02	4.042788e-03	
14	8.478207e-01	1.018393e-01	1.927000e-01	1.824431e-02	3.515679e-03	
15	9.023303e-01	6.821636e-02	1.408000e-01	2.489552e-02	3.505289e-03	
16	9.650907e-01	4.013189e-02	9.200000e-02	3.741220e-02	3.441923e-03	
17	1.028105e+00	2.091418e-02	6.130000e-02	6.219453e-02	3.812525e-03	
18	1.081342e+00	9.955206e-03	4.240000e-02	1.132983e-01	4.803846e-03	
19	1.145295e+00	1.609862e-03	3.180000e-02	5.754168e-01	1.829825e-02	
20	1.201499e+00	-2.593964e-03	1.800000e-02	-2.916017e-01	-5.248830e-03	
21	1.263962e+00	-4.823685e-03	8.900000e-03	-1.209960e-01	-1.076864e-03	
22	1.324085e+00	-5.386162e-03	7.000000e-03	-8.004673e-02	-5.603271e-04	
23	1.388740e+00	-4.869833e-03	1.030000e-02	-5.999120e-02	-6.179094e-04	
24	1.484789e+00	-3.106879e-03	3.800000e-03	-4.103587e-02	-1.559363e-04	
25	1.572546e+00	-1.186166e-03	2.200000e-03	-3.863034e-02	-8.498674e-05	
26	1.680893e+00	9.139280e-04	8.000000e-04	1.088935e-01	8.711476e-05	
