# Dataset name: COMPASS_Deu_Pm_Km_x_0.2544_z_0.344	
#	  PhT [GeV]   	   pred.     	    exp.     	  hes.err(%) 	  hes.err * exp 	
0	2.229350e-01	1.319395e-01	2.452500e+00	6.346578e-02	1.556498e-01	
1	2.640076e-01	1.252678e-01	2.023300e+00	6.197685e-02	1.253978e-01	
2	2.996665e-01	1.190807e-01	2.126800e+00	6.036426e-02	1.283827e-01	
3	3.316625e-01	1.130552e-01	2.032000e+00	5.881868e-02	1.195196e-01	
4	3.601389e-01	1.075294e-01	1.906300e+00	5.719404e-02	1.090290e-01	
5	3.929377e-01	1.011281e-01	1.584600e+00	5.514967e-02	8.739016e-02	
6	4.277850e-01	9.405003e-02	1.439400e+00	5.283850e-02	7.605574e-02	
7	4.613025e-01	8.750868e-02	1.417700e+00	5.032225e-02	7.134186e-02	
8	4.994998e-01	7.996690e-02	1.176100e+00	4.670469e-02	5.492939e-02	
9	5.332917e-01	7.372295e-02	9.911000e-01	4.439546e-02	4.400034e-02	
10	5.694734e-01	6.712752e-02	8.559000e-01	4.116566e-02	3.523369e-02	
11	6.115554e-01	6.007012e-02	7.390000e-01	3.716233e-02	2.746296e-02	
12	6.546755e-01	5.333736e-02	4.948000e-01	3.294023e-02	1.629882e-02	
13	6.996428e-01	4.681070e-02	4.759000e-01	2.848771e-02	1.355730e-02	
14	7.467262e-01	4.071884e-02	3.457000e-01	2.390349e-02	8.263435e-03	
15	8.000625e-01	3.448422e-02	2.313000e-01	1.915153e-02	4.429749e-03	
16	8.472898e-01	2.960944e-02	1.996000e-01	1.589700e-02	3.173041e-03	
17	9.023857e-01	2.456026e-02	1.275000e-01	1.451847e-02	1.851105e-03	
18	9.648834e-01	1.958391e-02	8.430000e-02	1.736885e-02	1.464194e-03	
19	1.026158e+00	1.540211e-02	5.670000e-02	2.416348e-02	1.370069e-03	
20	1.085679e+00	1.189584e-02	3.740000e-02	3.370020e-02	1.260388e-03	
21	1.144596e+00	8.945915e-03	2.920000e-02	4.650209e-02	1.357861e-03	
22	1.201416e+00	6.474413e-03	1.750000e-02	6.416427e-02	1.122875e-03	
23	1.261547e+00	4.261224e-03	9.200000e-03	9.477991e-02	8.719751e-04	
24	1.328458e+00	2.241054e-03	8.500000e-03	1.690499e-01	1.436924e-03	
25	1.393198e+00	6.235714e-04	8.700000e-03	5.577886e-01	4.852761e-03	
26	1.469660e+00	-8.332134e-04	6.400000e-03	-3.707403e-01	-2.372738e-03	
27	1.572259e+00	-2.189046e-03	1.200000e-03	-1.158568e-01	-1.390282e-04	
28	1.680625e+00	-2.983617e-03	1.400000e-03	-6.608226e-02	-9.251516e-05	
