# Dataset name: COMPASS_Deu_Pm_Km_x_0.0260_z_0.682	
#	  PhT [GeV]   	   pred.     	    exp.     	  hes.err(%) 	  hes.err * exp 	
0	1.734935e-01	3.148748e-02	2.413000e-01	9.104259e-02	2.196858e-02	
1	2.240536e-01	3.009464e-02	2.087000e-01	9.034261e-02	1.885450e-02	
2	2.647640e-01	2.877096e-02	2.242000e-01	8.967931e-02	2.010610e-02	
3	2.989983e-01	2.746214e-02	1.880000e-01	8.930895e-02	1.679008e-02	
4	3.313608e-01	2.625125e-02	2.012000e-01	8.847204e-02	1.780057e-02	
5	3.609709e-01	2.501413e-02	1.814000e-01	8.791820e-02	1.594836e-02	
6	3.935734e-01	2.366870e-02	1.696000e-01	8.696306e-02	1.474894e-02	
7	4.281355e-01	2.215434e-02	1.595000e-01	8.603141e-02	1.372201e-02	
8	4.606517e-01	2.069333e-02	1.344000e-01	8.512444e-02	1.144073e-02	
9	5.000000e-01	1.902240e-02	1.223000e-01	8.339386e-02	1.019907e-02	
10	5.338539e-01	1.753458e-02	1.081000e-01	8.203305e-02	8.867772e-03	
11	5.693856e-01	1.605467e-02	9.850000e-02	8.013180e-02	7.892982e-03	
12	6.119640e-01	1.431406e-02	8.780000e-02	7.768102e-02	6.820394e-03	
13	6.556676e-01	1.259176e-02	8.740000e-02	7.487660e-02	6.544215e-03	
14	6.997142e-01	1.104384e-02	7.490000e-02	7.103586e-02	5.320586e-03	
15	7.483315e-01	9.403709e-03	5.660000e-02	6.654429e-02	3.766407e-03	
16	8.001875e-01	7.894939e-03	5.230000e-02	6.028573e-02	3.152944e-03	
17	8.478207e-01	6.620973e-03	5.510000e-02	5.392061e-02	2.971025e-03	
18	9.012214e-01	5.424771e-03	3.970000e-02	4.529989e-02	1.798406e-03	
19	9.656086e-01	4.177523e-03	3.170000e-02	3.470940e-02	1.100288e-03	
20	1.029272e+00	3.221537e-03	2.540000e-02	2.949949e-02	7.492871e-04	
21	1.086232e+00	2.513079e-03	2.180000e-02	3.898337e-02	8.498374e-04	
22	1.143547e+00	1.950180e-03	1.680000e-02	6.228613e-02	1.046407e-03	
23	1.205031e+00	1.502182e-03	1.420000e-02	9.777995e-02	1.388475e-03	
24	1.265938e+00	1.142838e-03	9.700000e-03	1.435601e-01	1.392533e-03	
25	1.330038e+00	8.899740e-04	8.200000e-03	1.970680e-01	1.615957e-03	
26	1.395959e+00	6.793159e-04	4.500000e-03	2.640870e-01	1.188391e-03	
27	1.479054e+00	5.140143e-04	3.800000e-03	3.456306e-01	1.313396e-03	
28	1.577498e+00	3.732775e-04	3.200000e-03	4.505792e-01	1.441853e-03	
29	1.679970e+00	2.931798e-04	2.300000e-03	5.260836e-01	1.209992e-03	
