# Dataset name: COMPASS_Deu_Pm_Km_x_0.0161_z_0.344	
#	  PhT [GeV]   	   pred.     	    exp.     	  hes.err(%) 	  hes.err * exp 	
0	1.726268e-01	2.278523e-01	2.672600e+00	9.670621e-02	2.584570e-01	
1	2.231591e-01	2.143333e-01	2.618500e+00	9.485250e-02	2.483713e-01	
2	2.641969e-01	2.018364e-01	2.354900e+00	9.253402e-02	2.179084e-01	
3	2.998333e-01	1.900680e-01	2.318000e+00	8.993154e-02	2.084613e-01	
4	3.315117e-01	1.777930e-01	2.114700e+00	8.783839e-02	1.857519e-01	
5	3.605551e-01	1.673110e-01	2.001400e+00	8.502788e-02	1.701748e-01	
6	3.929377e-01	1.545036e-01	1.864700e+00	8.208162e-02	1.530576e-01	
7	4.277850e-01	1.416026e-01	1.660700e+00	7.808289e-02	1.296723e-01	
8	4.610857e-01	1.291542e-01	1.442900e+00	7.418228e-02	1.070376e-01	
9	4.998000e-01	1.157653e-01	1.281000e+00	6.903499e-02	8.843382e-02	
10	5.337603e-01	1.046323e-01	1.149600e+00	6.435462e-02	7.398207e-02	
11	5.694734e-01	9.398650e-02	9.594000e-01	5.914474e-02	5.674346e-02	
12	6.118006e-01	8.239375e-02	8.176000e-01	5.301009e-02	4.334105e-02	
13	6.545991e-01	7.205374e-02	6.712000e-01	4.690087e-02	3.147986e-02	
14	6.994998e-01	6.258029e-02	5.680000e-01	4.093572e-02	2.325149e-02	
15	7.471278e-01	5.372966e-02	4.348000e-01	3.557915e-02	1.546981e-02	
16	7.990620e-01	4.561895e-02	3.298000e-01	3.148946e-02	1.038522e-02	
17	8.478207e-01	3.886989e-02	2.714000e-01	2.981209e-02	8.091002e-03	
18	9.010549e-01	3.272567e-02	2.013000e-01	3.073836e-02	6.187631e-03	
19	9.635352e-01	2.649931e-02	1.493000e-01	3.448642e-02	5.148822e-03	
20	1.027278e+00	2.127775e-02	1.073000e-01	4.009765e-02	4.302478e-03	
21	1.086094e+00	1.726473e-02	8.490000e-02	4.579471e-02	3.887971e-03	
22	1.142760e+00	1.398370e-02	6.190000e-02	5.115735e-02	3.166640e-03	
23	1.203910e+00	1.102833e-02	4.690000e-02	5.652672e-02	2.651103e-03	
24	1.265938e+00	8.520924e-03	3.700000e-02	6.136874e-02	2.270643e-03	
25	1.327366e+00	6.474447e-03	2.770000e-02	6.554092e-02	1.815483e-03	
26	1.393915e+00	4.664375e-03	1.930000e-02	6.965740e-02	1.344388e-03	
27	1.480034e+00	2.850455e-03	1.350000e-02	7.573589e-02	1.022435e-03	
28	1.579810e+00	1.340688e-03	8.600000e-03	9.512410e-02	8.180672e-04	
29	1.674873e+00	3.960560e-04	5.600000e-03	2.365979e-01	1.324948e-03	
