# Dataset name: COMPASS_Deu_Pp_Kp_x_0.0254_z_0.345	
#	  PhT [GeV]   	   pred.     	    exp.     	  hes.err(%) 	  hes.err * exp 	
0	2.645751e-01	1.654578e+00	3.082100e+00	4.230401e-03	1.303852e-02	
1	2.993326e-01	1.532911e+00	2.852500e+00	4.340420e-03	1.238105e-02	
2	3.315117e-01	1.412620e+00	2.618400e+00	4.454881e-03	1.166466e-02	
3	3.600000e-01	1.304577e+00	2.425700e+00	4.616736e-03	1.119882e-02	
4	3.933192e-01	1.176583e+00	2.258400e+00	4.832427e-03	1.091355e-02	
5	4.276681e-01	1.047763e+00	2.215100e+00	5.155576e-03	1.142012e-02	
6	4.610857e-01	9.268402e-01	1.874000e+00	5.537349e-03	1.037699e-02	
7	4.994998e-01	7.968477e-01	1.590900e+00	6.127467e-03	9.748187e-03	
8	5.334792e-01	6.911072e-01	1.447100e+00	6.767406e-03	9.793113e-03	
9	5.696490e-01	5.893309e-01	1.197000e+00	7.625968e-03	9.128283e-03	
10	6.122908e-01	4.837078e-01	9.774000e-01	8.846404e-03	8.646475e-03	
11	6.546755e-01	3.938460e-01	8.307000e-01	1.035417e-02	8.601206e-03	
12	6.988562e-01	3.151022e-01	6.295000e-01	1.226808e-02	7.722755e-03	
13	7.468601e-01	2.445749e-01	5.323000e-01	1.480294e-02	7.879603e-03	
14	7.994998e-01	1.829928e-01	3.740000e-01	1.830287e-02	6.845273e-03	
15	8.471718e-01	1.386814e-01	2.851000e-01	2.220161e-02	6.329680e-03	
16	9.008329e-01	9.985090e-02	2.095000e-01	2.785538e-02	5.835702e-03	
17	9.645724e-01	6.553965e-02	1.488000e-01	3.678534e-02	5.473659e-03	
18	1.029174e+00	4.114368e-02	1.215000e-01	4.974007e-02	6.043418e-03	
19	1.085541e+00	2.630869e-02	8.680000e-02	6.615328e-02	5.742104e-03	
20	1.142103e+00	1.598957e-02	5.980000e-02	9.058581e-02	5.417032e-03	
21	1.202497e+00	8.736531e-03	4.300000e-02	1.328553e-01	5.712776e-03	
22	1.266017e+00	4.081846e-03	3.190000e-02	2.172586e-01	6.930550e-03	
23	1.326989e+00	1.621526e-03	2.670000e-02	4.041855e-01	1.079175e-02	
24	1.395206e+00	3.501536e-04	1.890000e-02	1.241306e+00	2.346069e-02	
25	1.476381e+00	3.864599e-05	1.210000e-02	5.794857e+00	7.011776e-02	
26	1.581961e+00	5.528295e-04	8.100000e-03	8.863619e-02	7.179532e-04	
27	1.678273e+00	1.332823e-03	5.100000e-03	7.977592e-02	4.068572e-04	
