# Dataset name: COMPASS_Deu_Pp_Kp_x_0.0161_z_0.482	
#	  PhT [GeV]   	   pred.     	    exp.     	  hes.err(%) 	  hes.err * exp 	
0	1.723369e-01	8.026047e-01	1.114000e+00	7.380134e-03	8.221469e-03	
1	2.231591e-01	7.499422e-01	1.050800e+00	7.356429e-03	7.730136e-03	
2	2.641969e-01	7.007324e-01	9.499000e-01	7.337097e-03	6.969508e-03	
3	3.000000e-01	6.542897e-01	9.385000e-01	7.319403e-03	6.869259e-03	
4	3.319639e-01	6.109643e-01	9.035000e-01	7.306531e-03	6.601450e-03	
5	3.606938e-01	5.708980e-01	8.682000e-01	7.299619e-03	6.337529e-03	
6	3.934463e-01	5.247412e-01	8.202000e-01	7.300032e-03	5.987486e-03	
7	4.274342e-01	4.770908e-01	7.360000e-01	7.316684e-03	5.385080e-03	
8	4.611941e-01	4.304170e-01	6.596000e-01	7.354041e-03	4.850725e-03	
9	4.995998e-01	3.793179e-01	5.889000e-01	7.446708e-03	4.385366e-03	
10	5.335729e-01	3.360048e-01	5.303000e-01	7.575972e-03	4.017538e-03	
11	5.698245e-01	2.927369e-01	4.698000e-01	7.811505e-03	3.669845e-03	
12	6.119640e-01	2.462092e-01	4.064000e-01	8.235095e-03	3.346743e-03	
13	6.549809e-01	2.035413e-01	3.433000e-01	8.931823e-03	3.066295e-03	
14	6.987131e-01	1.651557e-01	2.935000e-01	1.002116e-02	2.941209e-03	
15	7.471278e-01	1.285306e-01	2.402000e-01	1.185205e-02	2.846862e-03	
16	7.991245e-01	9.573111e-02	2.001000e-01	1.491005e-02	2.983501e-03	
17	8.477618e-01	7.065582e-02	1.595000e-01	1.923934e-02	3.068675e-03	
18	9.015542e-01	4.856113e-02	1.265000e-01	2.679143e-02	3.389116e-03	
19	9.652979e-01	2.885328e-02	8.920000e-02	4.264514e-02	3.803947e-03	
20	1.028348e+00	1.503051e-02	7.130000e-02	7.700783e-02	5.490658e-03	
21	1.085219e+00	6.373681e-03	5.440000e-02	1.700020e-01	9.248108e-03	
22	1.142147e+00	4.925104e-04	4.230000e-02	2.039441e+00	8.626835e-02	
23	1.202996e+00	-3.481464e-03	3.390000e-02	-2.621473e-01	-8.886795e-03	
24	1.262458e+00	-5.652433e-03	2.500000e-02	-1.454580e-01	-3.636451e-03	
25	1.328044e+00	-6.729370e-03	1.770000e-02	-1.068699e-01	-1.891597e-03	
26	1.394131e+00	-6.850164e-03	1.340000e-02	-9.043153e-02	-1.211782e-03	
27	1.478310e+00	-6.220373e-03	9.200000e-03	-7.982263e-02	-7.343682e-04	
28	1.577878e+00	-4.913917e-03	5.300000e-03	-7.429234e-02	-3.937494e-04	
29	1.676455e+00	-3.465820e-03	4.400000e-03	-7.250450e-02	-3.190198e-04	
