# Dataset name: COMPASS_Deu_Pp_Kp_x_0.2544_z_0.346	
#	  PhT [GeV]   	   pred.     	    exp.     	  hes.err(%) 	  hes.err * exp 	
0	2.236068e-01	2.238105e+00	4.247100e+00	2.181834e-03	9.266467e-03	
1	2.643861e-01	2.079987e+00	4.103100e+00	2.157151e-03	8.851006e-03	
2	2.998333e-01	1.931144e+00	3.544400e+00	2.131050e-03	7.553292e-03	
3	3.312099e-01	1.790820e+00	3.309900e+00	2.109458e-03	6.982094e-03	
4	3.605551e-01	1.658648e+00	3.054200e+00	2.082336e-03	6.359870e-03	
5	3.937004e-01	1.507553e+00	2.658300e+00	2.053852e-03	5.459754e-03	
6	4.276681e-01	1.351867e+00	2.509300e+00	2.024317e-03	5.079618e-03	
7	4.607602e-01	1.205552e+00	2.252500e+00	1.998499e-03	4.501618e-03	
8	4.993996e-01	1.040005e+00	1.923600e+00	1.979354e-03	3.807485e-03	
9	5.337603e-01	9.029043e-01	1.556500e+00	1.981406e-03	3.084059e-03	
10	5.687706e-01	7.715776e-01	1.322400e+00	2.012906e-03	2.661867e-03	
11	6.115554e-01	6.271865e-01	1.077000e+00	2.129873e-03	2.293873e-03	
12	6.552099e-01	4.971816e-01	8.415000e-01	2.382252e-03	2.004665e-03	
13	6.995713e-01	3.822733e-01	6.806000e-01	2.858485e-03	1.945485e-03	
14	7.465923e-01	2.801902e-01	5.027000e-01	3.745337e-03	1.882781e-03	
15	7.981854e-01	1.879953e-01	3.655000e-01	5.450028e-03	1.991985e-03	
16	8.473488e-01	1.184167e-01	2.462000e-01	8.565827e-03	2.108907e-03	
17	9.012769e-01	5.879451e-02	1.878000e-01	1.692647e-02	3.178791e-03	
18	9.657122e-01	6.540540e-03	1.291000e-01	1.459587e-01	1.884327e-02	
19	1.026255e+00	-2.728359e-02	8.040000e-02	-3.302853e-02	-2.655493e-03	
20	1.085818e+00	-4.959167e-02	5.580000e-02	-1.682400e-02	-9.387789e-04	
21	1.139912e+00	-6.235179e-02	2.940000e-02	-1.230709e-02	-3.618286e-04	
22	1.203952e+00	-7.089668e-02	2.960000e-02	-9.594603e-03	-2.840002e-04	
23	1.260595e+00	-7.404890e-02	1.830000e-02	-8.154808e-03	-1.492330e-04	
24	1.326537e+00	-7.348409e-02	1.350000e-02	-6.987947e-03	-9.433729e-05	
25	1.385929e+00	-7.106962e-02	7.100000e-03	-6.126452e-03	-4.349781e-05	
26	1.478276e+00	-6.452004e-02	5.000000e-03	-5.102176e-03	-2.551088e-05	
27	1.563969e+00	-5.660704e-02	2.200000e-03	-4.289324e-03	-9.436512e-06	
28	1.676037e+00	-4.641961e-02	1.200000e-03	-3.297505e-03	-3.957007e-06	
