# Dataset name: COMPASS_Deu_Pp_Kp_x_0.0427_z_0.345	
#	  PhT [GeV]   	   pred.     	    exp.     	  hes.err(%) 	  hes.err * exp 	
0	2.647640e-01	1.636442e+00	3.031300e+00	3.526222e-03	1.068904e-02	
1	3.001666e-01	1.523120e+00	2.673600e+00	3.435584e-03	9.185378e-03	
2	3.315117e-01	1.415394e+00	2.650700e+00	3.372880e-03	8.940493e-03	
3	3.601389e-01	1.317336e+00	2.449500e+00	3.312339e-03	8.113575e-03	
4	3.933192e-01	1.201670e+00	2.258800e+00	3.281147e-03	7.411454e-03	
5	4.273172e-01	1.083029e+00	1.972100e+00	3.302059e-03	6.511991e-03	
6	4.611941e-01	9.696513e-01	1.820800e+00	3.419906e-03	6.226964e-03	
7	4.998000e-01	8.442741e-01	1.652300e+00	3.676986e-03	6.075484e-03	
8	5.332917e-01	7.442318e-01	1.391300e+00	4.095594e-03	5.698200e-03	
9	5.692978e-01	6.428266e-01	1.244100e+00	4.688626e-03	5.833119e-03	
10	6.118823e-01	5.363802e-01	1.013900e+00	5.733607e-03	5.813304e-03	
11	6.549809e-01	4.412598e-01	8.301000e-01	7.102974e-03	5.896179e-03	
12	6.991423e-01	3.568853e-01	6.756000e-01	8.904611e-03	6.015955e-03	
13	7.476630e-01	2.794136e-01	5.561000e-01	1.145856e-02	6.372104e-03	
14	7.985612e-01	2.123845e-01	4.333000e-01	1.483547e-02	6.428210e-03	
15	8.477028e-01	1.603310e-01	3.247000e-01	1.915330e-02	6.219077e-03	
16	9.012769e-01	1.153209e-01	2.509000e-01	2.538985e-02	6.370314e-03	
17	9.642095e-01	7.500539e-02	1.787000e-01	3.601378e-02	6.435663e-03	
18	1.027570e+00	4.562045e-02	1.194000e-01	5.345583e-02	6.382627e-03	
19	1.084574e+00	2.641799e-02	9.320000e-02	8.247297e-02	7.686481e-03	
20	1.144072e+00	1.232489e-02	6.920000e-02	1.546815e-01	1.070396e-02	
21	1.202040e+00	2.605987e-03	5.260000e-02	6.268396e-01	3.297176e-02	
22	1.262814e+00	-4.047611e-03	3.680000e-02	-3.373774e-01	-1.241549e-02	
23	1.328796e+00	-8.318058e-03	2.630000e-02	-1.308100e-01	-3.440304e-03	
24	1.395314e+00	-1.082643e-02	2.220000e-02	-7.645172e-02	-1.697228e-03	
25	1.479696e+00	-1.169600e-02	1.460000e-02	-4.745660e-02	-6.928663e-04	
26	1.581518e+00	-1.110044e-02	1.020000e-02	-2.606736e-02	-2.658870e-04	
27	1.678839e+00	-9.528642e-03	6.700000e-03	-1.248551e-02	-8.365290e-05	
