# Dataset name: COMPASS_Deu_Pp_Kp_x_0.0752_z_0.482	
#	  PhT [GeV]   	   pred.     	    exp.     	  hes.err(%) 	  hes.err * exp 	
0	1.729162e-01	7.965177e-01	1.380700e+00	4.190804e-03	5.786243e-03	
1	2.236068e-01	7.496705e-01	1.339800e+00	4.153262e-03	5.564541e-03	
2	2.645751e-01	7.048767e-01	1.242600e+00	4.128671e-03	5.130287e-03	
3	3.000000e-01	6.634473e-01	1.195500e+00	4.094505e-03	4.894981e-03	
4	3.315117e-01	6.242216e-01	1.137900e+00	4.067535e-03	4.628448e-03	
5	3.601389e-01	5.873755e-01	1.073300e+00	4.035279e-03	4.331065e-03	
6	3.934463e-01	5.432959e-01	9.778000e-01	4.002326e-03	3.913474e-03	
7	4.275512e-01	4.983868e-01	8.869000e-01	3.961907e-03	3.513816e-03	
8	4.610857e-01	4.538588e-01	8.228000e-01	3.927954e-03	3.231920e-03	
9	4.995998e-01	4.042522e-01	7.293000e-01	3.891054e-03	2.837745e-03	
10	5.334792e-01	3.615293e-01	6.349000e-01	3.871098e-03	2.457760e-03	
11	5.693856e-01	3.186514e-01	5.737000e-01	3.872111e-03	2.221430e-03	
12	6.117189e-01	2.705841e-01	4.955000e-01	3.918117e-03	1.941427e-03	
13	6.551336e-01	2.256194e-01	4.118000e-01	4.071500e-03	1.676644e-03	
14	6.992138e-01	1.839302e-01	3.635000e-01	4.379286e-03	1.591871e-03	
15	7.478636e-01	1.436046e-01	3.009000e-01	5.070790e-03	1.525801e-03	
16	7.986864e-01	1.070629e-01	2.278000e-01	6.339939e-03	1.444238e-03	
17	8.476438e-01	7.767730e-02	1.906000e-01	8.547749e-03	1.629201e-03	
18	9.014433e-01	5.101070e-02	1.426000e-01	1.284554e-02	1.831774e-03	
19	9.649352e-01	2.651743e-02	1.106000e-01	2.466670e-02	2.728137e-03	
20	1.027910e+00	8.703871e-03	7.940000e-02	7.427544e-02	5.897470e-03	
21	1.084988e+00	-3.004154e-03	6.150000e-02	-2.090641e-01	-1.285744e-02	
22	1.143460e+00	-1.125723e-02	4.260000e-02	-5.360384e-02	-2.283524e-03	
23	1.202622e+00	-1.674907e-02	3.210000e-02	-3.395172e-02	-1.089850e-03	
24	1.264160e+00	-1.998645e-02	2.320000e-02	-2.640630e-02	-6.126262e-04	
25	1.326461e+00	-2.147355e-02	1.600000e-02	-2.239768e-02	-3.583629e-04	
26	1.394417e+00	-2.159230e-02	1.080000e-02	-1.981307e-02	-2.139812e-04	
27	1.479662e+00	-2.035098e-02	7.000000e-03	-1.771135e-02	-1.239795e-04	
28	1.577783e+00	-1.789910e-02	4.800000e-03	-1.595991e-02	-7.660755e-05	
29	1.671556e+00	-1.517278e-02	2.800000e-03	-1.446735e-02	-4.050858e-05	
