# Dataset name: COMPASS_Deu_Pp_Kp_x_0.2909_z_0.245	
#	  PhT [GeV]   	   pred.     	    exp.     	  hes.err(%) 	  hes.err * exp 	
0	2.998333e-01	4.076331e+00	6.984800e+00	1.438784e-03	1.004962e-02	
1	3.316625e-01	3.751308e+00	6.276300e+00	1.367712e-03	8.584171e-03	
2	3.604164e-01	3.448439e+00	6.033400e+00	1.307053e-03	7.885972e-03	
3	3.938274e-01	3.087264e+00	5.260900e+00	1.225862e-03	6.449138e-03	
4	4.274342e-01	2.735439e+00	4.781000e+00	1.158831e-03	5.540370e-03	
5	4.607602e-01	2.400301e+00	4.180900e+00	1.128926e-03	4.719925e-03	
6	4.999000e-01	2.029383e+00	3.540500e+00	1.171907e-03	4.149138e-03	
7	5.344156e-01	1.734789e+00	2.792900e+00	1.316481e-03	3.676800e-03	
8	5.693856e-01	1.465874e+00	2.325300e+00	1.573074e-03	3.657870e-03	
9	6.119640e-01	1.178302e+00	1.806400e+00	2.050240e-03	3.703554e-03	
10	6.543699e-01	9.364981e-01	1.386000e+00	2.698441e-03	3.740039e-03	
11	6.987131e-01	7.243611e-01	1.108600e+00	3.586209e-03	3.975671e-03	
12	7.464583e-01	5.368069e-01	8.053000e-01	4.867479e-03	3.919781e-03	
13	7.989368e-01	3.705395e-01	6.177000e-01	6.904543e-03	4.264936e-03	
14	8.484692e-01	2.448698e-01	4.721000e-01	1.000706e-02	4.724333e-03	
15	8.992775e-01	1.414918e-01	2.988000e-01	1.630163e-02	4.870928e-03	
16	9.667988e-01	3.735966e-02	2.027000e-01	5.549407e-02	1.124865e-02	
17	1.024207e+00	-2.544533e-02	1.288000e-01	-7.266777e-02	-9.359609e-03	
18	1.084528e+00	-7.427532e-02	8.430000e-02	-2.161935e-02	-1.822511e-03	
19	1.140526e+00	-1.053802e-01	6.220000e-02	-1.312369e-02	-8.162936e-04	
20	1.205695e+00	-1.273078e-01	3.120000e-02	-9.020193e-03	-2.814300e-04	
21	1.256821e+00	-1.348480e-01	2.070000e-02	-7.142045e-03	-1.478403e-04	
22	1.329511e+00	-1.380524e-01	2.310000e-02	-5.290919e-03	-1.222202e-04	
23	1.392803e+00	-1.343859e-01	1.580000e-02	-4.157469e-03	-6.568801e-05	
24	1.478749e+00	-1.227962e-01	1.070000e-02	-2.964194e-03	-3.171688e-05	
25	1.577308e+00	-1.049294e-01	4.300000e-03	-1.910022e-03	-8.213093e-06	
26	1.682676e+00	-8.457885e-02	1.500000e-03	-1.294077e-03	-1.941116e-06	
