# Dataset name: COMPASS_Deu_Pp_Kp_x_0.0771_z_0.481	
#	  PhT [GeV]   	   pred.     	    exp.     	  hes.err(%) 	  hes.err * exp 	
0	1.726268e-01	7.089142e-01	1.039500e+00	4.887435e-03	5.080488e-03	
1	2.231591e-01	6.725011e-01	1.045000e+00	4.813075e-03	5.029663e-03	
2	2.640076e-01	6.369862e-01	1.032300e+00	4.768816e-03	4.922848e-03	
3	2.998333e-01	6.040488e-01	9.400000e-01	4.697343e-03	4.415502e-03	
4	3.315117e-01	5.727975e-01	8.908000e-01	4.641515e-03	4.134661e-03	
5	3.601389e-01	5.431238e-01	8.643000e-01	4.569914e-03	3.949777e-03	
6	3.928104e-01	5.080119e-01	7.736000e-01	4.497180e-03	3.479019e-03	
7	4.275512e-01	4.709331e-01	7.552000e-01	4.390223e-03	3.315497e-03	
8	4.614109e-01	4.338104e-01	7.059000e-01	4.291439e-03	3.029327e-03	
9	4.999000e-01	3.927135e-01	6.071000e-01	4.149063e-03	2.518896e-03	
10	5.334792e-01	3.569578e-01	5.656000e-01	4.028040e-03	2.278259e-03	
11	5.688585e-01	3.210561e-01	4.873000e-01	3.876856e-03	1.889192e-03	
12	6.123724e-01	2.781563e-01	4.688000e-01	3.705489e-03	1.737133e-03	
13	6.550573e-01	2.392943e-01	3.879000e-01	3.543220e-03	1.374415e-03	
14	6.992854e-01	2.015584e-01	3.296000e-01	3.444825e-03	1.135414e-03	
15	7.473286e-01	1.649524e-01	2.763000e-01	3.511654e-03	9.702701e-04	
16	7.995624e-01	1.293618e-01	2.435000e-01	3.966752e-03	9.659042e-04	
17	8.478797e-01	1.012132e-01	2.052000e-01	4.998970e-03	1.025789e-03	
18	9.024411e-01	7.404722e-02	1.554000e-01	7.094848e-03	1.102539e-03	
19	9.659710e-01	4.828055e-02	1.201000e-01	1.168238e-02	1.403054e-03	
20	1.028154e+00	2.876430e-02	8.970000e-02	2.067422e-02	1.854477e-03	
21	1.084574e+00	1.497977e-02	7.950000e-02	4.051725e-02	3.221121e-03	
22	1.144902e+00	4.017001e-03	5.680000e-02	1.514646e-01	8.603191e-03	
23	1.203703e+00	-3.840951e-03	4.220000e-02	-1.549289e-01	-6.537998e-03	
24	1.264199e+00	-9.397125e-03	3.180000e-02	-6.086112e-02	-1.935384e-03	
25	1.328571e+00	-1.329384e-02	2.570000e-02	-4.040988e-02	-1.038534e-03	
26	1.394382e+00	-1.557398e-02	2.030000e-02	-3.181898e-02	-6.459253e-04	
27	1.482869e+00	-1.683545e-02	1.130000e-02	-2.576704e-02	-2.911675e-04	
28	1.581487e+00	-1.664105e-02	9.200000e-03	-2.180379e-02	-2.005948e-04	
29	1.678392e+00	-1.564484e-02	6.600000e-03	-1.887011e-02	-1.245428e-04	
