# Dataset name: COMPASS_Deu_Pp_Kp_x_0.0170_z_0.684	
#	  PhT [GeV]   	   pred.     	    exp.     	  hes.err(%) 	  hes.err * exp 	
0	1.723369e-01	2.615352e-01	2.661000e-01	1.133246e-02	3.015568e-03	
1	2.227106e-01	2.482080e-01	2.366000e-01	1.129068e-02	2.671375e-03	
2	2.640076e-01	2.354368e-01	2.377000e-01	1.124667e-02	2.673333e-03	
3	3.019934e-01	2.223951e-01	2.549000e-01	1.120341e-02	2.855749e-03	
4	3.313608e-01	2.117355e-01	2.301000e-01	1.115870e-02	2.567616e-03	
5	3.598611e-01	2.009317e-01	2.179000e-01	1.111583e-02	2.422138e-03	
6	3.945884e-01	1.874038e-01	1.953000e-01	1.105342e-02	2.158733e-03	
7	4.267318e-01	1.746271e-01	1.870000e-01	1.098983e-02	2.055099e-03	
8	4.611941e-01	1.608263e-01	1.721000e-01	1.091583e-02	1.878614e-03	
9	4.991994e-01	1.457645e-01	1.721000e-01	1.082081e-02	1.862261e-03	
10	5.333854e-01	1.324176e-01	1.528000e-01	1.073188e-02	1.639831e-03	
11	5.700000e-01	1.185636e-01	1.259000e-01	1.062907e-02	1.338200e-03	
12	6.116371e-01	1.034874e-01	1.270000e-01	1.050862e-02	1.334594e-03	
13	6.545991e-01	8.883984e-02	1.253000e-01	1.039450e-02	1.302431e-03	
14	6.974238e-01	7.538235e-02	9.710000e-02	1.030927e-02	1.001030e-03	
15	7.481310e-01	6.089680e-02	7.560000e-02	1.031191e-02	7.795803e-04	
16	7.984360e-01	4.826155e-02	7.660000e-02	1.056382e-02	8.091886e-04	
17	8.478797e-01	3.743961e-02	5.420000e-02	1.131296e-02	6.131627e-04	
18	9.029396e-01	2.726651e-02	4.710000e-02	1.333283e-02	6.279764e-04	
19	9.664885e-01	1.774464e-02	3.340000e-02	1.878149e-02	6.273018e-04	
20	1.025329e+00	1.086168e-02	2.540000e-02	3.028062e-02	7.691277e-04	
21	1.085035e+00	5.486772e-03	2.360000e-02	6.084164e-02	1.435863e-03	
22	1.140789e+00	1.702057e-03	2.200000e-02	1.989169e-01	4.376171e-03	
23	1.202040e+00	-1.293339e-03	1.850000e-02	-2.638593e-01	-4.881396e-03	
24	1.257696e+00	-3.218032e-03	1.140000e-02	-1.052623e-01	-1.199990e-03	
25	1.323631e+00	-4.694147e-03	8.700000e-03	-7.059212e-02	-6.141514e-04	
26	1.392264e+00	-5.584356e-03	7.900000e-03	-5.697168e-02	-4.500763e-04	
27	1.480338e+00	-6.030085e-03	4.500000e-03	-4.917215e-02	-2.212747e-04	
28	1.579240e+00	-5.986875e-03	4.800000e-03	-4.468773e-02	-2.145011e-04	
29	1.679553e+00	-5.604164e-03	2.200000e-03	-4.221407e-02	-9.287094e-05	
