# Dataset name: HERMES_Deu_Kp_x_0.35_0.6_z_0.475_0.6	
#	  PhT [GeV]   	   pred.     	    exp.     	  hes.err(%) 	  hes.err * exp 	
0	8.938051e-02	3.715451e-02	5.218101e-02	7.825196e-03	4.083266e-04	
1	1.962116e-01	7.468111e-02	1.747649e-01	7.803273e-03	1.363738e-03	
2	2.991563e-01	9.803609e-02	1.605665e-01	7.761906e-03	1.246302e-03	
3	4.013062e-01	1.064893e-01	1.781479e-01	7.694764e-03	1.370806e-03	
4	5.127518e-01	1.000547e-01	1.155629e-01	7.580255e-03	8.759963e-04	
5	6.934433e-01	6.764430e-02	7.442827e-02	7.249789e-03	5.395893e-04	
6	9.232142e-01	2.000638e-02	2.648028e-02	7.858526e-03	2.080960e-04	
