# Dataset name: HERMES_Pro_Km_x_0.35_0.6_z_0.475_0.6	
#	  PhT [GeV]   	   pred.     	    exp.     	  hes.err(%) 	  hes.err * exp 	
0	1.258535e-01	4.316228e-03	2.235244e-02	1.082728e-01	2.420162e-03	
1	2.079933e-01	6.693692e-03	5.654492e-02	1.060887e-01	5.998778e-03	
2	3.178172e-01	8.907580e-03	4.096521e-02	1.019071e-01	4.174644e-03	
3	3.973118e-01	9.730921e-03	5.143469e-02	9.750985e-02	5.015389e-03	
4	5.059303e-01	9.895974e-03	2.380394e-02	8.883585e-02	2.114643e-03	
5	6.974862e-01	8.259123e-03	2.278876e-02	6.489338e-02	1.478840e-03	
6	9.026850e-01	5.545774e-03	1.655008e-02	2.611218e-02	4.321587e-04	
