# Dataset name: HERMES_Deu_Pip_x_0.12_0.2_z_0.2_0.25	
#	  PhT [GeV]   	   pred.     	    exp.     	  hes.err(%) 	  hes.err * exp 	
0	1.011472e-01	8.720676e-01	1.703670e+00	4.299551e-03	7.325016e-03	
1	2.034896e-01	1.673945e+00	3.646221e+00	4.290457e-03	1.564395e-02	
2	3.000338e-01	2.005974e+00	4.210294e+00	4.413486e-03	1.858207e-02	
3	3.973015e-01	1.801310e+00	3.427120e+00	4.820840e-03	1.652160e-02	
4	5.177553e-01	1.226408e+00	1.949601e+00	5.855552e-03	1.141599e-02	
5	6.810029e-01	6.231123e-01	7.124453e-01	8.129287e-03	5.791673e-03	
6	9.069266e-01	1.792569e-01	1.225297e-01	1.324139e-02	1.622463e-03	
