# Dataset name: HERMES_Deu_Pim_x_0.2_0.35_z_0.25_0.3	
#	  PhT [GeV]   	   pred.     	    exp.     	  hes.err(%) 	  hes.err * exp 	
0	1.004011e-01	5.374213e-01	9.357822e-01	1.857045e-03	1.737790e-03	
1	2.024239e-01	9.800100e-01	2.071786e+00	1.880338e-03	3.895657e-03	
2	2.993898e-01	1.184816e+00	2.417785e+00	1.957399e-03	4.732571e-03	
3	3.986939e-01	1.133750e+00	2.021503e+00	2.206090e-03	4.459617e-03	
4	5.177601e-01	8.553700e-01	1.608086e+00	3.034601e-03	4.879899e-03	
5	6.826585e-01	4.396768e-01	6.059677e-01	5.976613e-03	3.621634e-03	
6	9.192111e-01	7.163536e-02	1.052726e-01	2.906277e-02	3.059514e-03	
