# Dataset name: HERMES_Deu_Pim_x_0.2_0.35_z_0.3_0.375	
#	  PhT [GeV]   	   pred.     	    exp.     	  hes.err(%) 	  hes.err * exp 	
0	9.986429e-02	3.200972e-01	5.762606e-01	2.293244e-03	1.321506e-03	
1	2.028636e-01	5.801922e-01	1.131865e+00	2.292938e-03	2.595297e-03	
2	3.010536e-01	7.092266e-01	1.571365e+00	2.308104e-03	3.626874e-03	
3	3.993285e-01	7.078551e-01	1.562714e+00	2.383581e-03	3.724856e-03	
4	5.184466e-01	5.766234e-01	1.033226e+00	2.724610e-03	2.815137e-03	
5	6.837390e-01	3.218338e-01	5.961636e-01	4.556142e-03	2.716206e-03	
6	9.278642e-01	4.944259e-02	1.081643e-01	2.794218e-02	3.022346e-03	
