# Dataset name: HERMES_Pro_Km_x_0.35_0.6_z_0.375_0.475	
#	  PhT [GeV]   	   pred.     	    exp.     	  hes.err(%) 	  hes.err * exp 	
0	1.031017e-01	1.046690e-02	1.669798e-02	6.351928e-02	1.060644e-03	
1	2.065023e-01	1.956466e-02	7.048543e-02	6.064400e-02	4.274518e-03	
2	3.122167e-01	2.613659e-02	1.080258e-01	5.609333e-02	6.059526e-03	
3	4.036471e-01	2.938998e-02	6.710959e-02	5.035743e-02	3.379466e-03	
4	5.679188e-01	2.993353e-02	4.341933e-02	3.672052e-02	1.594380e-03	
5	6.887420e-01	2.738615e-02	4.986066e-02	2.476720e-02	1.234909e-03	
6	9.412101e-01	1.885488e-02	4.222017e-03	1.202847e-02	5.078442e-05	
