# Dataset name: HERMES_Deu_Km_x_0.12_0.2_z_0.25_0.3	
#	  PhT [GeV]   	   pred.     	    exp.     	  hes.err(%) 	  hes.err * exp 	
0	1.007087e-01	5.794769e-02	1.079312e-01	5.499584e-02	5.935767e-03	
1	1.996254e-01	1.065123e-01	1.851915e-01	5.401031e-02	1.000225e-02	
2	2.985316e-01	1.340552e-01	1.452631e-01	5.145695e-02	7.474797e-03	
3	4.000656e-01	1.356141e-01	2.542141e-01	4.629737e-02	1.176944e-02	
4	5.177748e-01	1.155175e-01	1.355988e-01	3.747869e-02	5.082065e-03	
5	6.874360e-01	7.881965e-02	1.027075e-01	2.428025e-02	2.493764e-03	
6	9.348780e-01	3.471540e-02	1.149123e-02	2.052373e-02	2.358429e-04	
