# Dataset name: HERMES_Deu_Pim_x_0.2_0.35_z_0.375_0.475	
#	  PhT [GeV]   	   pred.     	    exp.     	  hes.err(%) 	  hes.err * exp 	
0	9.967201e-02	1.649358e-01	2.841653e-01	3.005843e-03	8.541564e-04	
1	2.026882e-01	3.012754e-01	5.859313e-01	2.990645e-03	1.752312e-03	
2	3.005442e-01	3.760103e-01	7.776398e-01	2.970079e-03	2.309651e-03	
3	4.008244e-01	3.902033e-01	8.073745e-01	2.950194e-03	2.381911e-03	
4	5.218467e-01	3.384178e-01	6.450593e-01	2.986270e-03	1.926321e-03	
5	6.834361e-01	2.107183e-01	3.660587e-01	3.589540e-03	1.313982e-03	
6	9.160692e-01	4.387399e-02	8.605568e-02	1.578060e-02	1.358010e-03	
