# Dataset name: HERMES_Pro_Km_x_0.12_0.2_z_0.3_0.375	
#	  PhT [GeV]   	   pred.     	    exp.     	  hes.err(%) 	  hes.err * exp 	
0	1.006145e-01	3.261808e-02	5.297657e-02	6.792159e-02	3.598253e-03	
1	1.988228e-01	5.897357e-02	1.130506e-01	6.629967e-02	7.495217e-03	
2	3.014286e-01	7.594463e-02	1.381620e-01	6.257662e-02	8.645711e-03	
3	3.987591e-01	8.025206e-02	1.357145e-01	5.690240e-02	7.722480e-03	
4	5.174328e-01	7.360968e-02	8.906072e-02	4.692977e-02	4.179599e-03	
5	6.880977e-01	5.508290e-02	5.299726e-02	2.879235e-02	1.525916e-03	
6	9.258956e-01	3.014729e-02	2.099111e-02	1.726407e-02	3.623920e-04	
