# Dataset name: HERMES_Deu_Km_x_0.2_0.35_z_0.475_0.6	
#	  PhT [GeV]   	   pred.     	    exp.     	  hes.err(%) 	  hes.err * exp 	
0	1.012514e-01	6.944625e-03	1.026794e-02	1.134648e-01	1.165050e-03	
1	2.137888e-01	1.331809e-02	2.021401e-02	1.117442e-01	2.258798e-03	
2	3.011439e-01	1.652021e-02	2.031543e-02	1.101115e-01	2.236963e-03	
3	3.999752e-01	1.809290e-02	3.979702e-02	1.068388e-01	4.251867e-03	
4	5.214635e-01	1.729385e-02	3.401043e-02	1.005094e-01	3.418368e-03	
5	6.875141e-01	1.305181e-02	2.185287e-02	8.517531e-02	1.861325e-03	
6	9.229375e-01	6.043937e-03	6.190289e-03	3.583063e-02	2.218020e-04	
