# Dataset name: HERMES_Deu_Km_x_0.2_0.35_z_0.375_0.475	
#	  PhT [GeV]   	   pred.     	    exp.     	  hes.err(%) 	  hes.err * exp 	
0	9.772264e-02	1.505970e-02	1.791905e-02	8.653875e-02	1.550692e-03	
1	2.036815e-01	2.871914e-02	6.737537e-02	8.420965e-02	5.673656e-03	
2	3.010769e-01	3.707082e-02	9.385564e-02	8.031652e-02	7.538159e-03	
3	4.017426e-01	4.076664e-02	7.376100e-02	7.434492e-02	5.483755e-03	
4	5.130532e-01	3.989946e-02	6.381167e-02	6.470262e-02	4.128782e-03	
5	6.908837e-01	3.194228e-02	3.915623e-02	4.253884e-02	1.665661e-03	
6	9.560620e-01	1.767431e-02	9.277560e-03	2.105357e-02	1.953258e-04	
