# Dataset name: HERMES_Pro_Kp_x_0.12_0.2_z_0.25_0.3	
#	  PhT [GeV]   	   pred.     	    exp.     	  hes.err(%) 	  hes.err * exp 	
0	9.927784e-02	1.123841e-01	2.048423e-01	1.544513e-02	3.163816e-03	
1	2.015448e-01	2.097450e-01	3.938592e-01	1.524796e-02	6.005548e-03	
2	2.988198e-01	2.588367e-01	3.856595e-01	1.470892e-02	5.672634e-03	
3	3.993237e-01	2.552917e-01	3.615991e-01	1.361176e-02	4.921999e-03	
4	5.200964e-01	2.060776e-01	2.396012e-01	1.172182e-02	2.808561e-03	
5	6.823507e-01	1.316276e-01	1.140278e-01	9.897322e-03	1.128570e-03	
6	9.027509e-01	5.750722e-02	2.483125e-02	1.336262e-02	3.318107e-04	
