# Dataset name: HERMES_Pro_Pip_x_0.35_0.6_z_0.475_0.6	
#	  PhT [GeV]   	   pred.     	    exp.     	  hes.err(%) 	  hes.err * exp 	
0	9.885051e-02	1.383383e-01	1.807288e-01	2.254532e-03	4.074589e-04	
1	2.041226e-01	2.602233e-01	5.976104e-01	2.259860e-03	1.350516e-03	
2	3.003605e-01	3.316446e-01	5.858430e-01	2.266273e-03	1.327680e-03	
3	3.999113e-01	3.586269e-01	6.863173e-01	2.281840e-03	1.566066e-03	
4	5.177316e-01	3.336811e-01	5.719740e-01	2.317404e-03	1.325495e-03	
5	6.881568e-01	2.272766e-01	1.675222e-01	2.485816e-03	4.164294e-04	
6	8.951508e-01	7.804931e-02	7.136719e-02	4.143615e-03	2.957181e-04	
