# Dataset name: HERMES_Deu_Pip_x_0.2_0.35_z_0.375_0.475	
#	  PhT [GeV]   	   pred.     	    exp.     	  hes.err(%) 	  hes.err * exp 	
0	1.002584e-01	2.409197e-01	4.278310e-01	2.770015e-03	1.185098e-03	
1	2.037400e-01	4.391060e-01	9.061638e-01	2.779384e-03	2.518577e-03	
2	3.004258e-01	5.455287e-01	1.073311e+00	2.798232e-03	3.003373e-03	
3	3.986458e-01	5.660040e-01	1.138747e+00	2.835670e-03	3.229111e-03	
4	5.194970e-01	4.914428e-01	8.817596e-01	2.962913e-03	2.612577e-03	
5	6.821574e-01	3.039246e-01	4.458521e-01	3.587060e-03	1.599298e-03	
6	9.228536e-01	5.408451e-02	9.088911e-02	1.469144e-02	1.335292e-03	
