# Dataset name: HERMES_Deu_Pim_x_0.35_0.6_z_0.475_0.6	
#	  PhT [GeV]   	   pred.     	    exp.     	  hes.err(%) 	  hes.err * exp 	
0	1.042481e-01	8.924239e-02	1.295977e-01	1.801317e-03	2.334466e-04	
1	2.053974e-01	1.600821e-01	3.031542e-01	1.797264e-03	5.448482e-04	
2	2.995284e-01	2.024592e-01	2.911002e-01	1.786271e-03	5.199840e-04	
3	3.954537e-01	2.181546e-01	4.208812e-01	1.777553e-03	7.481385e-04	
4	5.236783e-01	1.999078e-01	4.036503e-01	1.786071e-03	7.209479e-04	
5	6.927016e-01	1.325876e-01	2.280684e-01	2.043039e-03	4.659527e-04	
6	9.396567e-01	2.520933e-02	6.427387e-02	9.910452e-03	6.369831e-04	
