# Dataset name: HERMES_Pro_Km_x_0.2_0.35_z_0.2_0.25	
#	  PhT [GeV]   	   pred.     	    exp.     	  hes.err(%) 	  hes.err * exp 	
0	1.024848e-01	8.236891e-02	1.048945e-01	2.949767e-02	3.094143e-03	
1	1.974662e-01	1.499139e-01	2.806172e-01	2.957343e-02	8.298814e-03	
2	2.993815e-01	1.910594e-01	3.780179e-01	2.790456e-02	1.054842e-02	
3	4.015828e-01	1.900742e-01	2.379086e-01	2.396072e-02	5.700461e-03	
4	5.239053e-01	1.567899e-01	2.192179e-01	1.774986e-02	3.891087e-03	
5	6.887055e-01	1.031361e-01	1.251054e-01	1.273652e-02	1.593408e-03	
6	9.272516e-01	3.564861e-02	8.238811e-02	2.045737e-02	1.685444e-03	
