# Dataset name: COMPASS_Deu_Pm_Km_x_0.0254_z_0.344	
#	  PhT [GeV]   	   pred.     	    exp.     	  hes.err(%) 	  hes.err * exp 	
0	2.641969e-01	2.539133e-01	2.444500e+00	7.356725e-02	1.798351e-01	
1	2.998333e-01	2.382077e-01	2.455500e+00	7.159144e-02	1.757928e-01	
2	3.315117e-01	2.225392e-01	2.282600e+00	6.982260e-02	1.593771e-01	
3	3.605551e-01	2.085629e-01	2.189600e+00	6.766746e-02	1.481647e-01	
4	3.931921e-01	1.919753e-01	1.998400e+00	6.520748e-02	1.303106e-01	
5	4.276681e-01	1.751666e-01	1.794300e+00	6.206440e-02	1.113622e-01	
6	4.611941e-01	1.589630e-01	1.556200e+00	5.882256e-02	9.153967e-02	
7	4.995998e-01	1.415953e-01	1.385500e+00	5.463795e-02	7.570088e-02	
8	5.334792e-01	1.271913e-01	1.191400e+00	5.072653e-02	6.043558e-02	
9	5.694734e-01	1.131908e-01	1.011200e+00	4.631127e-02	4.682995e-02	
10	6.122908e-01	9.807278e-02	8.396000e-01	4.096498e-02	3.439420e-02	
11	6.540642e-01	8.506020e-02	6.731000e-01	3.577295e-02	2.407878e-02	
12	6.990708e-01	7.284822e-02	5.492000e-01	3.054618e-02	1.677596e-02	
13	7.462573e-01	6.171613e-02	4.377000e-01	2.599654e-02	1.137868e-02	
14	7.989368e-01	5.128336e-02	3.342000e-01	2.302443e-02	7.694765e-03	
15	8.478207e-01	4.292990e-02	2.709000e-01	2.292491e-02	6.210358e-03	
16	9.004999e-01	3.542747e-02	1.967000e-01	2.587321e-02	5.089261e-03	
17	9.653497e-01	2.768647e-02	1.342000e-01	3.207736e-02	4.304782e-03	
18	1.028397e+00	2.161441e-02	1.038000e-01	3.942380e-02	4.092190e-03	
19	1.086140e+00	1.706788e-02	7.300000e-02	4.639246e-02	3.386649e-03	
20	1.142979e+00	1.336020e-02	5.080000e-02	5.301327e-02	2.693074e-03	
21	1.202497e+00	1.018300e-02	3.950000e-02	5.952029e-02	2.351051e-03	
22	1.261785e+00	7.594976e-03	2.790000e-02	6.553320e-02	1.828376e-03	
23	1.328270e+00	5.284471e-03	2.620000e-02	7.191941e-02	1.884289e-03	
24	1.395457e+00	3.463311e-03	1.690000e-02	7.944296e-02	1.342586e-03	
25	1.481587e+00	1.747093e-03	9.800000e-03	1.006426e-01	9.862974e-04	
26	1.576357e+00	4.845173e-04	7.100000e-03	2.684930e-01	1.906300e-03	
27	1.677528e+00	-2.981074e-04	4.800000e-03	-4.643134e-01	-2.228704e-03	
