# Dataset name: COMPASS_Deu_Pm_Km_x_0.2909_z_0.343	
#	  PhT [GeV]   	   pred.     	    exp.     	  hes.err(%) 	  hes.err * exp 	
0	1.723369e-01	1.264310e-01	2.145100e+00	7.947994e-02	1.704924e-01	
1	2.233831e-01	1.215433e-01	1.993300e+00	7.670085e-02	1.528878e-01	
2	2.640076e-01	1.170786e-01	2.117000e+00	7.392368e-02	1.564964e-01	
3	3.000000e-01	1.129116e-01	1.943800e+00	7.096216e-02	1.379362e-01	
4	3.318132e-01	1.089237e-01	1.842600e+00	6.816448e-02	1.255999e-01	
5	3.602777e-01	1.050170e-01	1.617200e+00	6.539237e-02	1.057525e-01	
6	3.940812e-01	1.004382e-01	1.594200e+00	6.184120e-02	9.858724e-02	
7	4.272002e-01	9.556601e-02	1.227700e+00	5.827444e-02	7.154352e-02	
8	4.607602e-01	9.080465e-02	1.184600e+00	5.434997e-02	6.438298e-02	
9	4.994998e-01	8.501673e-02	1.052400e+00	4.973895e-02	5.234527e-02	
10	5.332917e-01	8.021140e-02	1.070200e+00	4.549907e-02	4.869310e-02	
11	5.694734e-01	7.490465e-02	7.981000e-01	4.095476e-02	3.268599e-02	
12	6.112283e-01	6.910970e-02	6.701000e-01	3.562482e-02	2.387219e-02	
13	6.552099e-01	6.316529e-02	7.528000e-01	3.006711e-02	2.263452e-02	
14	6.989993e-01	5.735774e-02	4.815000e-01	2.470055e-02	1.189331e-02	
15	7.505331e-01	5.098425e-02	3.782000e-01	1.875674e-02	7.093801e-03	
16	7.959271e-01	4.563954e-02	3.031000e-01	1.418304e-02	4.298881e-03	
17	8.482335e-01	3.986002e-02	2.222000e-01	1.052327e-02	2.338271e-03	
18	9.014433e-01	3.440226e-02	1.512000e-01	1.037101e-02	1.568096e-03	
19	9.624448e-01	2.864357e-02	1.149000e-01	1.454790e-02	1.671554e-03	
20	1.026791e+00	2.316097e-02	7.750000e-02	2.149903e-02	1.666175e-03	
21	1.082312e+00	1.887985e-02	5.180000e-02	2.880755e-02	1.492231e-03	
22	1.142454e+00	1.475925e-02	4.120000e-02	3.837748e-02	1.581152e-03	
23	1.202082e+00	1.109958e-02	1.610000e-02	5.087331e-02	8.190604e-04	
24	1.262141e+00	7.874429e-03	1.860000e-02	6.939583e-02	1.290763e-03	
25	1.329624e+00	4.822109e-03	1.510000e-02	1.057804e-01	1.597284e-03	
26	1.390611e+00	2.457007e-03	1.090000e-02	1.912352e-01	2.084464e-03	
27	1.487178e+00	-4.501010e-04	8.600000e-03	-8.902817e-01	-7.656423e-03	
28	1.600906e+00	-2.756187e-03	3.600000e-03	-1.163827e-01	-4.189778e-04	
29	1.664722e+00	-3.561553e-03	1.400000e-03	-7.859068e-02	-1.100270e-04	
