# Dataset name: COMPASS_Deu_Pm_Km_x_0.0423_z_0.685	
#	  PhT [GeV]   	   pred.     	    exp.     	  hes.err(%) 	  hes.err * exp 	
0	1.734935e-01	4.286069e-02	3.184000e-01	8.938705e-02	2.846084e-02	
1	2.236068e-01	4.045083e-02	3.393000e-01	8.915774e-02	3.025122e-02	
2	2.641969e-01	3.820667e-02	3.118000e-01	8.885936e-02	2.770635e-02	
3	2.996665e-01	3.606931e-02	3.180000e-01	8.850147e-02	2.814347e-02	
4	3.313608e-01	3.403453e-02	3.066000e-01	8.816618e-02	2.703175e-02	
5	3.605551e-01	3.207915e-02	2.784000e-01	8.785519e-02	2.445888e-02	
6	3.934463e-01	2.986946e-02	2.251000e-01	8.728510e-02	1.964788e-02	
7	4.267318e-01	2.756346e-02	2.220000e-01	8.678149e-02	1.926549e-02	
8	4.606517e-01	2.523005e-02	1.968000e-01	8.612222e-02	1.694885e-02	
9	4.999000e-01	2.258395e-02	1.613000e-01	8.514817e-02	1.373440e-02	
10	5.333854e-01	2.036703e-02	1.342000e-01	8.428065e-02	1.131046e-02	
11	5.691221e-01	1.810827e-02	1.253000e-01	8.306869e-02	1.040851e-02	
12	6.113101e-01	1.558450e-02	1.083000e-01	8.136723e-02	8.812071e-03	
13	6.546755e-01	1.316757e-02	9.560000e-02	7.927517e-02	7.578706e-03	
14	6.989277e-01	1.094429e-02	7.490000e-02	7.639611e-02	5.722069e-03	
15	7.455200e-01	8.832188e-03	6.010000e-02	7.271393e-02	4.370107e-03	
16	7.987490e-01	6.751314e-03	5.160000e-02	6.694116e-02	3.454164e-03	
17	8.479976e-01	5.124397e-03	4.400000e-02	5.961632e-02	2.623118e-03	
18	9.017206e-01	3.643525e-03	3.780000e-02	4.896921e-02	1.851036e-03	
19	9.654533e-01	2.274506e-03	2.800000e-02	3.623478e-02	1.014574e-03	
20	1.030873e+00	1.213080e-03	2.160000e-02	7.195012e-02	1.554123e-03	
21	1.085864e+00	5.664231e-04	1.590000e-02	2.241137e-01	3.563407e-03	
22	1.145469e+00	5.398662e-05	1.290000e-02	2.991554e+00	3.859104e-02	
23	1.202123e+00	-2.828517e-04	9.000000e-03	-6.469808e-01	-5.822827e-03	
24	1.261785e+00	-5.105637e-04	5.800000e-03	-3.829343e-01	-2.221019e-03	
25	1.328909e+00	-6.686858e-04	4.900000e-03	-2.982648e-01	-1.461497e-03	
26	1.396030e+00	-7.374560e-04	2.900000e-03	-2.661641e-01	-7.718759e-04	
27	1.479865e+00	-7.543968e-04	1.700000e-03	-2.460196e-01	-4.182333e-04	
28	1.580221e+00	-7.085547e-04	1.100000e-03	-2.363938e-01	-2.600332e-04	
29	1.670359e+00	-6.419547e-04	6.000000e-04	-2.319577e-01	-1.391746e-04	
