# Dataset name: COMPASS_Deu_Pm_Km_x_0.0752_z_0.682	
#	  PhT [GeV]   	   pred.     	    exp.     	  hes.err(%) 	  hes.err * exp 	
0	1.732051e-01	3.111805e-02	2.496000e-01	1.009908e-01	2.520730e-02	
1	2.240536e-01	2.967252e-02	2.400000e-01	1.005791e-01	2.413899e-02	
2	2.645751e-01	2.831609e-02	2.357000e-01	1.001916e-01	2.361516e-02	
3	2.996665e-01	2.697725e-02	2.255000e-01	9.996557e-02	2.254224e-02	
4	3.324154e-01	2.569409e-02	2.094000e-01	9.945815e-02	2.082654e-02	
5	3.604164e-01	2.451418e-02	2.091000e-01	9.913204e-02	2.072851e-02	
6	3.930649e-01	2.311350e-02	1.830000e-01	9.856628e-02	1.803763e-02	
7	4.277850e-01	2.156494e-02	1.650000e-01	9.798846e-02	1.616810e-02	
8	4.611941e-01	2.004262e-02	1.528000e-01	9.739995e-02	1.488271e-02	
9	4.999000e-01	1.832088e-02	1.325000e-01	9.635148e-02	1.276657e-02	
10	5.340412e-01	1.678638e-02	1.128000e-01	9.546329e-02	1.076826e-02	
11	5.694734e-01	1.524787e-02	1.042000e-01	9.422101e-02	9.817829e-03	
12	6.112283e-01	1.347547e-02	9.980000e-02	9.265178e-02	9.246648e-03	
13	6.549809e-01	1.169609e-02	7.890000e-02	9.071105e-02	7.157102e-03	
14	6.993569e-01	1.004217e-02	7.520000e-02	8.798727e-02	6.616642e-03	
15	7.475293e-01	8.354783e-03	5.790000e-02	8.461004e-02	4.898921e-03	
16	7.997500e-01	6.737572e-03	4.640000e-02	7.950559e-02	3.689059e-03	
17	8.482924e-01	5.385193e-03	4.210000e-02	7.359250e-02	3.098244e-03	
18	9.012214e-01	4.124331e-03	3.340000e-02	6.454675e-02	2.155862e-03	
19	9.640539e-01	2.853463e-03	2.550000e-02	5.001506e-02	1.275384e-03	
20	1.030340e+00	1.799517e-03	1.850000e-02	3.542009e-02	6.552717e-04	
21	1.084942e+00	1.103716e-03	1.770000e-02	6.778495e-02	1.199794e-03	
22	1.144115e+00	5.172331e-04	1.330000e-02	2.268503e-01	3.017109e-03	
23	1.203786e+00	7.901062e-05	9.700000e-03	1.946363e+00	1.887972e-02	
24	1.259960e+00	-2.338760e-04	7.100000e-03	-7.597264e-01	-5.394058e-03	
25	1.324764e+00	-4.724874e-04	5.100000e-03	-4.125769e-01	-2.104142e-03	
26	1.395314e+00	-6.452479e-04	4.300000e-03	-3.146759e-01	-1.353106e-03	
27	1.477769e+00	-7.407247e-04	2.500000e-03	-2.736787e-01	-6.841966e-04	
28	1.579050e+00	-7.744687e-04	1.500000e-03	-2.485100e-01	-3.727651e-04	
29	1.680714e+00	-7.430146e-04	1.200000e-03	-2.374125e-01	-2.848950e-04	
