# Dataset name: COMPASS_Deu_Pm_Km_x_0.0427_z_0.479	
#	  PhT [GeV]   	   pred.     	    exp.     	  hes.err(%) 	  hes.err * exp 	
0	1.726268e-01	1.176934e-01	8.733000e-01	6.851290e-02	5.983232e-02	
1	2.231591e-01	1.119889e-01	7.737000e-01	6.744929e-02	5.218551e-02	
2	2.640076e-01	1.060026e-01	7.791000e-01	6.680648e-02	5.204893e-02	
3	3.003331e-01	1.007146e-01	7.445000e-01	6.574069e-02	4.894395e-02	
4	3.310589e-01	9.562579e-02	6.918000e-01	6.499484e-02	4.496343e-02	
5	3.604164e-01	9.084952e-02	6.578000e-01	6.392948e-02	4.205281e-02	
6	3.930649e-01	8.513879e-02	6.136000e-01	6.288217e-02	3.858450e-02	
7	4.276681e-01	7.929179e-02	5.591000e-01	6.132118e-02	3.428467e-02	
8	4.609772e-01	7.337756e-02	5.373000e-01	5.991441e-02	3.219201e-02	
9	4.994998e-01	6.700873e-02	4.874000e-01	5.773393e-02	2.813952e-02	
10	5.339476e-01	6.115690e-02	4.021000e-01	5.583432e-02	2.245098e-02	
11	5.697368e-01	5.565199e-02	3.858000e-01	5.327687e-02	2.055422e-02	
12	6.119640e-01	4.913120e-02	3.137000e-01	5.028039e-02	1.577296e-02	
13	6.552862e-01	4.322015e-02	2.924000e-01	4.648137e-02	1.359115e-02	
14	6.992854e-01	3.744535e-02	2.463000e-01	4.250666e-02	1.046939e-02	
15	7.476630e-01	3.201037e-02	2.042000e-01	3.746986e-02	7.651346e-03	
16	7.993748e-01	2.670833e-02	1.672000e-01	3.216185e-02	5.377462e-03	
17	8.484692e-01	2.250416e-02	1.306000e-01	2.758999e-02	3.603253e-03	
18	9.002777e-01	1.860332e-02	1.095000e-01	2.510481e-02	2.748977e-03	
19	9.647798e-01	1.469995e-02	8.300000e-02	2.853884e-02	2.368724e-03	
20	1.027278e+00	1.170157e-02	6.600000e-02	3.892399e-02	2.568983e-03	
21	1.084804e+00	9.441369e-03	4.770000e-02	5.241551e-02	2.500220e-03	
22	1.142454e+00	7.689801e-03	3.590000e-02	6.814675e-02	2.446468e-03	
23	1.203412e+00	6.174437e-03	2.720000e-02	8.637057e-02	2.349279e-03	
24	1.262537e+00	5.044301e-03	2.140000e-02	1.043768e-01	2.233664e-03	
25	1.327328e+00	4.038929e-03	1.480000e-02	1.245425e-01	1.843229e-03	
26	1.394633e+00	3.224776e-03	1.150000e-02	1.449501e-01	1.666926e-03	
27	1.478817e+00	2.432100e-03	7.400000e-03	1.699131e-01	1.257357e-03	
28	1.580000e+00	1.708835e-03	4.900000e-03	2.003624e-01	9.817756e-04	
29	1.674455e+00	1.168295e-03	3.600000e-03	2.367725e-01	8.523810e-04	
