# Dataset name: COMPASS_Deu_Pm_Km_x_0.0455_z_0.678	
#	  PhT [GeV]   	   pred.     	    exp.     	  hes.err(%) 	  hes.err * exp 	
0	1.766352e-01	1.601471e-01	1.098000e-01	4.787236e-02	5.256386e-03	
1	2.224859e-01	1.542088e-01	1.314000e-01	4.782618e-02	6.284360e-03	
2	2.636285e-01	1.479472e-01	1.125000e-01	4.779379e-02	5.376802e-03	
3	2.974895e-01	1.421806e-01	1.386000e-01	4.778620e-02	6.623167e-03	
4	3.321144e-01	1.358891e-01	1.156000e-01	4.774364e-02	5.519165e-03	
5	3.605551e-01	1.303581e-01	9.100000e-02	4.772202e-02	4.342704e-03	
6	3.944617e-01	1.236070e-01	1.376000e-01	4.768119e-02	6.560932e-03	
7	4.270831e-01	1.167789e-01	9.930000e-02	4.764205e-02	4.730856e-03	
8	4.608687e-01	1.095499e-01	1.182000e-01	4.761296e-02	5.627852e-03	
9	5.002999e-01	1.011285e-01	1.028000e-01	4.753187e-02	4.886276e-03	
10	5.331041e-01	9.402571e-02	8.710000e-02	4.747923e-02	4.135441e-03	
11	5.730620e-01	8.553189e-02	7.970000e-02	4.738730e-02	3.776768e-03	
12	6.116371e-01	7.743422e-02	8.830000e-02	4.729958e-02	4.176553e-03	
13	6.559726e-01	6.847747e-02	6.760000e-02	4.719054e-02	3.190081e-03	
14	7.002143e-01	5.991287e-02	4.730000e-02	4.702721e-02	2.224387e-03	
15	7.485987e-01	5.110608e-02	5.030000e-02	4.685442e-02	2.356777e-03	
16	7.965551e-01	4.309821e-02	5.250000e-02	4.661141e-02	2.447099e-03	
17	8.477618e-01	3.526994e-02	3.770000e-02	4.634535e-02	1.747220e-03	
18	9.028843e-01	2.782824e-02	2.630000e-02	4.597000e-02	1.209011e-03	
19	9.636389e-01	2.068782e-02	3.370000e-02	4.556360e-02	1.535493e-03	
20	1.031891e+00	1.406589e-02	2.580000e-02	4.521355e-02	1.166510e-03	
21	1.085772e+00	9.735936e-03	2.690000e-02	4.567913e-02	1.228769e-03	
22	1.140658e+00	6.134788e-03	2.060000e-02	4.919961e-02	1.013512e-03	
23	1.202331e+00	2.881208e-03	1.360000e-02	7.357967e-02	1.000683e-03	
24	1.259484e+00	5.339010e-04	8.600000e-03	3.761581e-01	3.234960e-03	
25	1.329887e+00	-1.574002e-03	8.500000e-03	-1.514304e-01	-1.287158e-03	
26	1.400357e+00	-3.048279e-03	9.200000e-03	-9.133528e-02	-8.402846e-04	
27	1.477498e+00	-4.053099e-03	2.900000e-03	-7.631985e-02	-2.213276e-04	
28	1.574992e+00	-4.703249e-03	2.700000e-03	-6.905809e-02	-1.864568e-04	
29	1.677975e+00	-4.901471e-03	2.400000e-03	-6.581390e-02	-1.579534e-04	
