# Dataset name: COMPASS_Deu_Pm_Km_x_0.0423_z_0.685	
#	  PhT [GeV]   	   pred.     	    exp.     	  hes.err(%) 	  hes.err * exp 	
0	1.734935e-01	2.232279e-01	3.184000e-01	4.814872e-02	1.533055e-02	
1	2.236068e-01	2.105730e-01	3.393000e-01	4.813999e-02	1.633390e-02	
2	2.641969e-01	1.986751e-01	3.118000e-01	4.812036e-02	1.500393e-02	
3	2.996665e-01	1.872968e-01	3.180000e-01	4.810174e-02	1.529635e-02	
4	3.313608e-01	1.765268e-01	3.066000e-01	4.808457e-02	1.474273e-02	
5	3.605551e-01	1.662434e-01	2.784000e-01	4.807072e-02	1.338289e-02	
6	3.934463e-01	1.544041e-01	2.251000e-01	4.803558e-02	1.081281e-02	
7	4.267318e-01	1.422651e-01	2.220000e-01	4.801189e-02	1.065864e-02	
8	4.606517e-01	1.299196e-01	1.968000e-01	4.797798e-02	9.442066e-03	
9	4.999000e-01	1.158487e-01	1.613000e-01	4.792344e-02	7.730051e-03	
10	5.333854e-01	1.041762e-01	1.342000e-01	4.788014e-02	6.425515e-03	
11	5.691221e-01	9.219407e-02	1.253000e-01	4.781785e-02	5.991577e-03	
12	6.113101e-01	7.882834e-02	1.083000e-01	4.772397e-02	5.168506e-03	
13	6.546755e-01	6.610091e-02	9.560000e-02	4.762279e-02	4.552739e-03	
14	6.989277e-01	5.429266e-02	7.490000e-02	4.746358e-02	3.555022e-03	
15	7.455200e-01	4.319584e-02	6.010000e-02	4.728398e-02	2.841767e-03	
16	7.987490e-01	3.222998e-02	5.160000e-02	4.699830e-02	2.425112e-03	
17	8.479976e-01	2.365964e-02	4.400000e-02	4.665106e-02	2.052647e-03	
18	9.017206e-01	1.593004e-02	3.780000e-02	4.623845e-02	1.747814e-03	
19	9.654533e-01	8.740528e-03	2.800000e-02	4.610340e-02	1.290895e-03	
20	1.030873e+00	3.278636e-03	2.160000e-02	5.627281e-02	1.215493e-03	
21	1.085864e+00	-6.270118e-05	1.590000e-02	-2.409061e+00	-3.830407e-02	
22	1.145469e+00	-2.644992e-03	1.290000e-02	-8.318376e-02	-1.073071e-03	
23	1.202123e+00	-4.302647e-03	9.000000e-03	-6.570156e-02	-5.913140e-04	
24	1.261785e+00	-5.404593e-03	5.800000e-03	-6.047093e-02	-3.507314e-04	
25	1.328909e+00	-6.067991e-03	4.900000e-03	-5.793016e-02	-2.838578e-04	
26	1.396030e+00	-6.293660e-03	2.900000e-03	-5.677255e-02	-1.646404e-04	
27	1.479865e+00	-6.189318e-03	1.700000e-03	-5.600839e-02	-9.521427e-05	
28	1.580221e+00	-5.734087e-03	1.100000e-03	-5.563551e-02	-6.119906e-05	
29	1.670359e+00	-5.179420e-03	6.000000e-04	-5.547983e-02	-3.328790e-05	
