# Dataset name: COMPASS_Deu_Pm_Km_x_0.0161_z_0.243	
#	  PhT [GeV]   	   pred.     	    exp.     	  hes.err(%) 	  hes.err * exp 	
0	3.602777e-01	2.560113e+00	4.365700e+00	3.970677e-02	1.733479e-01	
1	3.931921e-01	2.259809e+00	3.946700e+00	3.722739e-02	1.469253e-01	
2	4.274342e-01	1.959047e+00	3.436400e+00	3.456570e-02	1.187816e-01	
3	4.609772e-01	1.689002e+00	3.098600e+00	3.216574e-02	9.966876e-02	
4	4.992995e-01	1.416316e+00	2.681600e+00	3.014058e-02	8.082498e-02	
5	5.333854e-01	1.206479e+00	2.265600e+00	2.935128e-02	6.649827e-02	
6	5.697368e-01	1.016554e+00	1.887600e+00	2.961931e-02	5.590940e-02	
7	6.115554e-01	8.343806e-01	1.573000e+00	3.115445e-02	4.900595e-02	
8	6.553625e-01	6.788110e-01	1.233100e+00	3.340519e-02	4.119194e-02	
9	6.989993e-01	5.521009e-01	9.525000e-01	3.563218e-02	3.393965e-02	
10	7.473955e-01	4.363772e-01	7.490000e-01	3.760960e-02	2.816959e-02	
11	7.992497e-01	3.354070e-01	5.792000e-01	3.868097e-02	2.240402e-02	
12	8.475848e-01	2.583861e-01	4.311000e-01	3.844487e-02	1.657358e-02	
13	9.017206e-01	1.883753e-01	3.281000e-01	3.647848e-02	1.196859e-02	
14	9.650389e-01	1.249976e-01	2.301000e-01	3.210300e-02	7.386900e-03	
15	1.028105e+00	7.837883e-02	1.662000e-01	3.225052e-02	5.360037e-03	
16	1.085633e+00	4.756568e-02	1.193000e-01	5.795096e-02	6.913549e-03	
17	1.142804e+00	2.587232e-02	8.610000e-02	1.348455e-01	1.161020e-02	
18	1.203952e+00	1.033287e-02	6.690000e-02	3.918256e-01	2.621314e-02	
19	1.263368e+00	1.313827e-03	4.810000e-02	3.235984e+00	1.556508e-01	
20	1.326650e+00	0.000000e+00	4.090000e-02	-nan	-nan	
21	1.395779e+00	0.000000e+00	2.490000e-02	-nan	-nan	
22	1.481047e+00	0.000000e+00	1.930000e-02	-nan	-nan	
23	1.578259e+00	0.000000e+00	1.100000e-02	-nan	-nan	
24	1.677647e+00	0.000000e+00	7.500000e-03	-nan	-nan	
