# Dataset name: COMPASS_Deu_Pm_Km_x_0.0771_z_0.243	
#	  PhT [GeV]   	   pred.     	    exp.     	  hes.err(%) 	  hes.err * exp 	
0	3.933192e-01	2.381756e+00	3.976400e+00	3.722767e-02	1.480321e-01	
1	4.273172e-01	2.125708e+00	3.518700e+00	3.669538e-02	1.291200e-01	
2	4.610857e-01	1.881057e+00	3.072500e+00	3.672320e-02	1.128320e-01	
3	4.991994e-01	1.621146e+00	2.630100e+00	3.764673e-02	9.901466e-02	
4	5.335729e-01	1.410057e+00	2.249700e+00	3.940298e-02	8.864488e-02	
5	5.691221e-01	1.212312e+00	1.887800e+00	4.224392e-02	7.974806e-02	
6	6.118006e-01	1.003938e+00	1.564900e+00	4.687090e-02	7.334828e-02	
7	6.551336e-01	8.240786e-01	1.287100e+00	5.259235e-02	6.769161e-02	
8	6.991423e-01	6.690642e-01	1.037500e+00	5.921798e-02	6.143865e-02	
9	7.470609e-01	5.277501e-01	7.772000e-01	6.718819e-02	5.221866e-02	
10	7.987490e-01	4.021361e-01	5.733000e-01	7.660590e-02	4.391816e-02	
11	8.482924e-01	3.025875e-01	4.270000e-01	8.720049e-02	3.723461e-02	
12	9.002777e-01	2.165887e-01	3.386000e-01	1.012211e-01	3.427345e-02	
13	9.646761e-01	1.326940e-01	2.223000e-01	1.269023e-01	2.821037e-02	
14	1.028688e+00	7.041469e-02	1.516000e-01	1.773496e-01	2.688620e-02	
15	1.084020e+00	2.881304e-02	1.229000e-01	3.268871e-01	4.017442e-02	
16	1.139474e+00	-2.447952e-03	8.900000e-02	-2.857541e+00	-2.543211e-01	
17	1.202040e+00	-2.637746e-02	6.200000e-02	-1.910065e-01	-1.184241e-02	
18	1.265030e+00	-4.084847e-02	4.310000e-02	-9.422169e-02	-4.060955e-03	
19	1.325896e+00	-4.940104e-02	3.220000e-02	-6.693682e-02	-2.155366e-03	
20	1.395457e+00	-5.282674e-02	2.540000e-02	-5.709747e-02	-1.450276e-03	
21	1.478242e+00	-5.090326e-02	1.730000e-02	-5.411690e-02	-9.362224e-04	
22	1.583919e+00	-4.335226e-02	9.500000e-03	-5.338315e-02	-5.071399e-04	
23	1.673888e+00	-3.504545e-02	7.500000e-03	-5.438371e-02	-4.078778e-04	
