# Dataset name: COMPASS_Deu_Pm_Km_x_0.2909_z_0.479	
#	  PhT [GeV]   	   pred.     	    exp.     	  hes.err(%) 	  hes.err * exp 	
0	1.743560e-01	5.804688e-01	6.152000e-01	6.693809e-02	4.118031e-02	
1	2.224859e-01	5.522643e-01	5.957000e-01	6.696167e-02	3.988907e-02	
2	2.645751e-01	5.228655e-01	6.703000e-01	6.699984e-02	4.490999e-02	
3	2.993326e-01	4.969745e-01	5.244000e-01	6.702958e-02	3.515031e-02	
4	3.313608e-01	4.716190e-01	5.103000e-01	6.707852e-02	3.423017e-02	
5	3.590265e-01	4.481498e-01	4.983000e-01	6.711540e-02	3.344360e-02	
6	3.912799e-01	4.199814e-01	4.079000e-01	6.719248e-02	2.740781e-02	
7	4.276681e-01	3.883109e-01	4.484000e-01	6.727937e-02	3.016807e-02	
8	4.622770e-01	3.579314e-01	4.671000e-01	6.741368e-02	3.148893e-02	
9	4.988988e-01	3.252385e-01	3.763000e-01	6.757611e-02	2.542889e-02	
10	5.340412e-01	2.944691e-01	3.436000e-01	6.780036e-02	2.329621e-02	
11	5.690343e-01	2.651369e-01	2.412000e-01	6.808380e-02	1.642181e-02	
12	6.135145e-01	2.288466e-01	2.411000e-01	6.860361e-02	1.654033e-02	
13	6.550573e-01	1.973506e-01	2.321000e-01	6.928239e-02	1.608044e-02	
14	6.976389e-01	1.669320e-01	1.894000e-01	7.031865e-02	1.331835e-02	
15	7.473955e-01	1.349118e-01	1.834000e-01	7.213690e-02	1.322991e-02	
16	7.984360e-01	1.057604e-01	1.237000e-01	7.521654e-02	9.304286e-03	
17	8.475848e-01	8.096310e-02	8.720000e-02	8.019965e-02	6.993409e-03	
18	9.000000e-01	5.856744e-02	9.140000e-02	8.968633e-02	8.197330e-03	
19	9.607289e-01	3.692141e-02	7.340000e-02	1.127673e-01	8.277117e-03	
20	1.030388e+00	1.773515e-02	4.250000e-02	1.894611e-01	8.052096e-03	
21	1.083374e+00	6.446121e-03	3.800000e-02	4.636301e-01	1.761794e-02	
22	1.149348e+00	-4.047508e-03	2.430000e-02	-6.721349e-01	-1.633288e-02	
23	1.202082e+00	-1.019723e-02	1.990000e-02	-2.533653e-01	-5.041970e-03	
24	1.263843e+00	-1.524194e-02	1.630000e-02	-1.612049e-01	-2.627640e-03	
25	1.315789e+00	-1.811953e-02	6.200000e-03	-1.299315e-01	-8.055751e-04	
26	1.389388e+00	-2.048971e-02	5.500000e-03	-1.070827e-01	-5.889548e-04	
27	1.477735e+00	-2.152285e-02	3.300000e-03	-9.226625e-02	-3.044786e-04	
28	1.578037e+00	-2.110433e-02	3.200000e-03	-8.223832e-02	-2.631626e-04	
29	1.692306e+00	-1.961607e-02	2.800000e-03	-7.499440e-02	-2.099843e-04	
