# Dataset name: COMPASS_Deu_Pm_Km_x_0.0161_z_0.481	
#	  PhT [GeV]   	   pred.     	    exp.     	  hes.err(%) 	  hes.err * exp 	
0	1.717556e-01	7.096421e-01	9.445000e-01	3.464177e-02	3.271915e-02	
1	2.233831e-01	6.625502e-01	8.880000e-01	3.453339e-02	3.066565e-02	
2	2.643861e-01	6.192232e-01	8.951000e-01	3.443551e-02	3.082323e-02	
3	3.006659e-01	5.777302e-01	8.556000e-01	3.432014e-02	2.936431e-02	
4	3.313608e-01	5.410953e-01	8.191000e-01	3.420248e-02	2.801525e-02	
5	3.601389e-01	5.057598e-01	7.593000e-01	3.408847e-02	2.588338e-02	
6	3.935734e-01	4.642566e-01	6.919000e-01	3.395160e-02	2.349111e-02	
7	4.272002e-01	4.227333e-01	6.417000e-01	3.377861e-02	2.167574e-02	
8	4.607602e-01	3.818465e-01	5.536000e-01	3.362993e-02	1.861753e-02	
9	4.995998e-01	3.363230e-01	5.156000e-01	3.340481e-02	1.722352e-02	
10	5.336666e-01	2.980582e-01	4.501000e-01	3.326482e-02	1.497249e-02	
11	5.693856e-01	2.605019e-01	4.075000e-01	3.309302e-02	1.348540e-02	
12	6.119640e-01	2.190556e-01	3.602000e-01	3.300200e-02	1.188732e-02	
13	6.553625e-01	1.811521e-01	2.882000e-01	3.305236e-02	9.525691e-03	
14	6.988562e-01	1.475261e-01	2.480000e-01	3.342795e-02	8.290132e-03	
15	7.474624e-01	1.151352e-01	1.929000e-01	3.455608e-02	6.665867e-03	
16	7.990620e-01	8.643091e-02	1.563000e-01	3.718434e-02	5.811913e-03	
17	8.482335e-01	6.406365e-02	1.252000e-01	4.221013e-02	5.284708e-03	
18	9.019978e-01	4.457479e-02	1.075000e-01	5.243280e-02	5.636527e-03	
19	9.641058e-01	2.752576e-02	8.000000e-02	7.575152e-02	6.060121e-03	
20	1.029126e+00	1.482364e-02	5.760000e-02	1.291959e-01	7.441686e-03	
21	1.085910e+00	7.127647e-03	4.850000e-02	2.512439e-01	1.218533e-02	
22	1.142366e+00	1.880515e-03	3.810000e-02	8.847008e-01	3.370710e-02	
23	1.203121e+00	-1.748194e-03	2.550000e-02	-8.668618e-01	-2.210498e-02	
24	1.263329e+00	-3.813368e-03	1.960000e-02	-3.556096e-01	-6.969948e-03	
25	1.327027e+00	-4.879368e-03	1.600000e-02	-2.417886e-01	-3.868618e-03	
26	1.394166e+00	-5.139574e-03	1.190000e-02	-1.930581e-01	-2.297392e-03	
27	1.480304e+00	-4.743051e-03	7.600000e-03	-1.604964e-01	-1.219773e-03	
28	1.581929e+00	-3.749073e-03	4.500000e-03	-1.382081e-01	-6.219363e-04	
29	1.674127e+00	-2.703621e-03	3.600000e-03	-1.259477e-01	-4.534117e-04	
