# Dataset name: COMPASS_Deu_Pm_Km_x_0.0423_z_0.685	
#	  PhT [GeV]   	   pred.     	    exp.     	  hes.err(%) 	  hes.err * exp 	
0	1.734935e-01	1.545216e-01	3.184000e-01	4.699444e-02	1.496303e-02	
1	2.236068e-01	1.459207e-01	3.393000e-01	4.698963e-02	1.594358e-02	
2	2.641969e-01	1.378387e-01	3.118000e-01	4.696994e-02	1.464523e-02	
3	2.996665e-01	1.301174e-01	3.180000e-01	4.694566e-02	1.492872e-02	
4	3.313608e-01	1.227989e-01	3.066000e-01	4.692909e-02	1.438846e-02	
5	3.605551e-01	1.158091e-01	2.784000e-01	4.691778e-02	1.306191e-02	
6	3.934463e-01	1.077716e-01	2.251000e-01	4.687207e-02	1.055090e-02	
7	4.267318e-01	9.951380e-02	2.220000e-01	4.685255e-02	1.040127e-02	
8	4.606517e-01	9.112145e-02	1.968000e-01	4.681621e-02	9.213431e-03	
9	4.999000e-01	8.155355e-02	1.613000e-01	4.675481e-02	7.541551e-03	
10	5.333854e-01	7.360623e-02	1.342000e-01	4.671589e-02	6.269272e-03	
11	5.691221e-01	6.545206e-02	1.253000e-01	4.664736e-02	5.844914e-03	
12	6.113101e-01	5.634544e-02	1.083000e-01	4.655127e-02	5.041503e-03	
13	6.546755e-01	4.766457e-02	9.560000e-02	4.645746e-02	4.441333e-03	
14	6.989277e-01	3.960755e-02	7.490000e-02	4.629323e-02	3.467363e-03	
15	7.455200e-01	3.201637e-02	6.010000e-02	4.614080e-02	2.773062e-03	
16	7.987490e-01	2.450476e-02	5.160000e-02	4.589285e-02	2.368071e-03	
17	8.479976e-01	1.861706e-02	4.400000e-02	4.562284e-02	2.007405e-03	
18	9.017206e-01	1.328450e-02	3.780000e-02	4.537726e-02	1.715260e-03	
19	9.654533e-01	8.300222e-03	2.800000e-02	4.534268e-02	1.269595e-03	
20	1.030873e+00	4.472480e-03	2.160000e-02	4.817719e-02	1.040627e-03	
21	1.085864e+00	2.103562e-03	1.590000e-02	6.603045e-02	1.049884e-03	
22	1.145469e+00	2.343362e-04	1.290000e-02	5.196601e-01	6.703615e-03	
23	1.202123e+00	-1.002985e-03	9.000000e-03	-1.399869e-01	-1.259882e-03	
24	1.261785e+00	-1.869167e-03	5.800000e-03	-8.728859e-02	-5.062738e-04	
25	1.328909e+00	-2.456549e-03	4.900000e-03	-7.290461e-02	-3.572326e-04	
26	1.396030e+00	-2.744768e-03	2.900000e-03	-6.764091e-02	-1.961586e-04	
27	1.479865e+00	-2.841549e-03	1.700000e-03	-6.455114e-02	-1.097369e-04	
28	1.580221e+00	-2.727278e-03	1.100000e-03	-6.302305e-02	-6.932536e-05	
29	1.670359e+00	-2.520062e-03	6.000000e-04	-6.230795e-02	-3.738477e-05	
