# Dataset name: COMPASS_Deu_Pm_Km_x_0.0455_z_0.678	
#	  PhT [GeV]   	   pred.     	    exp.     	  hes.err(%) 	  hes.err * exp 	
0	1.766352e-01	1.175606e-01	1.098000e-01	4.644355e-02	5.099502e-03	
1	2.224859e-01	1.133643e-01	1.314000e-01	4.638238e-02	6.094645e-03	
2	2.636285e-01	1.089387e-01	1.125000e-01	4.633778e-02	5.213000e-03	
3	2.974895e-01	1.048533e-01	1.386000e-01	4.634514e-02	6.423436e-03	
4	3.321144e-01	1.004078e-01	1.156000e-01	4.628451e-02	5.350489e-03	
5	3.605551e-01	9.648401e-02	9.100000e-02	4.627059e-02	4.210624e-03	
6	3.944617e-01	9.171339e-02	1.376000e-01	4.621553e-02	6.359257e-03	
7	4.270831e-01	8.686752e-02	9.930000e-02	4.618205e-02	4.585878e-03	
8	4.608687e-01	8.174048e-02	1.182000e-01	4.616384e-02	5.456566e-03	
9	5.002999e-01	7.577054e-02	1.028000e-01	4.606478e-02	4.735459e-03	
10	5.331041e-01	7.072584e-02	8.710000e-02	4.602048e-02	4.008384e-03	
11	5.730620e-01	6.469605e-02	7.970000e-02	4.591364e-02	3.659317e-03	
12	6.116371e-01	5.893477e-02	8.830000e-02	4.583741e-02	4.047443e-03	
13	6.559726e-01	5.254978e-02	6.760000e-02	4.574029e-02	3.092044e-03	
14	7.002143e-01	4.645135e-02	4.730000e-02	4.557598e-02	2.155744e-03	
15	7.485987e-01	4.015748e-02	5.030000e-02	4.543892e-02	2.285577e-03	
16	7.965551e-01	3.442627e-02	5.250000e-02	4.520893e-02	2.373469e-03	
17	8.477618e-01	2.880168e-02	3.770000e-02	4.501933e-02	1.697229e-03	
18	9.028843e-01	2.343970e-02	2.630000e-02	4.472375e-02	1.176235e-03	
19	9.636389e-01	1.826106e-02	3.370000e-02	4.451423e-02	1.500130e-03	
20	1.031891e+00	1.342759e-02	2.580000e-02	4.436550e-02	1.144630e-03	
21	1.085772e+00	1.023250e-02	2.690000e-02	4.473135e-02	1.203273e-03	
22	1.140658e+00	7.545429e-03	2.060000e-02	4.604696e-02	9.485674e-04	
23	1.202331e+00	5.082837e-03	1.360000e-02	5.061683e-02	6.883889e-04	
24	1.259484e+00	3.265533e-03	8.600000e-03	6.270883e-02	5.392960e-04	
25	1.329887e+00	1.578477e-03	8.500000e-03	1.124528e-01	9.558492e-04	
26	1.400357e+00	3.338287e-04	9.200000e-03	5.182997e-01	4.768357e-03	
27	1.477498e+00	-5.966131e-04	2.900000e-03	-3.010454e-01	-8.730317e-04	
28	1.574992e+00	-1.334818e-03	2.700000e-03	-1.385993e-01	-3.742181e-04	
29	1.677975e+00	-1.758774e-03	2.400000e-03	-1.055784e-01	-2.533883e-04	
