# Dataset name: COMPASS_Deu_Pm_Km_x_0.0106_z_0.243	
#	  PhT [GeV]   	   pred.     	    exp.     	  hes.err(%) 	  hes.err * exp 	
0	2.994996e-01	2.164225e+00	4.937300e+00	3.524677e-02	1.740239e-01	
1	3.315117e-01	1.970123e+00	4.605300e+00	3.426100e-02	1.577822e-01	
2	3.602777e-01	1.787299e+00	4.159300e+00	3.321805e-02	1.381639e-01	
3	3.934463e-01	1.578925e+00	3.716500e+00	3.185267e-02	1.183804e-01	
4	4.274342e-01	1.374401e+00	3.361500e+00	3.040606e-02	1.022100e-01	
5	4.609772e-01	1.190040e+00	2.921200e+00	2.901412e-02	8.475606e-02	
6	4.994998e-01	1.002532e+00	2.487600e+00	2.765651e-02	6.879834e-02	
7	5.337603e-01	8.590533e-01	2.077300e+00	2.675975e-02	5.558803e-02	
8	5.696490e-01	7.305306e-01	1.805000e+00	2.618853e-02	4.727029e-02	
9	6.116371e-01	6.048197e-01	1.512600e+00	2.592926e-02	3.922060e-02	
10	6.547519e-01	4.982907e-01	1.147900e+00	2.595934e-02	2.979872e-02	
11	6.990708e-01	4.073534e-01	9.107000e-01	2.610180e-02	2.377091e-02	
12	7.475962e-01	3.245882e-01	7.617000e-01	2.617775e-02	1.993959e-02	
13	7.984986e-01	2.525639e-01	5.452000e-01	2.606399e-02	1.421009e-02	
14	8.474078e-01	1.952825e-01	4.463000e-01	2.569476e-02	1.146757e-02	
15	9.009440e-01	1.437659e-01	3.376000e-01	2.523212e-02	8.518364e-03	
16	9.648834e-01	9.568074e-02	2.274000e-01	2.597632e-02	5.907016e-03	
17	1.027765e+00	6.042308e-02	1.738000e-01	3.330868e-02	5.789048e-03	
18	1.085173e+00	3.688644e-02	1.332000e-01	5.510765e-02	7.340339e-03	
19	1.143416e+00	1.995284e-02	9.370000e-02	1.104054e-01	1.034499e-02	
20	1.203952e+00	8.209999e-03	7.230000e-02	2.840246e-01	2.053498e-02	
21	1.263408e+00	1.149670e-03	5.690000e-02	2.041111e+00	1.161392e-01	
22	1.328006e+00	0.000000e+00	4.180000e-02	-nan	-nan	
23	1.395994e+00	0.000000e+00	2.660000e-02	-nan	-nan	
24	1.479121e+00	0.000000e+00	2.220000e-02	-nan	-nan	
25	1.577054e+00	0.000000e+00	1.490000e-02	-nan	-nan	
26	1.672842e+00	0.000000e+00	1.130000e-02	-nan	-nan	
