# Dataset name: COMPASS_Deu_Pm_Km_x_0.0254_z_0.243	
#	  PhT [GeV]   	   pred.     	    exp.     	  hes.err(%) 	  hes.err * exp 	
0	3.602777e-01	1.818212e+00	4.674500e+00	3.324584e-02	1.554077e-01	
1	3.931921e-01	1.609194e+00	4.200000e+00	3.203101e-02	1.345302e-01	
2	4.274342e-01	1.398122e+00	3.586100e+00	3.080401e-02	1.104663e-01	
3	4.610857e-01	1.208213e+00	3.207800e+00	2.968146e-02	9.521219e-02	
4	4.991994e-01	1.017223e+00	2.607800e+00	2.871559e-02	7.488451e-02	
5	5.334792e-01	8.676787e-01	2.226500e+00	2.828992e-02	6.298750e-02	
6	5.693856e-01	7.347332e-01	1.842800e+00	2.822503e-02	5.201309e-02	
7	6.118823e-01	6.025364e-01	1.452500e+00	2.873326e-02	4.173506e-02	
8	6.549809e-01	4.931261e-01	1.167600e+00	2.954254e-02	3.449386e-02	
9	6.991423e-01	4.012263e-01	9.354000e-01	3.042731e-02	2.846171e-02	
10	7.469270e-01	3.190102e-01	7.113000e-01	3.129177e-02	2.225784e-02	
11	7.982481e-01	2.469065e-01	5.323000e-01	3.184922e-02	1.695334e-02	
12	8.476438e-01	1.900165e-01	3.814000e-01	3.199732e-02	1.220378e-02	
13	9.016097e-01	1.395057e-01	2.847000e-01	3.183617e-02	9.063757e-03	
14	9.645206e-01	9.368980e-02	2.014000e-01	3.218065e-02	6.481182e-03	
15	1.028056e+00	5.925797e-02	1.421000e-01	3.732942e-02	5.304511e-03	
16	1.085587e+00	3.651978e-02	9.900000e-02	5.570769e-02	5.515061e-03	
17	1.144028e+00	2.009111e-02	6.630000e-02	1.060040e-01	7.028065e-03	
18	1.202747e+00	8.769952e-03	5.650000e-02	2.532374e-01	1.430791e-02	
19	1.263487e+00	1.592397e-03	3.900000e-02	1.402791e+00	5.470883e-02	
20	1.324764e+00	0.000000e+00	2.930000e-02	-nan	-nan	
21	1.395744e+00	0.000000e+00	2.320000e-02	-nan	-nan	
22	1.478817e+00	0.000000e+00	1.180000e-02	-nan	-nan	
23	1.576832e+00	0.000000e+00	7.600000e-03	-nan	-nan	
24	1.677826e+00	0.000000e+00	5.300000e-03	-nan	-nan	
