# Dataset name: COMPASS_Deu_Pm_Km_x_0.0161_z_0.344	
#	  PhT [GeV]   	   pred.     	    exp.     	  hes.err(%) 	  hes.err * exp 	
0	1.726268e-01	1.136056e+00	2.672600e+00	3.479484e-02	9.299269e-02	
1	2.231591e-01	1.060732e+00	2.618500e+00	3.449749e-02	9.033168e-02	
2	2.641969e-01	9.887098e-01	2.354900e+00	3.413370e-02	8.038145e-02	
3	2.998333e-01	9.199418e-01	2.318000e+00	3.372897e-02	7.818375e-02	
4	3.315117e-01	8.535732e-01	2.114700e+00	3.338891e-02	7.060753e-02	
5	3.605551e-01	7.926144e-01	2.001400e+00	3.295250e-02	6.595113e-02	
6	3.929377e-01	7.228236e-01	1.864700e+00	3.249373e-02	6.059107e-02	
7	4.277850e-01	6.499273e-01	1.660700e+00	3.188361e-02	5.294911e-02	
8	4.610857e-01	5.821354e-01	1.442900e+00	3.130940e-02	4.517633e-02	
9	4.998000e-01	5.084882e-01	1.281000e+00	3.057688e-02	3.916898e-02	
10	5.337603e-01	4.486631e-01	1.149600e+00	2.996317e-02	3.444566e-02	
11	5.694734e-01	3.915435e-01	9.594000e-01	2.933075e-02	2.813992e-02	
12	6.118006e-01	3.311772e-01	8.176000e-01	2.873259e-02	2.349177e-02	
13	6.545991e-01	2.783266e-01	6.712000e-01	2.832098e-02	1.900904e-02	
14	6.994998e-01	2.310541e-01	5.680000e-01	2.818846e-02	1.601105e-02	
15	7.471278e-01	1.887177e-01	4.348000e-01	2.854210e-02	1.241011e-02	
16	7.990620e-01	1.508875e-01	3.298000e-01	2.945223e-02	9.713346e-03	
17	8.478207e-01	1.214442e-01	2.714000e-01	3.105757e-02	8.429024e-03	
18	9.010549e-01	9.545332e-02	2.013000e-01	3.335713e-02	6.714791e-03	
19	9.635352e-01	7.110841e-02	1.493000e-01	3.700732e-02	5.525193e-03	
20	1.027278e+00	5.206568e-02	1.073000e-01	4.141214e-02	4.443523e-03	
21	1.086094e+00	3.855049e-02	8.490000e-02	4.597379e-02	3.903175e-03	
22	1.142760e+00	2.840976e-02	6.190000e-02	5.090046e-02	3.150738e-03	
23	1.203910e+00	2.001502e-02	4.690000e-02	5.712274e-02	2.679057e-03	
24	1.265938e+00	1.356153e-02	3.700000e-02	6.623552e-02	2.450714e-03	
25	1.327366e+00	8.789610e-03	2.770000e-02	8.333590e-02	2.308404e-03	
26	1.393915e+00	4.990089e-03	1.930000e-02	1.291121e-01	2.491864e-03	
27	1.480034e+00	1.660065e-03	1.350000e-02	3.819817e-01	5.156753e-03	
28	1.579810e+00	-6.213608e-04	8.600000e-03	-1.067497e+00	-9.180476e-03	
29	1.674873e+00	-1.664977e-03	5.600000e-03	-4.003177e-01	-2.241779e-03	
