# Dataset name: COMPASS_Deu_Pm_Km_x_0.1326_z_0.682	
#	  PhT [GeV]   	   pred.     	    exp.     	  hes.err(%) 	  hes.err * exp 	
0	1.737815e-01	1.481148e-01	2.603000e-01	6.388174e-02	1.662842e-02	
1	2.238303e-01	1.411810e-01	2.272000e-01	6.389910e-02	1.451787e-02	
2	2.643861e-01	1.346250e-01	2.381000e-01	6.391334e-02	1.521777e-02	
3	3.000000e-01	1.282212e-01	2.283000e-01	6.394680e-02	1.459905e-02	
4	3.315117e-01	1.221975e-01	2.032000e-01	6.396555e-02	1.299780e-02	
5	3.604164e-01	1.163772e-01	1.802000e-01	6.399558e-02	1.153200e-02	
6	3.933192e-01	1.095653e-01	1.694000e-01	6.402610e-02	1.084602e-02	
7	4.277850e-01	1.021937e-01	1.635000e-01	6.407204e-02	1.047578e-02	
8	4.609772e-01	9.499909e-02	1.530000e-01	6.412824e-02	9.811621e-03	
9	5.002000e-01	8.652137e-02	1.232000e-01	6.418784e-02	7.907942e-03	
10	5.338539e-01	7.928664e-02	1.190000e-01	6.426214e-02	7.647195e-03	
11	5.693856e-01	7.182219e-02	9.970000e-02	6.434670e-02	6.415366e-03	
12	6.119640e-01	6.313812e-02	9.710000e-02	6.447631e-02	6.260650e-03	
13	6.554388e-01	5.469426e-02	8.450000e-02	6.465628e-02	5.463456e-03	
14	6.988562e-01	4.681940e-02	6.480000e-02	6.485673e-02	4.202716e-03	
15	7.487323e-01	3.845267e-02	5.640000e-02	6.520569e-02	3.677601e-03	
16	7.986864e-01	3.093799e-02	5.050000e-02	6.566475e-02	3.316070e-03	
17	8.480566e-01	2.432555e-02	3.460000e-02	6.637723e-02	2.296652e-03	
18	9.014433e-01	1.813938e-02	2.580000e-02	6.757005e-02	1.743307e-03	
19	9.644169e-01	1.202271e-02	2.320000e-02	7.033187e-02	1.631699e-03	
20	1.027619e+00	7.115077e-03	1.400000e-02	7.713128e-02	1.079838e-03	
21	1.086094e+00	3.521772e-03	1.330000e-02	9.911151e-02	1.318183e-03	
22	1.144727e+00	7.407016e-04	1.040000e-02	3.154066e-01	3.280229e-03	
23	1.201790e+00	-1.317101e-03	7.100000e-03	-1.609599e-01	-1.142815e-03	
24	1.266096e+00	-2.994275e-03	5.400000e-03	-8.318938e-02	-4.492226e-04	
25	1.326688e+00	-4.061444e-03	4.100000e-03	-7.164640e-02	-2.937503e-04	
26	1.393090e+00	-4.813749e-03	2.900000e-03	-6.743895e-02	-1.955729e-04	
27	1.481621e+00	-5.296660e-03	1.600000e-03	-6.543628e-02	-1.046981e-04	
28	1.573086e+00	-5.396203e-03	9.000000e-04	-6.453606e-02	-5.808245e-05	
29	1.669102e+00	-5.224997e-03	4.000000e-04	-6.414391e-02	-2.565756e-05	
