# Dataset name: COMPASS_Deu_Pm_Km_x_0.0260_z_0.243	
#	  PhT [GeV]   	   pred.     	    exp.     	  hes.err(%) 	  hes.err * exp 	
0	3.315117e-01	2.334675e+00	4.614000e+00	2.975835e-02	1.373050e-01	
1	3.604164e-01	2.147776e+00	4.403400e+00	2.906011e-02	1.279633e-01	
2	3.934463e-01	1.936031e+00	3.839400e+00	2.822649e-02	1.083728e-01	
3	4.272002e-01	1.725982e+00	3.535500e+00	2.746780e-02	9.711240e-02	
4	4.610857e-01	1.524452e+00	2.979000e+00	2.694967e-02	8.028305e-02	
5	4.987986e-01	1.318856e+00	2.579100e+00	2.675889e-02	6.901386e-02	
6	5.337603e-01	1.149636e+00	2.235300e+00	2.700417e-02	6.036242e-02	
7	5.695612e-01	9.949395e-01	1.928500e+00	2.774544e-02	5.350708e-02	
8	6.120458e-01	8.367182e-01	1.450800e+00	2.910943e-02	4.223196e-02	
9	6.546755e-01	7.022324e-01	1.254600e+00	3.081853e-02	3.866492e-02	
10	6.994283e-01	5.823070e-01	9.411000e-01	3.282580e-02	3.089236e-02	
11	7.475293e-01	4.735517e-01	7.790000e-01	3.504100e-02	2.729694e-02	
12	7.983107e-01	3.769952e-01	5.765000e-01	3.737550e-02	2.154697e-02	
13	8.474668e-01	2.978775e-01	4.492000e-01	3.972632e-02	1.784506e-02	
14	9.009995e-01	2.257227e-01	3.201000e-01	4.244856e-02	1.358778e-02	
15	9.664885e-01	1.549429e-01	2.397000e-01	4.636173e-02	1.111291e-02	
16	1.028154e+00	1.029617e-01	1.700000e-01	5.154664e-02	8.762929e-03	
17	1.085587e+00	6.441765e-02	1.278000e-01	5.998537e-02	7.666130e-03	
18	1.142235e+00	3.510473e-02	9.350000e-02	7.833107e-02	7.323955e-03	
19	1.203578e+00	1.275079e-02	7.190000e-02	1.576249e-01	1.133323e-02	
20	1.263645e+00	-2.906105e-03	5.040000e-02	-5.361114e-01	-2.702001e-02	
21	1.325104e+00	-1.403951e-02	4.030000e-02	-9.363666e-02	-3.773557e-03	
22	1.396889e+00	-2.133560e-02	2.810000e-02	-5.927315e-02	-1.665576e-03	
23	1.477295e+00	-2.407091e-02	2.050000e-02	-5.392911e-02	-1.105547e-03	
24	1.580253e+00	-2.324332e-02	1.290000e-02	-5.763657e-02	-7.435118e-04	
25	1.677439e+00	-1.973869e-02	8.700000e-03	-6.893189e-02	-5.997075e-04	
