# Dataset name: COMPASS_Deu_Pm_Km_x_0.1326_z_0.479	
#	  PhT [GeV]   	   pred.     	    exp.     	  hes.err(%) 	  hes.err * exp 	
0	1.732051e-01	4.899853e-01	9.281000e-01	4.897086e-02	4.544986e-02	
1	2.229350e-01	4.623490e-01	8.968000e-01	4.896444e-02	4.391131e-02	
2	2.647640e-01	4.349184e-01	8.031000e-01	4.901024e-02	3.936013e-02	
3	2.998333e-01	4.102914e-01	8.018000e-01	4.900901e-02	3.929542e-02	
4	3.316625e-01	3.865306e-01	7.435000e-01	4.905063e-02	3.646914e-02	
5	3.604164e-01	3.642358e-01	7.078000e-01	4.906948e-02	3.473138e-02	
6	3.934463e-01	3.381561e-01	6.408000e-01	4.914157e-02	3.148992e-02	
7	4.275512e-01	3.109193e-01	6.087000e-01	4.919395e-02	2.994436e-02	
8	4.611941e-01	2.840587e-01	5.510000e-01	4.931630e-02	2.717328e-02	
9	4.996999e-01	2.541251e-01	4.703000e-01	4.945189e-02	2.325722e-02	
10	5.332917e-01	2.285806e-01	4.220000e-01	4.967286e-02	2.096195e-02	
11	5.695612e-01	2.023777e-01	3.638000e-01	4.992876e-02	1.816408e-02	
12	6.120458e-01	1.732065e-01	3.188000e-01	5.045875e-02	1.608625e-02	
13	6.547519e-01	1.463504e-01	2.594000e-01	5.115768e-02	1.327030e-02	
14	7.000000e-01	1.203345e-01	2.248000e-01	5.240716e-02	1.178113e-02	
15	7.473286e-01	9.636515e-02	1.740000e-01	5.433922e-02	9.455025e-03	
16	7.988116e-01	7.370919e-02	1.427000e-01	5.796338e-02	8.271374e-03	
17	8.471718e-01	5.565612e-02	1.058000e-01	6.360378e-02	6.729280e-03	
18	9.003888e-01	3.915660e-02	8.600000e-02	7.476006e-02	6.429365e-03	
19	9.651425e-01	2.330977e-02	5.870000e-02	1.030914e-01	6.051467e-03	
20	1.027424e+00	1.190759e-02	4.390000e-02	1.744134e-01	7.656747e-03	
21	1.085587e+00	3.967805e-03	3.380000e-02	4.722138e-01	1.596083e-02	
22	1.141928e+00	-1.578681e-03	2.510000e-02	-1.092843e+00	-2.743035e-02	
23	1.203869e+00	-5.859241e-03	1.450000e-02	-2.710809e-01	-3.930674e-03	
24	1.261666e+00	-8.443694e-03	1.140000e-02	-1.736921e-01	-1.980089e-03	
25	1.326348e+00	-1.019385e-02	7.300000e-03	-1.305745e-01	-9.531936e-04	
26	1.393628e+00	-1.105369e-02	4.800000e-03	-1.074902e-01	-5.159530e-04	
27	1.475907e+00	-1.123430e-02	2.900000e-03	-9.049323e-02	-2.624304e-04	
28	1.578322e+00	-1.064312e-02	1.200000e-03	-7.657412e-02	-9.188894e-05	
29	1.669102e+00	-9.753577e-03	7.000000e-04	-6.750279e-02	-4.725196e-05	
