# Dataset name: E288_400_Q_6_7	
#	  qT [GeV]   	   pred.     	    exp.     	  hes.err(%) 	  hes.err(%) * exp 	
0	1.000000e-01	1.330970e+00	1.040000e+00	6.972629e-02	7.251534e-02	
1	3.000000e-01	1.258418e+00	9.660000e-01	6.966955e-02	6.730079e-02	
2	5.000000e-01	1.125084e+00	8.940000e-01	6.952085e-02	6.215164e-02	
3	7.000000e-01	9.520674e-01	7.070000e-01	6.927277e-02	4.897585e-02	
4	9.000000e-01	7.614914e-01	5.940000e-01	6.890535e-02	4.092978e-02	
5	1.100000e+00	5.768237e-01	4.400000e-01	6.835631e-02	3.007677e-02	
6	1.300000e+00	4.149416e-01	3.300000e-01	6.757822e-02	2.230081e-02	
7	1.500000e+00	2.827105e-01	2.170000e-01	6.652450e-02	1.443582e-02	
8	1.700000e+00	1.828647e-01	1.530000e-01	6.523830e-02	9.981459e-03	
9	1.900000e+00	1.121903e-01	8.800000e-02	6.423229e-02	5.652441e-03	
10	2.100000e+00	6.487055e-02	6.100000e-02	6.574443e-02	4.010410e-03	
11	2.300000e+00	3.431804e-02	5.000000e-02	7.851509e-02	3.925755e-03	
12	2.500000e+00	1.549956e-02	2.500000e-02	1.341362e-01	3.353405e-03	
13	2.700000e+00	3.817668e-03	2.000000e-02	4.986848e-01	9.973696e-03	
14	2.900000e+00	-3.621395e-03	1.400000e-02	-5.103576e-01	-7.145007e-03	
15	3.100000e+00	-8.579749e-03	5.900000e-03	-2.105654e-01	-1.242336e-03	
16	3.300000e+00	-1.195554e-02	6.400000e-03	-1.469832e-01	-9.406923e-04	
17	3.500000e+00	-1.445508e-02	3.800000e-03	-1.183658e-01	-4.497902e-04	
18	3.700000e+00	-1.629034e-02	3.100000e-03	-1.022873e-01	-3.170906e-04	
19	3.900000e+00	-1.736599e-02	5.000000e-04	-9.263578e-02	-4.631789e-05	
20	4.100000e+00	-1.816591e-02	5.000000e-04	-8.589390e-02	-4.294695e-05	
21	4.300000e+00	-1.856522e-02	1.800000e-03	-8.119925e-02	-1.461587e-04	
22	4.500000e+00	-1.835958e-02	-1.500000e-03	-7.801428e-02	1.170214e-04	
23	4.900000e+00	-1.756186e-02	1.200000e-03	-7.363867e-02	-8.836640e-05	
