# Dataset name: E288_400_Q_12_13	
#	  qT [GeV]   	   pred.     	    exp.     	  hes.err(%) 	  hes.err(%) * exp 	
0	1.000000e-01	3.724429e-03	2.250000e-03	1.932483e-01	4.348087e-04	
1	3.000000e-01	3.531607e-03	2.590000e-03	1.927644e-01	4.992597e-04	
2	5.000000e-01	3.174127e-03	1.570000e-03	1.917122e-01	3.009881e-04	
3	7.000000e-01	2.708263e-03	2.070000e-03	1.900028e-01	3.933059e-04	
4	9.000000e-01	2.188638e-03	1.540000e-03	1.875680e-01	2.888548e-04	
5	1.100000e+00	1.678949e-03	1.290000e-03	1.838755e-01	2.371995e-04	
6	1.300000e+00	1.226648e-03	9.700000e-04	1.785837e-01	1.732262e-04	
7	1.500000e+00	8.497563e-04	8.500000e-04	1.714029e-01	1.456925e-04	
8	1.700000e+00	5.594590e-04	5.200000e-04	1.624310e-01	8.446410e-05	
9	1.900000e+00	3.493390e-04	1.600000e-04	1.548202e-01	2.477123e-05	
10	2.100000e+00	2.053601e-04	2.400000e-04	1.633948e-01	3.921474e-05	
11	2.300000e+00	1.100303e-04	1.300000e-04	2.354739e-01	3.061160e-05	
12	2.700000e+00	1.279659e-05	1.200000e-04	1.921740e+00	2.306089e-04	
13	2.900000e+00	-1.118883e-05	3.700000e-05	-2.143965e+00	-7.932670e-05	
14	3.100000e+00	-2.711141e-05	3.900000e-05	-8.430500e-01	-3.287895e-05	
