# Dataset name: COMPASS_Deu_Pp_Kp_x_0.0170_z_0.345	
#	  PhT [GeV]   	   pred.     	    exp.     	  hes.err(%) 	  hes.err * exp 	
0	1.726268e-01	4.811753e-01	2.853200e+00	9.229543e-02	2.633373e-01	
1	2.229350e-01	4.521363e-01	2.601400e+00	9.080418e-02	2.362180e-01	
2	2.645751e-01	4.246301e-01	2.604900e+00	8.902251e-02	2.318947e-01	
3	2.993326e-01	3.997093e-01	2.227100e+00	8.716464e-02	1.941244e-01	
4	3.312099e-01	3.740791e-01	2.074800e+00	8.555361e-02	1.775066e-01	
5	3.608324e-01	3.515286e-01	1.988800e+00	8.334798e-02	1.657625e-01	
6	3.933192e-01	3.250352e-01	1.854100e+00	8.109193e-02	1.503526e-01	
7	4.269660e-01	2.986012e-01	1.617300e+00	7.816540e-02	1.264169e-01	
8	4.608687e-01	2.726393e-01	1.445500e+00	7.499604e-02	1.084068e-01	
9	4.999000e-01	2.431886e-01	1.350200e+00	7.127987e-02	9.624208e-02	
10	5.337603e-01	2.200463e-01	1.155000e+00	6.760487e-02	7.808362e-02	
11	5.697368e-01	1.963373e-01	9.869000e-01	6.384603e-02	6.300965e-02	
12	6.122091e-01	1.716956e-01	8.675000e-01	5.914204e-02	5.130572e-02	
13	6.542935e-01	1.494479e-01	6.870000e-01	5.491973e-02	3.772986e-02	
14	6.999286e-01	1.285629e-01	6.433000e-01	5.073517e-02	3.263794e-02	
15	7.475293e-01	1.097948e-01	4.339000e-01	4.746334e-02	2.059435e-02	
16	7.988742e-01	9.215665e-02	3.659000e-01	4.575503e-02	1.674177e-02	
17	8.484692e-01	7.805616e-02	2.994000e-01	4.590068e-02	1.374266e-02	
18	9.009440e-01	6.526448e-02	2.342000e-01	4.812863e-02	1.127173e-02	
19	9.663850e-01	5.211932e-02	1.734000e-01	5.315029e-02	9.216260e-03	
20	1.028154e+00	4.204735e-02	1.329000e-01	5.931498e-02	7.882961e-03	
21	1.085357e+00	3.428784e-02	9.890000e-02	6.563485e-02	6.491287e-03	
22	1.142454e+00	2.788584e-02	6.820000e-02	7.208965e-02	4.916514e-03	
23	1.203412e+00	2.208031e-02	5.410000e-02	7.921996e-02	4.285800e-03	
24	1.262260e+00	1.758093e-02	4.700000e-02	8.616925e-02	4.049955e-03	
25	1.325519e+00	1.337561e-02	3.110000e-02	9.515357e-02	2.959276e-03	
26	1.390647e+00	9.857354e-03	2.080000e-02	1.075848e-01	2.237765e-03	
27	1.484689e+00	5.937502e-03	1.650000e-02	1.391506e-01	2.295985e-03	
28	1.579715e+00	2.982976e-03	1.230000e-02	2.210773e-01	2.719251e-03	
29	1.681101e+00	6.416073e-04	9.800000e-03	8.414157e-01	8.245874e-03	
