# Dataset name: COMPASS_Deu_Pp_Kp_x_0.0771_z_0.481	
#	  PhT [GeV]   	   pred.     	    exp.     	  hes.err(%) 	  hes.err * exp 	
0	1.726268e-01	2.049589e-01	1.039500e+00	8.769703e-02	9.116107e-02	
1	2.231591e-01	1.951425e-01	1.045000e+00	8.691952e-02	9.083089e-02	
2	2.640076e-01	1.852446e-01	1.032300e+00	8.641047e-02	8.920153e-02	
3	2.998333e-01	1.762986e-01	9.400000e-01	8.564070e-02	8.050225e-02	
4	3.315117e-01	1.675963e-01	8.908000e-01	8.507147e-02	7.578167e-02	
5	3.601389e-01	1.594867e-01	8.643000e-01	8.431472e-02	7.287321e-02	
6	3.928104e-01	1.497098e-01	7.736000e-01	8.352665e-02	6.461622e-02	
7	4.275512e-01	1.395447e-01	7.552000e-01	8.238493e-02	6.221710e-02	
8	4.614109e-01	1.292054e-01	7.059000e-01	8.129671e-02	5.738735e-02	
9	4.999000e-01	1.178961e-01	6.071000e-01	7.968147e-02	4.837462e-02	
10	5.334792e-01	1.079056e-01	5.656000e-01	7.827730e-02	4.427364e-02	
11	5.688585e-01	9.801092e-02	4.873000e-01	7.635987e-02	3.721017e-02	
12	6.123724e-01	8.597803e-02	4.688000e-01	7.398311e-02	3.468328e-02	
13	6.550573e-01	7.518347e-02	3.879000e-01	7.103178e-02	2.755323e-02	
14	6.992854e-01	6.453060e-02	3.296000e-01	6.782501e-02	2.235512e-02	
15	7.473286e-01	5.426523e-02	2.763000e-01	6.361368e-02	1.757646e-02	
16	7.995624e-01	4.411051e-02	2.435000e-01	5.889202e-02	1.434021e-02	
17	8.478797e-01	3.609992e-02	2.052000e-01	5.432618e-02	1.114773e-02	
18	9.024411e-01	2.821579e-02	1.554000e-01	5.084958e-02	7.902024e-03	
19	9.659710e-01	2.066856e-02	1.201000e-01	5.287748e-02	6.350585e-03	
20	1.028154e+00	1.482686e-02	8.970000e-02	6.867521e-02	6.160166e-03	
21	1.084574e+00	1.055518e-02	7.950000e-02	1.007676e-01	8.011027e-03	
22	1.144902e+00	7.053613e-03	5.680000e-02	1.609016e-01	9.139209e-03	
23	1.203703e+00	4.391882e-03	4.220000e-02	2.692445e-01	1.136212e-02	
24	1.264199e+00	2.371371e-03	3.180000e-02	5.047049e-01	1.604962e-02	
25	1.328571e+00	7.746105e-04	2.570000e-02	1.519120e+00	3.904139e-02	
26	1.394382e+00	-3.684322e-04	2.030000e-02	-3.053604e+00	-6.198817e-02	
27	1.482869e+00	-1.370241e-03	1.130000e-02	-7.479916e-01	-8.452305e-03	
28	1.581487e+00	-1.990284e-03	9.200000e-03	-4.469839e-01	-4.112252e-03	
29	1.678392e+00	-2.317141e-03	6.600000e-03	-3.248513e-01	-2.144018e-03	
