# Dataset name: COMPASS_Deu_Pp_Kp_x_0.0678_z_0.685	
#	  PhT [GeV]   	   pred.     	    exp.     	  hes.err(%) 	  hes.err * exp 	
0	1.737815e-01	9.148835e-02	5.252000e-01	8.724582e-02	4.582150e-02	
1	2.231591e-01	8.650272e-02	5.520000e-01	8.718384e-02	4.812548e-02	
2	2.641969e-01	8.164461e-02	5.056000e-01	8.720611e-02	4.409141e-02	
3	3.000000e-01	7.705710e-02	4.932000e-01	8.709542e-02	4.295546e-02	
4	3.318132e-01	7.268184e-02	4.674000e-01	8.708911e-02	4.070545e-02	
5	3.613862e-01	6.851564e-02	3.976000e-01	8.696396e-02	3.457687e-02	
6	3.939543e-01	6.375892e-02	3.891000e-01	8.692658e-02	3.382313e-02	
7	4.275512e-01	5.880276e-02	3.581000e-01	8.685406e-02	3.110244e-02	
8	4.618441e-01	5.375664e-02	3.154000e-01	8.670629e-02	2.734716e-02	
9	4.992995e-01	4.828421e-02	2.729000e-01	8.662160e-02	2.363903e-02	
10	5.343220e-01	4.333137e-02	2.440000e-01	8.641094e-02	2.108427e-02	
11	5.695612e-01	3.849934e-02	2.183000e-01	8.626006e-02	1.883057e-02	
12	6.118823e-01	3.299573e-02	1.944000e-01	8.606989e-02	1.673199e-02	
13	6.550573e-01	2.780378e-02	1.730000e-01	8.568011e-02	1.482266e-02	
14	6.992138e-01	2.292559e-02	1.429000e-01	8.538885e-02	1.220207e-02	
15	7.473286e-01	1.819068e-02	1.140000e-01	8.485261e-02	9.673198e-03	
16	7.984360e-01	1.380073e-02	9.810000e-02	8.431729e-02	8.271527e-03	
17	8.480566e-01	1.016941e-02	7.170000e-02	8.390003e-02	6.015632e-03	
18	9.007219e-01	6.967334e-03	5.730000e-02	8.378997e-02	4.801165e-03	
19	9.646761e-01	3.871666e-03	4.940000e-02	8.902382e-02	4.397777e-03	
20	1.027424e+00	1.605821e-03	3.680000e-02	1.345081e-01	4.949897e-03	
21	1.083282e+00	9.994678e-05	2.270000e-02	2.035182e+00	4.619863e-02	
22	1.141359e+00	-1.019824e-03	2.100000e-02	-2.370746e-01	-4.978567e-03	
23	1.199208e+00	-1.793127e-03	9.700000e-03	-1.572409e-01	-1.525237e-03	
24	1.261031e+00	-2.318405e-03	8.300000e-03	-1.343101e-01	-1.114774e-03	
25	1.327215e+00	-2.620825e-03	5.300000e-03	-1.246885e-01	-6.608492e-04	
26	1.399464e+00	-2.745621e-03	3.800000e-03	-1.193359e-01	-4.534763e-04	
27	1.482026e+00	-2.704853e-03	2.400000e-03	-1.167510e-01	-2.802024e-04	
28	1.572228e+00	-2.539724e-03	8.000000e-04	-1.151514e-01	-9.212108e-05	
29	1.678660e+00	-2.256502e-03	7.000000e-04	-1.147474e-01	-8.032316e-05	
