# Dataset name: COMPASS_Deu_Pp_Kp_x_0.2909_z_0.345	
#	  PhT [GeV]   	   pred.     	    exp.     	  hes.err(%) 	  hes.err * exp 	
0	1.714643e-01	5.282221e-01	4.028100e+00	1.269778e-01	5.114793e-01	
1	2.227106e-01	4.965940e-01	3.677700e+00	1.253744e-01	4.610895e-01	
2	2.643861e-01	4.669858e-01	3.330000e+00	1.236917e-01	4.118933e-01	
3	2.996665e-01	4.399902e-01	3.262700e+00	1.218878e-01	3.976832e-01	
4	3.313608e-01	4.135301e-01	3.003300e+00	1.201238e-01	3.607678e-01	
5	3.595831e-01	3.902239e-01	2.664200e+00	1.182676e-01	3.150885e-01	
6	3.924283e-01	3.623692e-01	2.598300e+00	1.159075e-01	3.011625e-01	
7	4.275512e-01	3.317748e-01	2.625700e+00	1.130762e-01	2.969042e-01	
8	4.601087e-01	3.044244e-01	2.256000e+00	1.101100e-01	2.484081e-01	
9	4.987986e-01	2.720122e-01	1.847900e+00	1.062758e-01	1.963871e-01	
10	5.335729e-01	2.446868e-01	1.631800e+00	1.024215e-01	1.671313e-01	
11	5.699123e-01	2.170349e-01	1.232100e+00	9.811489e-02	1.208874e-01	
12	6.122091e-01	1.876168e-01	1.099400e+00	9.269575e-02	1.019097e-01	
13	6.548282e-01	1.605189e-01	9.617000e-01	8.703083e-02	8.369755e-02	
14	6.987847e-01	1.351088e-01	8.049000e-01	8.122939e-02	6.538154e-02	
15	7.485319e-01	1.101309e-01	6.262000e-01	7.552283e-02	4.729239e-02	
16	7.968061e-01	8.898457e-02	4.172000e-01	7.226971e-02	3.015092e-02	
17	8.469357e-01	7.048645e-02	3.374000e-01	7.358881e-02	2.482887e-02	
18	8.999444e-01	5.400176e-02	2.834000e-01	8.341805e-02	2.364068e-02	
19	9.648316e-01	3.758773e-02	1.669000e-01	1.122775e-01	1.873911e-02	
20	1.027327e+00	2.516475e-02	1.051000e-01	1.648560e-01	1.732636e-02	
21	1.087750e+00	1.564622e-02	9.050000e-02	2.603019e-01	2.355732e-02	
22	1.143591e+00	8.742842e-03	5.990000e-02	4.508432e-01	2.700551e-02	
23	1.205612e+00	2.643099e-03	6.000000e-02	1.411107e+00	8.466642e-02	
24	1.265109e+00	-1.892589e-03	2.540000e-02	-1.838171e+00	-4.668955e-02	
25	1.322800e+00	-5.140093e-03	2.110000e-02	-6.219131e-01	-1.312237e-02	
26	1.387191e+00	-7.974529e-03	1.650000e-02	-3.620124e-01	-5.973204e-03	
27	1.481553e+00	-1.063365e-02	9.100000e-03	-2.304807e-01	-2.097374e-03	
28	1.585118e+00	-1.211168e-02	7.400000e-03	-1.679173e-01	-1.242588e-03	
29	1.683568e+00	-1.237209e-02	5.000000e-03	-1.364839e-01	-6.824195e-04	
