# Dataset name: COMPASS_Deu_Pp_Kp_x_0.0106_z_0.345	
#	  PhT [GeV]   	   pred.     	    exp.     	  hes.err(%) 	  hes.err * exp 	
0	1.726268e-01	5.012665e-01	2.816300e+00	1.032856e-01	2.908833e-01	
1	2.233831e-01	4.682802e-01	2.629300e+00	1.021496e-01	2.685821e-01	
2	2.643861e-01	4.362363e-01	2.515800e+00	1.008833e-01	2.538021e-01	
3	3.001666e-01	4.051368e-01	2.430400e+00	9.950807e-02	2.418444e-01	
4	3.315117e-01	3.763429e-01	2.165400e+00	9.804636e-02	2.123096e-01	
5	3.606938e-01	3.486586e-01	2.014000e+00	9.650396e-02	1.943590e-01	
6	3.937004e-01	3.173143e-01	1.864500e+00	9.447225e-02	1.761435e-01	
7	4.277850e-01	2.853913e-01	1.670900e+00	9.212417e-02	1.539303e-01	
8	4.608687e-01	2.557008e-01	1.494300e+00	8.955601e-02	1.338236e-01	
9	4.991994e-01	2.233658e-01	1.320300e+00	8.630439e-02	1.139477e-01	
10	5.334792e-01	1.968366e-01	1.158800e+00	8.316193e-02	9.636804e-02	
11	5.696490e-01	1.714325e-01	1.007000e+00	7.968443e-02	8.024222e-02	
12	6.118823e-01	1.451773e-01	8.307000e-01	7.555776e-02	6.276583e-02	
13	6.548282e-01	1.221490e-01	6.765000e-01	7.140947e-02	4.830851e-02	
14	6.994283e-01	1.017100e-01	5.725000e-01	6.746060e-02	3.862119e-02	
15	7.471948e-01	8.332055e-02	4.688000e-01	6.385667e-02	2.993601e-02	
16	7.989368e-01	6.682660e-02	3.632000e-01	6.118375e-02	2.222194e-02	
17	8.478797e-01	5.400273e-02	2.766000e-01	6.010580e-02	1.662527e-02	
18	9.011104e-01	4.255044e-02	2.265000e-01	6.089470e-02	1.379265e-02	
19	9.663850e-01	3.145822e-02	1.667000e-01	6.443846e-02	1.074189e-02	
20	1.027570e+00	2.340608e-02	1.175000e-01	6.974785e-02	8.195372e-03	
21	1.084896e+00	1.752756e-02	9.690000e-02	7.534200e-02	7.300640e-03	
22	1.141884e+00	1.293872e-02	6.210000e-02	8.046672e-02	4.996983e-03	
23	1.203495e+00	9.117624e-03	4.840000e-02	8.389058e-02	4.060304e-03	
24	1.263012e+00	6.285585e-03	3.580000e-02	8.431569e-02	3.018502e-03	
25	1.328194e+00	3.970682e-03	2.980000e-02	8.379473e-02	2.497083e-03	
26	1.394525e+00	2.245305e-03	2.030000e-02	1.100285e-01	2.233578e-03	
27	1.479257e+00	7.521834e-04	1.520000e-02	4.169445e-01	6.337557e-03	
28	1.578797e+00	-2.624996e-04	1.020000e-02	-1.607001e+00	-1.639141e-02	
29	1.680565e+00	-7.176132e-04	7.600000e-03	-6.568175e-01	-4.991813e-03	
