# Dataset name: COMPASS_Deu_Pp_Kp_x_0.0170_z_0.684	
#	  PhT [GeV]   	   pred.     	    exp.     	  hes.err(%) 	  hes.err * exp 	
0	1.723369e-01	8.311121e-02	2.661000e-01	8.154427e-02	2.169893e-02	
1	2.227106e-01	7.893858e-02	2.366000e-01	8.141527e-02	1.926285e-02	
2	2.640076e-01	7.493220e-02	2.377000e-01	8.129957e-02	1.932491e-02	
3	3.019934e-01	7.080332e-02	2.549000e-01	8.128425e-02	2.071935e-02	
4	3.313608e-01	6.748752e-02	2.301000e-01	8.107964e-02	1.865642e-02	
5	3.598611e-01	6.408266e-02	2.179000e-01	8.100574e-02	1.765115e-02	
6	3.945884e-01	5.982121e-02	1.953000e-01	8.088234e-02	1.579632e-02	
7	4.267318e-01	5.582584e-02	1.870000e-01	8.065019e-02	1.508159e-02	
8	4.611941e-01	5.146347e-02	1.721000e-01	8.054427e-02	1.386167e-02	
9	4.991994e-01	4.676145e-02	1.721000e-01	8.014269e-02	1.379256e-02	
10	5.333854e-01	4.255267e-02	1.528000e-01	7.992615e-02	1.221272e-02	
11	5.700000e-01	3.818611e-02	1.259000e-01	7.962968e-02	1.002538e-02	
12	6.116371e-01	3.346772e-02	1.270000e-01	7.904115e-02	1.003823e-02	
13	6.545991e-01	2.883890e-02	1.253000e-01	7.859849e-02	9.848391e-03	
14	6.974238e-01	2.463135e-02	9.710000e-02	7.769898e-02	7.544571e-03	
15	7.481310e-01	2.005711e-02	7.560000e-02	7.680634e-02	5.806560e-03	
16	7.984360e-01	1.609441e-02	7.660000e-02	7.536575e-02	5.773016e-03	
17	8.478797e-01	1.267563e-02	5.420000e-02	7.397277e-02	4.009324e-03	
18	9.029396e-01	9.462426e-03	4.710000e-02	7.215226e-02	3.398371e-03	
19	9.664885e-01	6.458617e-03	3.340000e-02	7.018174e-02	2.344070e-03	
20	1.025329e+00	4.272544e-03	2.540000e-02	7.170815e-02	1.821387e-03	
21	1.085035e+00	2.572931e-03	2.360000e-02	8.681679e-02	2.048876e-03	
22	1.140789e+00	1.354439e-03	2.200000e-02	1.504515e-01	3.309932e-03	
23	1.202040e+00	4.036600e-04	1.850000e-02	5.416597e-01	1.002070e-02	
24	1.257696e+00	-2.286416e-04	1.140000e-02	-1.039850e+00	-1.185429e-02	
25	1.323631e+00	-7.103175e-04	8.700000e-03	-3.610237e-01	-3.140906e-03	
26	1.392264e+00	-1.022820e-03	7.900000e-03	-2.590632e-01	-2.046599e-03	
27	1.480338e+00	-1.194861e-03	4.500000e-03	-2.216365e-01	-9.973642e-04	
28	1.579240e+00	-1.228893e-03	4.800000e-03	-2.053040e-01	-9.854594e-04	
29	1.679553e+00	-1.147560e-03	2.200000e-03	-2.039751e-01	-4.487453e-04	
