# Dataset name: COMPASS_Deu_Pp_Kp_x_0.2909_z_0.482	
#	  PhT [GeV]   	   pred.     	    exp.     	  hes.err(%) 	  hes.err * exp 	
0	1.720465e-01	2.613483e-01	1.370800e+00	1.033158e-01	1.416253e-01	
1	2.227106e-01	2.484834e-01	1.414000e+00	1.027506e-01	1.452893e-01	
2	2.638181e-01	2.360018e-01	1.342900e+00	1.022187e-01	1.372695e-01	
3	2.989983e-01	2.246963e-01	1.117800e+00	1.015961e-01	1.135641e-01	
4	3.304542e-01	2.139138e-01	1.197600e+00	1.010303e-01	1.209939e-01	
5	3.605551e-01	2.027908e-01	1.078800e+00	1.003988e-01	1.083102e-01	
6	3.943349e-01	1.899307e-01	1.119400e+00	9.958335e-02	1.114736e-01	
7	4.283690e-01	1.770554e-01	8.622000e-01	9.865655e-02	8.506168e-02	
8	4.618441e-01	1.639785e-01	8.788000e-01	9.761709e-02	8.578590e-02	
9	4.989990e-01	1.497965e-01	7.827000e-01	9.626620e-02	7.534756e-02	
10	5.335729e-01	1.365483e-01	6.398000e-01	9.489253e-02	6.071224e-02	
11	5.696490e-01	1.233247e-01	5.862000e-01	9.317093e-02	5.461680e-02	
12	6.115554e-01	1.082901e-01	5.407000e-01	9.096285e-02	4.918361e-02	
13	6.551336e-01	9.374049e-02	4.492000e-01	8.819897e-02	3.961898e-02	
14	6.996428e-01	7.971689e-02	3.887000e-01	8.496500e-02	3.302590e-02	
15	7.475293e-01	6.611693e-02	3.193000e-01	8.083491e-02	2.581059e-02	
16	7.987490e-01	5.293730e-02	2.293000e-01	7.580195e-02	1.738139e-02	
17	8.476438e-01	4.204844e-02	2.215000e-01	7.057855e-02	1.563315e-02	
18	9.002777e-01	3.178008e-02	1.603000e-01	6.585071e-02	1.055587e-02	
19	9.687621e-01	2.092565e-02	1.258000e-01	6.892225e-02	8.670419e-03	
20	1.025085e+00	1.380400e-02	9.170000e-02	9.658489e-02	8.856834e-03	
21	1.085127e+00	7.712034e-03	6.630000e-02	1.895293e-01	1.256579e-02	
22	1.141709e+00	3.307759e-03	4.810000e-02	4.921273e-01	2.367132e-02	
23	1.202664e+00	-3.275861e-04	4.270000e-02	-5.388354e+00	-2.300827e-01	
24	1.263606e+00	-2.947413e-03	2.910000e-02	-6.228153e-01	-1.812392e-02	
25	1.329398e+00	-4.937302e-03	1.670000e-02	-3.735862e-01	-6.238889e-03	
26	1.391797e+00	-6.173385e-03	1.100000e-02	-2.913161e-01	-3.204477e-03	
27	1.475466e+00	-7.123094e-03	1.220000e-02	-2.361385e-01	-2.880889e-03	
28	1.584298e+00	-7.561744e-03	8.000000e-03	-1.951630e-01	-1.561304e-03	
29	1.670509e+00	-7.533309e-03	3.100000e-03	-1.723317e-01	-5.342282e-04	
