# Dataset name: COMPASS_Deu_Pp_Kp_x_0.0678_z_0.345	
#	  PhT [GeV]   	   pred.     	    exp.     	  hes.err(%) 	  hes.err * exp 	
0	2.996665e-01	3.515425e-01	3.401900e+00	1.090193e-01	3.708726e-01	
1	3.316625e-01	3.267738e-01	3.204700e+00	1.070518e-01	3.430689e-01	
2	3.601389e-01	3.033092e-01	3.032600e+00	1.053454e-01	3.194704e-01	
3	3.935734e-01	2.764687e-01	2.664200e+00	1.026872e-01	2.735794e-01	
4	4.275512e-01	2.489847e-01	2.338600e+00	9.988287e-02	2.335861e-01	
5	4.615192e-01	2.227552e-01	2.198600e+00	9.651760e-02	2.122036e-01	
6	4.996999e-01	1.947549e-01	1.884900e+00	9.242293e-02	1.742080e-01	
7	5.331979e-01	1.719350e-01	1.618900e+00	8.847077e-02	1.432253e-01	
8	5.693856e-01	1.494127e-01	1.418600e+00	8.392609e-02	1.190575e-01	
9	6.111465e-01	1.261287e-01	1.127600e+00	7.848750e-02	8.850251e-02	
10	6.545991e-01	1.052693e-01	8.677000e-01	7.273920e-02	6.311581e-02	
11	6.987847e-01	8.680426e-02	6.955000e-01	6.770845e-02	4.709123e-02	
12	7.465923e-01	7.029419e-02	5.287000e-01	6.342412e-02	3.353233e-02	
13	7.978722e-01	5.553096e-02	3.861000e-01	6.205962e-02	2.396122e-02	
14	8.470537e-01	4.406204e-02	2.569000e-01	6.470343e-02	1.662231e-02	
15	9.009995e-01	3.390301e-02	1.948000e-01	7.294987e-02	1.421064e-02	
16	9.627045e-01	2.478429e-02	1.205000e-01	8.879202e-02	1.069944e-02	
17	1.027473e+00	1.758451e-02	7.970000e-02	1.111115e-01	8.855585e-03	
18	1.086094e+00	1.265207e-02	5.550000e-02	1.353525e-01	7.512066e-03	
19	1.140614e+00	9.165959e-03	3.940000e-02	1.602572e-01	6.314134e-03	
20	1.204492e+00	6.089226e-03	2.930000e-02	1.923637e-01	5.636256e-03	
21	1.264555e+00	4.001680e-03	1.540000e-02	2.248809e-01	3.463166e-03	
22	1.325406e+00	2.442319e-03	1.350000e-02	2.671806e-01	3.606938e-03	
23	1.395887e+00	1.219139e-03	9.800000e-03	3.596422e-01	3.524494e-03	
24	1.473330e+00	3.620177e-04	4.400000e-03	9.415825e-01	4.142963e-03	
25	1.571814e+00	-2.573636e-04	2.100000e-03	-1.522270e+00	-3.196766e-03	
26	1.670778e+00	-5.224228e-04	2.000000e-03	-8.851310e-01	-1.770262e-03	
