# Dataset name: COMPASS_Deu_Pp_Kp_x_0.0170_z_0.482	
#	  PhT [GeV]   	   pred.     	    exp.     	  hes.err(%) 	  hes.err * exp 	
0	1.723369e-01	1.562823e-01	9.144000e-01	7.877233e-02	7.202942e-02	
1	2.227106e-01	1.483785e-01	8.372000e-01	7.780311e-02	6.513677e-02	
2	2.643861e-01	1.404669e-01	8.331000e-01	7.697033e-02	6.412398e-02	
3	3.000000e-01	1.334103e-01	7.910000e-01	7.588223e-02	6.002284e-02	
4	3.318132e-01	1.260181e-01	8.503000e-01	7.539226e-02	6.410604e-02	
5	3.606938e-01	1.199057e-01	7.417000e-01	7.417134e-02	5.501288e-02	
6	3.930649e-01	1.120826e-01	6.828000e-01	7.340554e-02	5.012130e-02	
7	4.272002e-01	1.045184e-01	6.100000e-01	7.176734e-02	4.377808e-02	
8	4.613025e-01	9.635060e-02	5.806000e-01	7.060542e-02	4.099351e-02	
9	4.996999e-01	8.796295e-02	5.441000e-01	6.844476e-02	3.724079e-02	
10	5.336666e-01	8.029439e-02	4.652000e-01	6.688175e-02	3.111339e-02	
11	5.694734e-01	7.305371e-02	4.186000e-01	6.443849e-02	2.697395e-02	
12	6.114736e-01	6.456380e-02	3.896000e-01	6.192585e-02	2.412631e-02	
13	6.558201e-01	5.669709e-02	3.261000e-01	5.843115e-02	1.905440e-02	
14	6.986415e-01	4.946069e-02	2.681000e-01	5.528470e-02	1.482183e-02	
15	7.472617e-01	4.245131e-02	2.113000e-01	5.102699e-02	1.078200e-02	
16	7.994373e-01	3.560731e-02	1.901000e-01	4.698612e-02	8.932061e-03	
17	8.481745e-01	3.040145e-02	1.463000e-01	4.323164e-02	6.324789e-03	
18	9.017760e-01	2.530017e-02	1.138000e-01	4.077411e-02	4.640093e-03	
19	9.661780e-01	2.052417e-02	1.051000e-01	4.056793e-02	4.263689e-03	
20	1.028688e+00	1.675991e-02	7.470000e-02	4.443072e-02	3.318975e-03	
21	1.084620e+00	1.407110e-02	5.260000e-02	5.079894e-02	2.672024e-03	
22	1.144159e+00	1.177358e-02	4.210000e-02	5.948090e-02	2.504146e-03	
23	1.204201e+00	9.897814e-03	3.560000e-02	6.920866e-02	2.463828e-03	
24	1.263527e+00	8.411152e-03	2.340000e-02	7.890145e-02	1.846294e-03	
25	1.331203e+00	7.024285e-03	2.120000e-02	8.957580e-02	1.899007e-03	
26	1.398392e+00	5.906318e-03	1.770000e-02	9.947779e-02	1.760757e-03	
27	1.478242e+00	4.814150e-03	1.150000e-02	1.105574e-01	1.271410e-03	
28	1.579462e+00	3.678112e-03	7.600000e-03	1.246709e-01	9.474988e-04	
29	1.677796e+00	2.754873e-03	5.200000e-03	1.408866e-01	7.326105e-04	
