# Dataset name: COMPASS_Deu_Pp_Kp_x_0.0170_z_0.684	
#	  PhT [GeV]   	   pred.     	    exp.     	  hes.err(%) 	  hes.err * exp 	
0	1.723369e-01	5.476823e-02	2.661000e-01	8.323045e-02	2.214762e-02	
1	2.227106e-01	5.213551e-02	2.366000e-01	8.300638e-02	1.963931e-02	
2	2.640076e-01	4.961678e-02	2.377000e-01	8.276919e-02	1.967424e-02	
3	3.019934e-01	4.695945e-02	2.549000e-01	8.282120e-02	2.111112e-02	
4	3.313608e-01	4.489567e-02	2.301000e-01	8.242554e-02	1.896612e-02	
5	3.598611e-01	4.271400e-02	2.179000e-01	8.236351e-02	1.794701e-02	
6	3.945884e-01	4.000930e-02	1.953000e-01	8.215773e-02	1.604540e-02	
7	4.267318e-01	3.748060e-02	1.870000e-01	8.179586e-02	1.529583e-02	
8	4.611941e-01	3.468536e-02	1.721000e-01	8.168817e-02	1.405853e-02	
9	4.991994e-01	3.172621e-02	1.721000e-01	8.100810e-02	1.394149e-02	
10	5.333854e-01	2.903071e-02	1.528000e-01	8.074158e-02	1.233731e-02	
11	5.700000e-01	2.624440e-02	1.259000e-01	8.031228e-02	1.011132e-02	
12	6.116371e-01	2.325022e-02	1.270000e-01	7.942824e-02	1.008739e-02	
13	6.545991e-01	2.027506e-02	1.253000e-01	7.887756e-02	9.883358e-03	
14	6.974238e-01	1.760747e-02	9.710000e-02	7.752700e-02	7.527872e-03	
15	7.481310e-01	1.465671e-02	7.560000e-02	7.643502e-02	5.778488e-03	
16	7.984360e-01	1.212491e-02	7.660000e-02	7.445439e-02	5.703206e-03	
17	8.478797e-01	9.903459e-03	5.420000e-02	7.284428e-02	3.948160e-03	
18	9.029396e-01	7.814927e-03	4.710000e-02	7.062139e-02	3.326267e-03	
19	9.664885e-01	5.846814e-03	3.340000e-02	6.793276e-02	2.268954e-03	
20	1.025329e+00	4.392580e-03	2.540000e-02	6.672015e-02	1.694692e-03	
21	1.085035e+00	3.251620e-03	2.360000e-02	6.801651e-02	1.605190e-03	
22	1.140789e+00	2.402413e-03	2.200000e-02	7.622430e-02	1.676935e-03	
23	1.202040e+00	1.734338e-03	1.850000e-02	9.526480e-02	1.762399e-03	
24	1.257696e+00	1.254908e-03	1.140000e-02	1.279919e-01	1.459108e-03	
25	1.323631e+00	8.721957e-04	8.700000e-03	1.856682e-01	1.615313e-03	
26	1.392264e+00	5.773845e-04	7.900000e-03	2.805062e-01	2.215999e-03	
27	1.480338e+00	3.574816e-04	4.500000e-03	4.489962e-01	2.020483e-03	
28	1.579240e+00	2.015732e-04	4.800000e-03	7.596727e-01	3.646429e-03	
29	1.679553e+00	1.303481e-04	2.200000e-03	1.107832e+00	2.437231e-03	
