# Dataset name: COMPASS_Deu_Pp_Kp_x_0.0455_z_0.679	
#	  PhT [GeV]   	   pred.     	    exp.     	  hes.err(%) 	  hes.err * exp 	
0	1.720465e-01	4.786075e-02	1.972000e-01	8.406522e-02	1.657766e-02	
1	2.209072e-01	4.612953e-02	2.494000e-01	8.379703e-02	2.089898e-02	
2	2.636285e-01	4.431422e-02	2.463000e-01	8.360554e-02	2.059204e-02	
3	3.011644e-01	4.245290e-02	2.515000e-01	8.369558e-02	2.104944e-02	
4	3.333167e-01	4.084433e-02	1.898000e-01	8.333476e-02	1.581694e-02	
5	3.613862e-01	3.928212e-02	1.859000e-01	8.327780e-02	1.548134e-02	
6	3.942081e-01	3.745846e-02	2.193000e-01	8.300361e-02	1.820269e-02	
7	4.289522e-01	3.538889e-02	1.729000e-01	8.283434e-02	1.432206e-02	
8	4.606517e-01	3.344021e-02	1.299000e-01	8.277757e-02	1.075281e-02	
9	4.987986e-01	3.116931e-02	1.429000e-01	8.227286e-02	1.175679e-02	
10	5.328227e-01	2.906716e-02	1.106000e-01	8.205703e-02	9.075507e-03	
11	5.700877e-01	2.684231e-02	1.469000e-01	8.152302e-02	1.197573e-02	
12	6.108191e-01	2.439680e-02	9.880000e-02	8.114693e-02	8.017317e-03	
13	6.561250e-01	2.177311e-02	9.330000e-02	8.067900e-02	7.527351e-03	
14	6.994998e-01	1.940138e-02	9.730000e-02	7.982561e-02	7.767032e-03	
15	7.469940e-01	1.690927e-02	7.170000e-02	7.916808e-02	5.676352e-03	
16	7.989368e-01	1.444334e-02	7.670000e-02	7.786807e-02	5.972481e-03	
17	8.488816e-01	1.223781e-02	7.200000e-02	7.691596e-02	5.537949e-03	
18	9.007219e-01	1.023012e-02	5.420000e-02	7.528673e-02	4.080541e-03	
19	9.679359e-01	7.916692e-03	5.330000e-02	7.379664e-02	3.933361e-03	
20	1.024744e+00	6.305843e-03	3.790000e-02	7.209752e-02	2.732496e-03	
21	1.085403e+00	4.823860e-03	2.740000e-02	7.187241e-02	1.969304e-03	
22	1.141447e+00	3.709242e-03	2.230000e-02	7.360122e-02	1.641307e-03	
23	1.206358e+00	2.666745e-03	2.840000e-02	8.105283e-02	2.301900e-03	
24	1.261031e+00	1.952715e-03	1.660000e-02	9.757194e-02	1.619694e-03	
25	1.331766e+00	1.265929e-03	1.330000e-02	1.401768e-01	1.864351e-03	
26	1.388884e+00	8.267833e-04	5.500000e-03	2.124843e-01	1.168664e-03	
27	1.472379e+00	3.801396e-04	8.500000e-03	4.666039e-01	3.966133e-03	
28	1.578607e+00	1.040011e-05	5.100000e-03	1.697049e+01	8.654948e-02	
29	1.675440e+00	-1.824594e-04	3.400000e-03	-9.427773e-01	-3.205443e-03	
