# Dataset name: COMPASS_Deu_Pp_Kp_x_0.0427_z_0.244	
#	  PhT [GeV]   	   pred.     	    exp.     	  hes.err(%) 	  hes.err * exp 	
0	3.931921e-01	4.242871e-01	4.682200e+00	7.883165e-02	3.691055e-01	
1	4.274342e-01	3.850676e-01	4.121200e+00	7.252155e-02	2.988758e-01	
2	4.609772e-01	3.470970e-01	3.662200e+00	6.642993e-02	2.432797e-01	
3	4.994998e-01	3.069215e-01	3.034200e+00	5.949431e-02	1.805176e-01	
4	5.333854e-01	2.750442e-01	2.604000e+00	5.393847e-02	1.404558e-01	
5	5.692978e-01	2.436256e-01	2.190300e+00	4.928267e-02	1.079438e-01	
6	6.118823e-01	2.109170e-01	1.726000e+00	4.543321e-02	7.841772e-02	
7	6.547519e-01	1.820476e-01	1.366100e+00	4.365540e-02	5.963765e-02	
8	6.992138e-01	1.556775e-01	1.104900e+00	4.376471e-02	4.835563e-02	
9	7.468601e-01	1.310122e-01	8.253000e-01	4.540985e-02	3.747675e-02	
10	7.987490e-01	1.075799e-01	6.066000e-01	4.836045e-02	2.933545e-02	
11	8.475848e-01	8.823163e-02	4.571000e-01	5.186596e-02	2.370793e-02	
12	9.008329e-01	7.003293e-02	3.571000e-01	5.623071e-02	2.007999e-02	
13	9.649870e-01	5.168664e-02	2.360000e-01	6.224839e-02	1.469062e-02	
14	1.028154e+00	3.677344e-02	1.660000e-01	6.932084e-02	1.150726e-02	
15	1.084758e+00	2.552528e-02	1.224000e-01	7.795109e-02	9.541213e-03	
16	1.142804e+00	1.614821e-02	9.530000e-02	9.139939e-02	8.710362e-03	
17	1.203038e+00	9.001997e-03	6.380000e-02	1.176998e-01	7.509245e-03	
18	1.263012e+00	3.222723e-03	4.990000e-02	2.172603e-01	1.084129e-02	
19	1.327855e+00	-1.512554e-03	3.820000e-02	-2.905163e-01	-1.109772e-02	
20	1.393485e+00	-4.698541e-03	2.660000e-02	-8.099161e-02	-2.154377e-03	
21	1.478952e+00	-7.064835e-03	2.020000e-02	-6.825384e-02	-1.378728e-03	
22	1.577847e+00	-8.170892e-03	1.350000e-02	-7.419663e-02	-1.001654e-03	
23	1.679673e+00	-7.984810e-03	8.100000e-03	-8.332146e-02	-6.749038e-04	
