# Dataset name: COMPASS_Deu_Pp_Kp_x_0.1570_z_0.480	
#	  PhT [GeV]   	   pred.     	    exp.     	  hes.err(%) 	  hes.err * exp 	
0	1.743560e-01	1.589547e-01	1.028500e+00	9.456269e-02	9.725773e-02	
1	2.222611e-01	1.525627e-01	9.650000e-01	9.401839e-02	9.072775e-02	
2	2.643861e-01	1.457336e-01	9.129000e-01	9.347222e-02	8.533079e-02	
3	3.000000e-01	1.397225e-01	8.451000e-01	9.276851e-02	7.839867e-02	
4	3.303029e-01	1.341533e-01	9.378000e-01	9.224639e-02	8.650867e-02	
5	3.602777e-01	1.283133e-01	8.919000e-01	9.155764e-02	8.166026e-02	
6	3.928104e-01	1.216633e-01	7.455000e-01	9.079374e-02	6.768673e-02	
7	4.275512e-01	1.146297e-01	7.392000e-01	8.982087e-02	6.639558e-02	
8	4.610857e-01	1.075292e-01	7.649000e-01	8.883881e-02	6.795281e-02	
9	4.990992e-01	9.967107e-02	6.236000e-01	8.748886e-02	5.455805e-02	
10	5.333854e-01	9.245466e-02	6.305000e-01	8.625699e-02	5.438503e-02	
11	5.696490e-01	8.516579e-02	5.387000e-01	8.465950e-02	4.560607e-02	
12	6.110646e-01	7.686936e-02	4.696000e-01	8.280260e-02	3.888410e-02	
13	6.551336e-01	6.862267e-02	4.001000e-01	8.044879e-02	3.218756e-02	
14	6.999286e-01	6.055765e-02	3.495000e-01	7.793798e-02	2.723932e-02	
15	7.485319e-01	5.260540e-02	2.911000e-01	7.478592e-02	2.177018e-02	
16	7.987490e-01	4.505312e-02	2.814000e-01	7.141609e-02	2.009649e-02	
17	8.482924e-01	3.834678e-02	1.788000e-01	6.775395e-02	1.211441e-02	
18	9.030504e-01	3.182166e-02	1.667000e-01	6.391630e-02	1.065485e-02	
19	9.667471e-01	2.529205e-02	1.241000e-01	6.007921e-02	7.455830e-03	
20	1.028980e+00	2.001253e-02	8.730000e-02	5.850627e-02	5.107598e-03	
21	1.088072e+00	1.579322e-02	7.840000e-02	6.107477e-02	4.788262e-03	
22	1.146168e+00	1.240715e-02	6.210000e-02	6.925022e-02	4.300438e-03	
23	1.206234e+00	9.492729e-03	4.740000e-02	8.570176e-02	4.062263e-03	
24	1.265978e+00	7.156455e-03	4.000000e-02	1.115201e-01	4.460805e-03	
25	1.327968e+00	5.171160e-03	2.690000e-02	1.526419e-01	4.106068e-03	
26	1.395994e+00	3.436000e-03	2.460000e-02	2.250696e-01	5.536712e-03	
27	1.473194e+00	1.888903e-03	1.180000e-02	3.945261e-01	4.655409e-03	
28	1.576134e+00	3.600723e-04	9.500000e-03	1.913708e+00	1.818023e-02	
29	1.683300e+00	-7.937205e-04	1.060000e-02	-7.824733e-01	-8.294217e-03	
