   17104.913699436867      13.546817809795192     
   17144.796584760657      13.716101078366476     
   17081.452950203624      13.569854985091077     
   17072.947195677029      13.491228592567627     
   17135.785180384184      13.506815436120281     
   17088.463833762871      13.524981528361256     
   17131.193709815529      13.486790314343727     
   17084.602993589091      13.659594685557186     
   17148.757279969563      13.509101204718391     
   17091.294716918259      13.572488805742086     
   17128.880236536301      13.518950338123640     
   17122.276798512885      13.604788397221562     
   17098.897902828314      13.504052128302233     
   17111.420288440066      13.611109878627579     
   17107.738354372759      13.639708862758114     
   17085.274260139737      13.597190494676228     
   17123.418564754189      13.581551459102414     
   17148.773092133029      13.596216450544595     
   17061.420450438192      13.527327577168046     
   17186.334551314150      13.595831202257367     
   17046.971611488934      13.470999161698350     
   17140.839070372363      13.688982608563631     
   17080.972606023523      13.678657055235567     
   17165.367746110293      13.601547899735325     
   17062.832846799873      13.467659246958556     
   17007.798086315041      13.488411686466051     
   17178.437418288857      13.622120051111514     
   17152.093809676280      13.644223887438974     
   17110.188957908427      13.631069865364204     
   17164.850283963980      13.436117059421946     
   17041.116468831038      13.406742837895381     
   17298.965884529251      13.563475472162615     
   16953.457765839212      13.573938630223033     
   17074.757454610550      13.620842490656118     
   17158.800353622933      13.632407046368572     
   17094.162073455627      13.484772367113036     
   17170.146889954969      13.693340522078076     
   17090.797686092486      13.565223032985418     
   17135.957947411611      13.530023438000775     
   17148.317965081660      13.580685722285809     
   17067.070641900493      13.432506501960866     
   17062.254147389864      13.391498672217436     
   17084.395944887918      13.544233159857781     
   17059.180286872830      13.380659209954056     
   17065.292444596496      13.603622015388179     
   17105.837497971224      13.612546346311413     
   17119.257133221592      13.635840505068424     
   17100.869502715672      13.587490660644491     
   17135.849593141582      13.565849856201854     
   17110.909535795436      13.627201949883679     
   17115.882729076828      13.463361519853548     
