# Dataset name: COMPASS_Deu_Pm_Km_x_0.2909_z_0.343	
#	  PhT [GeV]   	   pred.     	    exp.     	  hes.err(%) 	  hes.err * exp 	
0	1.723369e-01	1.264310e-01	2.145100e+00	5.184932e-01	1.112220e+00	
1	2.233831e-01	1.215433e-01	1.993300e+00	5.007994e-01	9.982434e-01	
2	2.640076e-01	1.170786e-01	2.117000e+00	4.833783e-01	1.023312e+00	
3	3.000000e-01	1.129116e-01	1.943800e+00	4.648214e-01	9.035198e-01	
4	3.318132e-01	1.089237e-01	1.842600e+00	4.471043e-01	8.238344e-01	
5	3.602777e-01	1.050170e-01	1.617200e+00	4.299245e-01	6.952739e-01	
6	3.940812e-01	1.004382e-01	1.594200e+00	4.079995e-01	6.504328e-01	
7	4.272002e-01	9.556601e-02	1.227700e+00	3.858026e-01	4.736498e-01	
8	4.607602e-01	9.080465e-02	1.184600e+00	3.618824e-01	4.286859e-01	
9	4.994998e-01	8.501673e-02	1.052400e+00	3.337781e-01	3.512681e-01	
10	5.332917e-01	8.021140e-02	1.070200e+00	3.085572e-01	3.302179e-01	
11	5.694734e-01	7.490465e-02	7.981000e-01	2.817632e-01	2.248752e-01	
12	6.112283e-01	6.910970e-02	6.701000e-01	2.513748e-01	1.684463e-01	
13	6.552099e-01	6.316529e-02	7.528000e-01	2.209142e-01	1.663042e-01	
14	6.989993e-01	5.735774e-02	4.815000e-01	1.932907e-01	9.306947e-02	
15	7.505331e-01	5.098425e-02	3.782000e-01	1.658456e-01	6.272282e-02	
16	7.959271e-01	4.563954e-02	3.031000e-01	1.482366e-01	4.493050e-02	
17	8.482335e-01	3.986002e-02	2.222000e-01	1.373916e-01	3.052841e-02	
18	9.014433e-01	3.440226e-02	1.512000e-01	1.385722e-01	2.095211e-02	
19	9.624448e-01	2.864357e-02	1.149000e-01	1.539463e-01	1.768843e-02	
20	1.026791e+00	2.316097e-02	7.750000e-02	1.832635e-01	1.420292e-02	
21	1.082312e+00	1.887985e-02	5.180000e-02	2.181995e-01	1.130273e-02	
22	1.142454e+00	1.475925e-02	4.120000e-02	2.669732e-01	1.099930e-02	
23	1.202082e+00	1.109958e-02	1.610000e-02	3.345485e-01	5.386231e-03	
24	1.262141e+00	7.874429e-03	1.860000e-02	4.377366e-01	8.141901e-03	
25	1.329624e+00	4.822109e-03	1.510000e-02	6.453331e-01	9.744529e-03	
26	1.390611e+00	2.457007e-03	1.090000e-02	1.146702e+00	1.249906e-02	
27	1.487178e+00	-4.501010e-04	8.600000e-03	-5.277708e+00	-4.538829e-02	
28	1.600906e+00	-2.756187e-03	3.600000e-03	-7.011874e-01	-2.524275e-03	
29	1.664722e+00	-3.561553e-03	1.400000e-03	-4.821626e-01	-6.750277e-04	
