# Dataset name: COMPASS_Deu_Pm_Km_x_0.0427_z_0.479	
#	  PhT [GeV]   	   pred.     	    exp.     	  hes.err(%) 	  hes.err * exp 	
0	1.726268e-01	1.176934e-01	8.733000e-01	6.554062e-02	5.723663e-02	
1	2.231591e-01	1.119889e-01	7.737000e-01	6.487084e-02	5.019057e-02	
2	2.640076e-01	1.060026e-01	7.791000e-01	6.444522e-02	5.020927e-02	
3	3.003331e-01	1.007146e-01	7.445000e-01	6.379458e-02	4.749506e-02	
4	3.310589e-01	9.562579e-02	6.918000e-01	6.334249e-02	4.382034e-02	
5	3.604164e-01	9.084952e-02	6.578000e-01	6.269843e-02	4.124303e-02	
6	3.930649e-01	8.513879e-02	6.136000e-01	6.209157e-02	3.809939e-02	
7	4.276681e-01	7.929179e-02	5.591000e-01	6.119659e-02	3.421501e-02	
8	4.609772e-01	7.337756e-02	5.373000e-01	6.043517e-02	3.247182e-02	
9	4.994998e-01	6.700873e-02	4.874000e-01	5.928391e-02	2.889498e-02	
10	5.339476e-01	6.115690e-02	4.021000e-01	5.836494e-02	2.346854e-02	
11	5.697368e-01	5.565199e-02	3.858000e-01	5.717704e-02	2.205890e-02	
12	6.119640e-01	4.913120e-02	3.137000e-01	5.598506e-02	1.756251e-02	
13	6.552862e-01	4.322015e-02	2.924000e-01	5.464793e-02	1.597905e-02	
14	6.992854e-01	3.744535e-02	2.463000e-01	5.367649e-02	1.322052e-02	
15	7.476630e-01	3.201037e-02	2.042000e-01	5.289339e-02	1.080083e-02	
16	7.993748e-01	2.670833e-02	1.672000e-01	5.312452e-02	8.882419e-03	
17	8.484692e-01	2.250416e-02	1.306000e-01	5.446910e-02	7.113664e-03	
18	9.002777e-01	1.860332e-02	1.095000e-01	5.781514e-02	6.330758e-03	
19	9.647798e-01	1.469995e-02	8.300000e-02	6.479472e-02	5.377961e-03	
20	1.027278e+00	1.170157e-02	6.600000e-02	7.462545e-02	4.925280e-03	
21	1.084804e+00	9.441369e-03	4.770000e-02	8.631175e-02	4.117070e-03	
22	1.142454e+00	7.689801e-03	3.590000e-02	9.932586e-02	3.565798e-03	
23	1.203412e+00	6.174437e-03	2.720000e-02	1.147465e-01	3.121105e-03	
24	1.262537e+00	5.044301e-03	2.140000e-02	1.296263e-01	2.774002e-03	
25	1.327328e+00	4.038929e-03	1.480000e-02	1.463658e-01	2.166214e-03	
26	1.394633e+00	3.224776e-03	1.150000e-02	1.630101e-01	1.874616e-03	
27	1.478817e+00	2.432100e-03	7.400000e-03	1.833642e-01	1.356895e-03	
28	1.580000e+00	1.708835e-03	4.900000e-03	2.092307e-01	1.025230e-03	
29	1.674455e+00	1.168295e-03	3.600000e-03	2.444058e-01	8.798608e-04	
