# Dataset name: COMPASS_Deu_Pm_Km_x_0.0752_z_0.344	
#	  PhT [GeV]   	   pred.     	    exp.     	  hes.err(%) 	  hes.err * exp 	
0	2.643861e-01	2.082111e-01	2.381400e+00	1.462896e-01	3.483740e-01	
1	3.000000e-01	1.971745e-01	2.265700e+00	1.419489e-01	3.216136e-01	
2	3.313608e-01	1.861566e-01	2.093000e+00	1.379983e-01	2.888305e-01	
3	3.605551e-01	1.765007e-01	1.980500e+00	1.334100e-01	2.642184e-01	
4	3.930649e-01	1.652599e-01	1.776800e+00	1.280051e-01	2.274394e-01	
5	4.274342e-01	1.529019e-01	1.697800e+00	1.220223e-01	2.071695e-01	
6	4.609772e-01	1.416008e-01	1.478900e+00	1.154570e-01	1.707494e-01	
7	4.993996e-01	1.282825e-01	1.281800e+00	1.080391e-01	1.384845e-01	
8	5.336666e-01	1.176133e-01	1.130000e+00	1.008195e-01	1.139260e-01	
9	5.694734e-01	1.064068e-01	9.931000e-01	9.481783e-02	9.416358e-02	
10	6.118006e-01	9.470902e-02	8.446000e-01	8.555537e-02	7.226006e-02	
11	6.547519e-01	8.366685e-02	6.652000e-01	7.849041e-02	5.221182e-02	
12	6.991423e-01	7.325212e-02	5.326000e-01	7.310859e-02	3.893763e-02	
13	7.470609e-01	6.341922e-02	4.549000e-01	7.008957e-02	3.188374e-02	
14	7.986238e-01	5.393571e-02	3.320000e-01	7.084886e-02	2.352182e-02	
15	8.472308e-01	4.623238e-02	2.514000e-01	7.478242e-02	1.880030e-02	
16	9.011104e-01	3.875826e-02	1.912000e-01	8.214438e-02	1.570601e-02	
17	9.649870e-01	3.112412e-02	1.245000e-01	9.359918e-02	1.165310e-02	
18	1.027813e+00	2.483115e-02	8.870000e-02	1.062199e-01	9.421702e-03	
19	1.084343e+00	1.997438e-02	6.060000e-02	1.184571e-01	7.178498e-03	
20	1.141884e+00	1.581299e-02	4.430000e-02	1.310107e-01	5.803772e-03	
21	1.201707e+00	1.204867e-02	3.010000e-02	1.459373e-01	4.392714e-03	
22	1.262933e+00	8.852535e-03	2.170000e-02	1.632863e-01	3.543313e-03	
23	1.328232e+00	6.044028e-03	1.640000e-02	1.879363e-01	3.082156e-03	
24	1.392408e+00	3.698439e-03	1.140000e-02	2.355417e-01	2.685176e-03	
25	1.480878e+00	1.308977e-03	7.800000e-03	4.530671e-01	3.533924e-03	
26	1.574325e+00	-4.562676e-04	3.800000e-03	-9.395867e-01	-3.570430e-03	
27	1.672453e+00	-1.668216e-03	2.500000e-03	-2.251352e-01	-5.628381e-04	
