# Dataset name: COMPASS_Deu_Pm_Km_x_0.1326_z_0.682	
#	  PhT [GeV]   	   pred.     	    exp.     	  hes.err(%) 	  hes.err * exp 	
0	1.737815e-01	2.420174e-02	2.603000e-01	2.712894e-01	7.061663e-02	
1	2.238303e-01	2.307156e-02	2.272000e-01	2.709518e-01	6.156024e-02	
2	2.643861e-01	2.199439e-02	2.381000e-01	2.706704e-01	6.444662e-02	
3	3.000000e-01	2.092585e-02	2.283000e-01	2.704848e-01	6.175167e-02	
4	3.315117e-01	1.994480e-02	2.032000e-01	2.701218e-01	5.488876e-02	
5	3.604164e-01	1.898354e-02	1.802000e-01	2.698327e-01	4.862385e-02	
6	3.933192e-01	1.786244e-02	1.694000e-01	2.694517e-01	4.564512e-02	
7	4.277850e-01	1.664879e-02	1.635000e-01	2.689678e-01	4.397624e-02	
8	4.609772e-01	1.545498e-02	1.530000e-01	2.685284e-01	4.108484e-02	
9	5.002000e-01	1.406844e-02	1.232000e-01	2.677459e-01	3.298630e-02	
10	5.338539e-01	1.287422e-02	1.190000e-01	2.670653e-01	3.178077e-02	
11	5.693856e-01	1.164922e-02	9.970000e-02	2.661978e-01	2.653992e-02	
12	6.119640e-01	1.021983e-02	9.710000e-02	2.649877e-01	2.573030e-02	
13	6.554388e-01	8.824686e-03	8.450000e-02	2.636372e-01	2.227735e-02	
14	6.988562e-01	7.539389e-03	6.480000e-02	2.617512e-01	1.696148e-02	
15	7.487323e-01	6.160953e-03	5.640000e-02	2.593932e-01	1.462977e-02	
16	7.986864e-01	4.934550e-03	5.050000e-02	2.563207e-01	1.294420e-02	
17	8.480566e-01	3.847744e-03	3.460000e-02	2.529526e-01	8.752160e-03	
18	9.014433e-01	2.840612e-03	2.580000e-02	2.489386e-01	6.422615e-03	
19	9.644169e-01	1.839492e-03	2.320000e-02	2.471821e-01	5.734625e-03	
20	1.027619e+00	1.045097e-03	1.400000e-02	2.694666e-01	3.772533e-03	
21	1.086094e+00	4.617454e-04	1.330000e-02	4.539901e-01	6.038068e-03	
22	1.144727e+00	1.311494e-05	1.040000e-02	1.692825e+01	1.760538e-01	
23	1.201790e+00	-3.114842e-04	7.100000e-03	-8.479860e-01	-6.020700e-03	
24	1.266096e+00	-5.781492e-04	5.400000e-03	-5.338168e-01	-2.882611e-03	
25	1.326688e+00	-7.378904e-04	4.100000e-03	-4.562337e-01	-1.870558e-03	
26	1.393090e+00	-8.500934e-04	2.900000e-03	-4.156323e-01	-1.205334e-03	
27	1.481621e+00	-9.102332e-04	1.600000e-03	-3.905977e-01	-6.249564e-04	
28	1.573086e+00	-9.108649e-04	9.000000e-04	-3.758547e-01	-3.382692e-04	
29	1.669102e+00	-8.635648e-04	4.000000e-04	-3.676142e-01	-1.470457e-04	
