# Dataset name: COMPASS_Deu_Pm_Km_x_0.0260_z_0.344	
#	  PhT [GeV]   	   pred.     	    exp.     	  hes.err(%) 	  hes.err * exp 	
0	1.729162e-01	2.515690e-01	2.438700e+00	6.443795e-02	1.571448e-01	
1	2.231591e-01	2.380653e-01	2.344500e+00	6.318802e-02	1.481443e-01	
2	2.649528e-01	2.256579e-01	2.146600e+00	6.169614e-02	1.324369e-01	
3	3.000000e-01	2.145793e-01	2.008100e+00	6.015391e-02	1.207951e-01	
4	3.318132e-01	2.024125e-01	2.008500e+00	5.892638e-02	1.183536e-01	
5	3.601389e-01	1.930700e-01	1.767500e+00	5.730673e-02	1.012897e-01	
6	3.937004e-01	1.809491e-01	1.748000e+00	5.545696e-02	9.693876e-02	
7	4.277850e-01	1.680653e-01	1.571000e+00	5.357764e-02	8.417047e-02	
8	4.613025e-01	1.565166e-01	1.349800e+00	5.145844e-02	6.945860e-02	
9	4.993996e-01	1.425190e-01	1.292800e+00	4.931846e-02	6.375891e-02	
10	5.334792e-01	1.317350e-01	1.128900e+00	4.720242e-02	5.328681e-02	
11	5.691221e-01	1.199563e-01	9.647000e-01	4.536893e-02	4.376741e-02	
12	6.114736e-01	1.080072e-01	7.958000e-01	4.328097e-02	3.444300e-02	
13	6.547519e-01	9.644306e-02	6.904000e-01	4.171906e-02	2.880284e-02	
14	6.991423e-01	8.565497e-02	5.518000e-01	4.073060e-02	2.247514e-02	
15	7.470609e-01	7.550106e-02	4.523000e-01	4.038436e-02	1.826585e-02	
16	7.994373e-01	6.534934e-02	3.428000e-01	4.090556e-02	1.402243e-02	
17	8.477618e-01	5.737130e-02	2.671000e-01	4.204584e-02	1.123044e-02	
18	9.009440e-01	4.955887e-02	2.142000e-01	4.389220e-02	9.401710e-03	
19	9.656086e-01	4.120337e-02	1.567000e-01	4.670337e-02	7.318418e-03	
20	1.028008e+00	3.435509e-02	1.190000e-01	4.977573e-02	5.923312e-03	
21	1.084113e+00	2.893059e-02	9.570000e-02	5.275318e-02	5.048479e-03	
22	1.141490e+00	2.418868e-02	6.930000e-02	5.602551e-02	3.882568e-03	
23	1.203038e+00	1.959681e-02	4.950000e-02	5.987481e-02	2.963803e-03	
24	1.260833e+00	1.596224e-02	3.230000e-02	6.415533e-02	2.072217e-03	
25	1.328307e+00	1.223211e-02	2.730000e-02	7.035824e-02	1.920780e-03	
26	1.393485e+00	9.031009e-03	2.300000e-02	7.885461e-02	1.813656e-03	
27	1.479527e+00	5.781077e-03	1.610000e-02	9.818936e-02	1.580849e-03	
28	1.582435e+00	2.715494e-03	1.030000e-02	1.572599e-01	1.619776e-03	
29	1.678392e+00	5.899982e-04	7.000000e-03	5.486300e-01	3.840410e-03	
