# Dataset name: COMPASS_Deu_Pm_Km_x_0.1326_z_0.682	
#	  PhT [GeV]   	   pred.     	    exp.     	  hes.err(%) 	  hes.err * exp 	
0	1.737815e-01	2.121964e-02	2.603000e-01	1.970816e-01	5.130033e-02	
1	2.238303e-01	2.024833e-02	2.272000e-01	1.969506e-01	4.474718e-02	
2	2.643861e-01	1.932602e-02	2.381000e-01	1.968372e-01	4.686695e-02	
3	3.000000e-01	1.839813e-02	2.283000e-01	1.968847e-01	4.494877e-02	
4	3.315117e-01	1.755999e-02	2.032000e-01	1.967171e-01	3.997292e-02	
5	3.604164e-01	1.672661e-02	1.802000e-01	1.966960e-01	3.544462e-02	
6	3.933192e-01	1.576695e-02	1.694000e-01	1.965600e-01	3.329726e-02	
7	4.277850e-01	1.471546e-02	1.635000e-01	1.964964e-01	3.212716e-02	
8	4.609772e-01	1.368221e-02	1.530000e-01	1.964833e-01	3.006194e-02	
9	5.002000e-01	1.249104e-02	1.232000e-01	1.962478e-01	2.417772e-02	
10	5.338539e-01	1.145711e-02	1.190000e-01	1.961850e-01	2.334602e-02	
11	5.693856e-01	1.040412e-02	9.970000e-02	1.959804e-01	1.953925e-02	
12	6.119640e-01	9.166135e-03	9.710000e-02	1.958602e-01	1.901802e-02	
13	6.554388e-01	7.958249e-03	8.450000e-02	1.958187e-01	1.654668e-02	
14	6.988562e-01	6.849059e-03	6.480000e-02	1.955643e-01	1.267257e-02	
15	7.487323e-01	5.652053e-03	5.640000e-02	1.956882e-01	1.103682e-02	
16	7.986864e-01	4.591803e-03	5.050000e-02	1.957683e-01	9.886298e-03	
17	8.480566e-01	3.644758e-03	3.460000e-02	1.967528e-01	6.807648e-03	
18	9.014433e-01	2.770669e-03	2.580000e-02	1.988124e-01	5.129359e-03	
19	9.644169e-01	1.892812e-03	2.320000e-02	2.065088e-01	4.791005e-03	
20	1.027619e+00	1.197305e-03	1.400000e-02	2.286312e-01	3.200837e-03	
21	1.086094e+00	6.792431e-04	1.330000e-02	2.986603e-01	3.972182e-03	
22	1.144727e+00	2.786547e-04	1.040000e-02	6.068054e-01	6.310776e-03	
23	1.201790e+00	-1.453287e-05	7.100000e-03	-1.121699e+01	-7.964062e-02	
24	1.266096e+00	-2.618653e-04	5.400000e-03	-6.519603e-01	-3.520586e-03	
25	1.326688e+00	-4.136370e-04	4.100000e-03	-4.343783e-01	-1.780951e-03	
26	1.393090e+00	-5.288316e-04	2.900000e-03	-3.525928e-01	-1.022519e-03	
27	1.481621e+00	-6.027030e-04	1.600000e-03	-3.112803e-01	-4.980484e-04	
28	1.573086e+00	-6.274343e-04	9.000000e-04	-2.897251e-01	-2.607526e-04	
29	1.669102e+00	-6.101013e-04	4.000000e-04	-2.786339e-01	-1.114536e-04	
