# Dataset name: COMPASS_Deu_Pm_Km_x_0.0678_z_0.482	
#	  PhT [GeV]   	   pred.     	    exp.     	  hes.err(%) 	  hes.err * exp 	
0	1.726268e-01	8.682637e-02	1.079900e+00	7.425547e-02	8.018848e-02	
1	2.229350e-01	8.179516e-02	1.019800e+00	7.389728e-02	7.536044e-02	
2	2.641969e-01	7.710833e-02	9.636000e-01	7.345874e-02	7.078485e-02	
3	2.996665e-01	7.254194e-02	9.210000e-01	7.316759e-02	6.738735e-02	
4	3.316625e-01	6.839234e-02	8.817000e-01	7.270073e-02	6.410024e-02	
5	3.601389e-01	6.440645e-02	8.164000e-01	7.240007e-02	5.910742e-02	
6	3.938274e-01	5.986816e-02	7.789000e-01	7.178030e-02	5.590967e-02	
7	4.275512e-01	5.507300e-02	6.780000e-01	7.132285e-02	4.835689e-02	
8	4.610857e-01	5.060533e-02	5.925000e-01	7.057032e-02	4.181291e-02	
9	4.996999e-01	4.533123e-02	5.394000e-01	6.992608e-02	3.771813e-02	
10	5.334792e-01	4.111081e-02	4.771000e-01	6.905818e-02	3.294766e-02	
11	5.692978e-01	3.665942e-02	4.128000e-01	6.836816e-02	2.822238e-02	
12	6.119640e-01	3.184250e-02	3.645000e-01	6.735636e-02	2.455139e-02	
13	6.556676e-01	2.727150e-02	2.923000e-01	6.650445e-02	1.943925e-02	
14	6.989993e-01	2.324669e-02	2.524000e-01	6.575700e-02	1.659707e-02	
15	7.477299e-01	1.924353e-02	2.042000e-01	6.538630e-02	1.335188e-02	
16	7.990620e-01	1.565468e-02	1.481000e-01	6.578562e-02	9.742850e-03	
17	8.472308e-01	1.279388e-02	1.098000e-01	6.746960e-02	7.408162e-03	
18	9.005554e-01	1.018149e-02	7.960000e-02	7.128120e-02	5.673983e-03	
19	9.649870e-01	7.663043e-03	6.150000e-02	7.962062e-02	4.896668e-03	
20	1.027862e+00	5.824877e-03	3.980000e-02	9.166319e-02	3.648195e-03	
21	1.084988e+00	4.491283e-03	3.290000e-02	1.070891e-01	3.523231e-03	
22	1.141709e+00	3.513620e-03	1.990000e-02	1.244133e-01	2.475826e-03	
23	1.203246e+00	2.673966e-03	1.390000e-02	1.469074e-01	2.042013e-03	
24	1.264990e+00	2.065123e-03	1.000000e-02	1.696077e-01	1.696077e-03	
25	1.326122e+00	1.591586e-03	6.600000e-03	1.937718e-01	1.278894e-03	
26	1.391438e+00	1.219080e-03	5.200000e-03	2.176216e-01	1.131632e-03	
27	1.472752e+00	8.685888e-04	2.700000e-03	2.468448e-01	6.664809e-04	
28	1.579968e+00	5.476544e-04	1.900000e-03	2.839784e-01	5.395589e-04	
29	1.686387e+00	3.206707e-04	1.200000e-03	3.415888e-01	4.099066e-04	
