# Dataset name: COMPASS_Deu_Pm_Km_x_0.0161_z_0.684	
#	  PhT [GeV]   	   pred.     	    exp.     	  hes.err(%) 	  hes.err * exp 	
0	1.723369e-01	3.640356e-02	2.817000e-01	3.831768e-02	1.079409e-02	
1	2.238303e-01	3.430583e-02	2.883000e-01	3.832372e-02	1.104873e-02	
2	2.641969e-01	3.242734e-02	3.086000e-01	3.827678e-02	1.181222e-02	
3	2.991655e-01	3.067549e-02	2.620000e-01	3.817817e-02	1.000268e-02	
4	3.310589e-01	2.896023e-02	2.578000e-01	3.812642e-02	9.828991e-03	
5	3.608324e-01	2.728493e-02	2.358000e-01	3.811493e-02	8.987501e-03	
6	3.931921e-01	2.549819e-02	2.179000e-01	3.793102e-02	8.265170e-03	
7	4.277850e-01	2.349209e-02	1.835000e-01	3.790112e-02	6.954855e-03	
8	4.607602e-01	2.161511e-02	1.680000e-01	3.780268e-02	6.350850e-03	
9	5.000000e-01	1.943891e-02	1.454000e-01	3.760523e-02	5.467801e-03	
10	5.338539e-01	1.758244e-02	1.306000e-01	3.755291e-02	4.904410e-03	
11	5.690343e-01	1.576623e-02	1.143000e-01	3.735816e-02	4.270038e-03	
12	6.115554e-01	1.368706e-02	1.012000e-01	3.715519e-02	3.760105e-03	
13	6.551336e-01	1.170256e-02	9.170000e-02	3.705511e-02	3.397954e-03	
14	6.988562e-01	9.933983e-03	8.130000e-02	3.673865e-02	2.986852e-03	
15	7.475962e-01	8.141251e-03	7.290000e-02	3.679072e-02	2.682043e-03	
16	7.984986e-01	6.546972e-03	5.610000e-02	3.685796e-02	2.067731e-03	
17	8.481156e-01	5.231849e-03	4.310000e-02	3.727712e-02	1.606644e-03	
18	9.012769e-01	4.050399e-03	4.090000e-02	3.880743e-02	1.587224e-03	
19	9.649870e-01	2.956832e-03	3.240000e-02	4.184323e-02	1.355721e-03	
20	1.029029e+00	2.104314e-03	2.170000e-02	4.926956e-02	1.069149e-03	
21	1.084850e+00	1.566832e-03	2.040000e-02	5.874167e-02	1.198330e-03	
22	1.142935e+00	1.140111e-03	1.540000e-02	7.441917e-02	1.146055e-03	
23	1.203246e+00	8.222052e-04	1.110000e-02	9.676733e-02	1.074117e-03	
24	1.264516e+00	6.043018e-04	8.000000e-03	1.236935e-01	9.895477e-04	
25	1.326273e+00	4.402271e-04	6.000000e-03	1.607682e-01	9.646095e-04	
26	1.394238e+00	3.303593e-04	5.900000e-03	1.993743e-01	1.176308e-03	
27	1.482734e+00	2.372062e-04	4.000000e-03	2.510452e-01	1.004181e-03	
28	1.583288e+00	1.841948e-04	2.900000e-03	2.838810e-01	8.232549e-04	
29	1.672154e+00	1.516654e-04	1.900000e-03	3.046519e-01	5.788386e-04	
