# Dataset name: COMPASS_Deu_Pm_Km_x_0.1488_z_0.244	
#	  PhT [GeV]   	   pred.     	    exp.     	  hes.err(%) 	  hes.err * exp 	
0	3.312099e-01	3.380589e-01	4.728800e+00	2.276924e-01	1.076712e+00	
1	3.601389e-01	3.163766e-01	4.365500e+00	2.199055e-01	9.599976e-01	
2	3.931921e-01	2.916594e-01	3.928800e+00	2.094542e-01	8.229037e-01	
3	4.275512e-01	2.663073e-01	3.399500e+00	1.976896e-01	6.720458e-01	
4	4.613025e-01	2.417781e-01	3.051400e+00	1.857501e-01	5.667978e-01	
5	4.991994e-01	2.155671e-01	2.629800e+00	1.719944e-01	4.523107e-01	
6	5.336666e-01	1.936588e-01	2.183800e+00	1.596667e-01	3.486801e-01	
7	5.690343e-01	1.725624e-01	1.857300e+00	1.480706e-01	2.750115e-01	
8	6.118823e-01	1.495358e-01	1.443000e+00	1.355578e-01	1.956099e-01	
9	6.544463e-01	1.291977e-01	1.188400e+00	1.255846e-01	1.492448e-01	
10	6.992854e-01	1.101169e-01	9.165000e-01	1.181245e-01	1.082611e-01	
11	7.469270e-01	9.230908e-02	6.941000e-01	1.136842e-01	7.890823e-02	
12	7.982481e-01	7.550165e-02	4.760000e-01	1.129524e-01	5.376535e-02	
13	8.470537e-01	6.151112e-02	3.441000e-01	1.163975e-01	4.005237e-02	
14	9.004999e-01	4.824655e-02	2.447000e-01	1.251916e-01	3.063439e-02	
15	9.636908e-01	3.507931e-02	1.782000e-01	1.441610e-01	2.568949e-02	
16	1.027862e+00	2.415855e-02	1.155000e-01	1.778169e-01	2.053785e-02	
17	1.082636e+00	1.639583e-02	7.490000e-02	2.305849e-01	1.727081e-02	
18	1.141841e+00	9.633199e-03	5.960000e-02	3.434509e-01	2.046967e-02	
19	1.204450e+00	4.269246e-03	3.720000e-02	6.692285e-01	2.489530e-02	
20	1.262695e+00	4.686361e-04	2.680000e-02	5.318514e+00	1.425362e-01	
21	1.324726e+00	-2.571884e-03	1.620000e-02	-8.348273e-01	-1.352420e-02	
22	1.391618e+00	-4.691093e-03	1.280000e-02	-3.855783e-01	-4.935402e-03	
23	1.478310e+00	-6.147203e-03	8.500000e-03	-2.307839e-01	-1.961663e-03	
24	1.579494e+00	-6.600558e-03	4.800000e-03	-1.570582e-01	-7.538792e-04	
25	1.678809e+00	-6.198929e-03	3.000000e-03	-1.196224e-01	-3.588672e-04	
