# Dataset name: COMPASS_Deu_Pm_Km_x_0.0260_z_0.682	
#	  PhT [GeV]   	   pred.     	    exp.     	  hes.err(%) 	  hes.err * exp 	
0	1.734935e-01	3.148748e-02	2.413000e-01	4.098332e-02	9.889276e-03	
1	2.240536e-01	3.009464e-02	2.087000e-01	4.082040e-02	8.519218e-03	
2	2.647640e-01	2.877096e-02	2.242000e-01	4.066364e-02	9.116788e-03	
3	2.989983e-01	2.746214e-02	1.880000e-01	4.051401e-02	7.616634e-03	
4	3.313608e-01	2.625125e-02	2.012000e-01	4.033557e-02	8.115517e-03	
5	3.609709e-01	2.501413e-02	1.814000e-01	4.016284e-02	7.285539e-03	
6	3.935734e-01	2.366870e-02	1.696000e-01	3.993831e-02	6.773538e-03	
7	4.281355e-01	2.215434e-02	1.595000e-01	3.967793e-02	6.328630e-03	
8	4.606517e-01	2.069333e-02	1.344000e-01	3.939636e-02	5.294870e-03	
9	5.000000e-01	1.902240e-02	1.223000e-01	3.901370e-02	4.771375e-03	
10	5.338539e-01	1.753458e-02	1.081000e-01	3.863860e-02	4.176833e-03	
11	5.693856e-01	1.605467e-02	9.850000e-02	3.819915e-02	3.762616e-03	
12	6.119640e-01	1.431406e-02	8.780000e-02	3.761342e-02	3.302458e-03	
13	6.556676e-01	1.259176e-02	8.740000e-02	3.690800e-02	3.225759e-03	
14	6.997142e-01	1.104384e-02	7.490000e-02	3.616960e-02	2.709103e-03	
15	7.483315e-01	9.403709e-03	5.660000e-02	3.520421e-02	1.992558e-03	
16	8.001875e-01	7.894939e-03	5.230000e-02	3.422514e-02	1.789975e-03	
17	8.478207e-01	6.620973e-03	5.510000e-02	3.325417e-02	1.832305e-03	
18	9.012214e-01	5.424771e-03	3.970000e-02	3.258811e-02	1.293748e-03	
19	9.656086e-01	4.177523e-03	3.170000e-02	3.244424e-02	1.028482e-03	
20	1.029272e+00	3.221537e-03	2.540000e-02	3.463336e-02	8.796873e-04	
21	1.086232e+00	2.513079e-03	2.180000e-02	3.907156e-02	8.517599e-04	
22	1.143547e+00	1.950180e-03	1.680000e-02	4.703511e-02	7.901898e-04	
23	1.205031e+00	1.502182e-03	1.420000e-02	6.031088e-02	8.564144e-04	
24	1.265938e+00	1.142838e-03	9.700000e-03	7.785575e-02	7.552008e-04	
25	1.330038e+00	8.899740e-04	8.200000e-03	1.004421e-01	8.236256e-04	
26	1.395959e+00	6.793159e-04	4.500000e-03	1.286222e-01	5.788001e-04	
27	1.479054e+00	5.140143e-04	3.800000e-03	1.656453e-01	6.294523e-04	
28	1.577498e+00	3.732775e-04	3.200000e-03	2.141352e-01	6.852327e-04	
29	1.679970e+00	2.931798e-04	2.300000e-03	2.556103e-01	5.879037e-04	
