# Dataset name: COMPASS_Deu_Pm_Km_x_0.0423_z_0.481	
#	  PhT [GeV]   	   pred.     	    exp.     	  hes.err(%) 	  hes.err * exp 	
0	1.732051e-01	9.327167e-02	1.113800e+00	5.572276e-02	6.206401e-02	
1	2.236068e-01	8.783254e-02	1.013100e+00	5.539204e-02	5.611768e-02	
2	2.641969e-01	8.267710e-02	9.307000e-01	5.511896e-02	5.129921e-02	
3	2.998333e-01	7.784964e-02	8.857000e-01	5.478069e-02	4.851926e-02	
4	3.312099e-01	7.344042e-02	9.028000e-01	5.439823e-02	4.911073e-02	
5	3.604164e-01	6.915335e-02	7.891000e-01	5.404618e-02	4.264784e-02	
6	3.935734e-01	6.419035e-02	7.237000e-01	5.363094e-02	3.881271e-02	
7	4.272002e-01	5.926037e-02	6.808000e-01	5.306465e-02	3.612641e-02	
8	4.611941e-01	5.419047e-02	6.084000e-01	5.258414e-02	3.199219e-02	
9	4.992995e-01	4.885722e-02	5.364000e-01	5.180360e-02	2.778745e-02	
10	5.335729e-01	4.406022e-02	4.766000e-01	5.126543e-02	2.443310e-02	
11	5.699123e-01	3.941102e-02	4.354000e-01	5.048569e-02	2.198147e-02	
12	6.117189e-01	3.431065e-02	3.680000e-01	4.974301e-02	1.830543e-02	
13	6.553625e-01	2.952328e-02	3.138000e-01	4.896158e-02	1.536414e-02	
14	6.995713e-01	2.515922e-02	2.678000e-01	4.838468e-02	1.295742e-02	
15	7.469940e-01	2.104055e-02	2.071000e-01	4.817022e-02	9.976052e-03	
16	7.983733e-01	1.723915e-02	1.728000e-01	4.860962e-02	8.399743e-03	
17	8.477028e-01	1.414241e-02	1.318000e-01	5.016354e-02	6.611555e-03	
18	9.016097e-01	1.138019e-02	9.460000e-02	5.327678e-02	5.039984e-03	
19	9.649352e-01	8.765357e-03	6.730000e-02	5.949583e-02	4.004069e-03	
20	1.029466e+00	6.736652e-03	4.560000e-02	6.839583e-02	3.118850e-03	
21	1.084297e+00	5.401115e-03	3.780000e-02	7.771671e-02	2.937692e-03	
22	1.144465e+00	4.270505e-03	2.460000e-02	8.898477e-02	2.189025e-03	
23	1.202996e+00	3.410463e-03	2.000000e-02	1.006087e-01	2.012174e-03	
24	1.263883e+00	2.737838e-03	1.520000e-02	1.117942e-01	1.699272e-03	
25	1.326499e+00	2.181966e-03	1.070000e-02	1.228771e-01	1.314785e-03	
26	1.393628e+00	1.739295e-03	6.600000e-03	1.320794e-01	8.717242e-04	
27	1.473771e+00	1.315366e-03	4.700000e-03	1.418974e-01	6.669179e-04	
28	1.576103e+00	9.206799e-04	2.400000e-03	1.521552e-01	3.651725e-04	
29	1.678571e+00	6.248847e-04	1.300000e-03	1.687349e-01	2.193554e-04	
