# Dataset name: COMPASS_Deu_Pm_Km_x_0.0455_z_0.243	
#	  PhT [GeV]   	   pred.     	    exp.     	  hes.err(%) 	  hes.err * exp 	
0	2.998333e-01	4.695812e-01	4.459200e+00	9.009605e-02	4.017563e-01	
1	3.318132e-01	4.442574e-01	4.632900e+00	8.693278e-02	4.027509e-01	
2	3.598611e-01	4.193797e-01	3.786900e+00	8.409794e-02	3.184705e-01	
3	3.935734e-01	3.901606e-01	3.945100e+00	8.020996e-02	3.164363e-01	
4	4.273172e-01	3.615339e-01	3.460200e+00	7.614087e-02	2.634627e-01	
5	4.605432e-01	3.330124e-01	3.080900e+00	7.229619e-02	2.227373e-01	
6	4.984977e-01	3.016363e-01	2.460100e+00	6.814112e-02	1.676340e-01	
7	5.335729e-01	2.751695e-01	2.134700e+00	6.466627e-02	1.380431e-01	
8	5.699123e-01	2.488309e-01	1.921400e+00	6.175329e-02	1.186528e-01	
9	6.122908e-01	2.207035e-01	1.660700e+00	5.919438e-02	9.830411e-02	
10	6.550573e-01	1.951569e-01	1.284900e+00	5.751132e-02	7.389630e-02	
11	7.000000e-01	1.706643e-01	9.758000e-01	5.662016e-02	5.524995e-02	
12	7.467931e-01	1.477387e-01	7.384000e-01	5.642856e-02	4.166685e-02	
13	7.983733e-01	1.250656e-01	5.161000e-01	5.684811e-02	2.933931e-02	
14	8.475848e-01	1.055543e-01	4.832000e-01	5.780061e-02	2.792925e-02	
15	9.002222e-01	8.692514e-02	3.205000e-01	5.932868e-02	1.901484e-02	
16	9.661263e-01	6.696845e-02	2.551000e-01	6.191594e-02	1.579476e-02	
17	1.028640e+00	5.094335e-02	1.799000e-01	6.536616e-02	1.175937e-02	
18	1.083467e+00	3.855978e-02	1.605000e-01	7.015147e-02	1.125931e-02	
19	1.144028e+00	2.702801e-02	1.055000e-01	7.835285e-02	8.266226e-03	
20	1.199750e+00	1.867019e-02	6.740000e-02	9.007471e-02	6.071036e-03	
21	1.258094e+00	1.127239e-02	5.550000e-02	1.146441e-01	6.362745e-03	
22	1.328458e+00	4.139701e-03	4.840000e-02	2.258271e-01	1.093003e-02	
23	1.393126e+00	-7.609237e-04	3.560000e-02	-9.399549e-01	-3.346240e-02	
24	1.482194e+00	-5.224106e-03	2.850000e-02	-1.086527e-01	-3.096603e-03	
25	1.575119e+00	-7.847122e-03	1.270000e-02	-6.945162e-02	-8.820356e-04	
26	1.672543e+00	-8.984888e-03	9.900000e-03	-6.291246e-02	-6.228333e-04	
