# Dataset name: COMPASS_Deu_Pm_Km_x_0.1488_z_0.478	
#	  PhT [GeV]   	   pred.     	    exp.     	  hes.err(%) 	  hes.err * exp 	
0	1.732051e-01	6.415193e-02	7.835000e-01	1.595863e-01	1.250359e-01	
1	2.240536e-01	6.126510e-02	7.300000e-01	1.585483e-01	1.157402e-01	
2	2.643861e-01	5.837224e-02	6.969000e-01	1.579248e-01	1.100578e-01	
3	3.000000e-01	5.584871e-02	6.547000e-01	1.567518e-01	1.026254e-01	
4	3.316625e-01	5.332460e-02	6.376000e-01	1.559149e-01	9.941136e-02	
5	3.605551e-01	5.093221e-02	5.839000e-01	1.549271e-01	9.046193e-02	
6	3.931921e-01	4.814041e-02	5.659000e-01	1.538490e-01	8.706314e-02	
7	4.273172e-01	4.518861e-02	5.242000e-01	1.524069e-01	7.989168e-02	
8	4.610857e-01	4.221906e-02	4.823000e-01	1.510446e-01	7.284880e-02	
9	4.994998e-01	3.889412e-02	4.197000e-01	1.490877e-01	6.257211e-02	
10	5.338539e-01	3.588823e-02	3.838000e-01	1.474734e-01	5.660030e-02	
11	5.698245e-01	3.295945e-02	3.399000e-01	1.452769e-01	4.937961e-02	
12	6.113101e-01	2.956480e-02	2.852000e-01	1.430376e-01	4.079432e-02	
13	6.554388e-01	2.628024e-02	2.744000e-01	1.401104e-01	3.844628e-02	
14	6.995713e-01	2.310487e-02	2.006000e-01	1.375466e-01	2.759184e-02	
15	7.475962e-01	2.004532e-02	1.841000e-01	1.344060e-01	2.474414e-02	
16	7.988742e-01	1.703696e-02	1.367000e-01	1.318194e-01	1.801972e-02	
17	8.480566e-01	1.451001e-02	1.180000e-01	1.296948e-01	1.530398e-02	
18	9.023857e-01	1.205417e-02	9.410000e-02	1.290495e-01	1.214356e-02	
19	9.652979e-01	9.643550e-03	6.680000e-02	1.310001e-01	8.750806e-03	
20	1.027667e+00	7.688430e-03	4.890000e-02	1.371598e-01	6.707114e-03	
21	1.085726e+00	6.146565e-03	4.030000e-02	1.485112e-01	5.985000e-03	
22	1.143678e+00	4.906515e-03	2.670000e-02	1.651639e-01	4.409877e-03	
23	1.202290e+00	3.844262e-03	2.060000e-02	1.899521e-01	3.913013e-03	
24	1.263210e+00	2.955110e-03	1.590000e-02	2.242536e-01	3.565632e-03	
25	1.326122e+00	2.190615e-03	1.330000e-02	2.747648e-01	3.654372e-03	
26	1.397247e+00	1.494207e-03	7.800000e-03	3.606335e-01	2.812941e-03	
27	1.476889e+00	8.724178e-04	5.000000e-03	5.431692e-01	2.715846e-03	
28	1.573468e+00	2.871964e-04	4.000000e-03	1.397507e+00	5.590029e-03	
29	1.679613e+00	-2.048959e-04	2.600000e-03	-1.625118e+00	-4.225308e-03	
