# Dataset name: COMPASS_Deu_Pm_Km_x_0.1488_z_0.679	
#	  PhT [GeV]   	   pred.     	    exp.     	  hes.err(%) 	  hes.err * exp 	
0	1.726268e-01	1.731238e-02	1.726000e-01	2.318701e-01	4.002078e-02	
1	2.240536e-01	1.661277e-02	1.573000e-01	2.317268e-01	3.645063e-02	
2	2.651415e-01	1.594967e-02	1.631000e-01	2.315889e-01	3.777215e-02	
3	2.993326e-01	1.531015e-02	1.686000e-01	2.317178e-01	3.906762e-02	
4	3.316625e-01	1.469715e-02	1.416000e-01	2.315084e-01	3.278158e-02	
5	3.602777e-01	1.409717e-02	1.409000e-01	2.315279e-01	3.262229e-02	
6	3.940812e-01	1.338618e-02	1.378000e-01	2.313943e-01	3.188613e-02	
7	4.275512e-01	1.263355e-02	1.276000e-01	2.313727e-01	2.952316e-02	
8	4.616276e-01	1.184403e-02	1.229000e-01	2.314530e-01	2.844557e-02	
9	4.993996e-01	1.099519e-02	1.114000e-01	2.312105e-01	2.575685e-02	
10	5.335729e-01	1.019933e-02	8.650000e-02	2.312250e-01	2.000097e-02	
11	5.703508e-01	9.372039e-03	8.310000e-02	2.310320e-01	1.919876e-02	
12	6.113101e-01	8.447639e-03	8.100000e-02	2.310590e-01	1.871578e-02	
13	6.550573e-01	7.495810e-03	7.050000e-02	2.311565e-01	1.629653e-02	
14	6.997857e-01	6.577421e-03	5.750000e-02	2.310295e-01	1.328420e-02	
15	7.488658e-01	5.615595e-03	5.400000e-02	2.313731e-01	1.249415e-02	
16	7.987490e-01	4.733353e-03	4.300000e-02	2.315722e-01	9.957604e-03	
17	8.478797e-01	3.925260e-03	3.050000e-02	2.326278e-01	7.095149e-03	
18	8.994999e-01	3.181874e-03	2.920000e-02	2.340976e-01	6.835651e-03	
19	9.642614e-01	2.355696e-03	2.290000e-02	2.391003e-01	5.475397e-03	
20	1.028883e+00	1.683206e-03	1.840000e-02	2.494297e-01	4.589506e-03	
21	1.087152e+00	1.172219e-03	1.350000e-02	2.724369e-01	3.677898e-03	
22	1.140921e+00	7.902168e-04	1.120000e-02	3.200803e-01	3.584899e-03	
23	1.202248e+00	4.400489e-04	8.500000e-03	4.658950e-01	3.960108e-03	
24	1.265938e+00	1.535535e-04	6.900000e-03	1.185559e+00	8.180354e-03	
25	1.325292e+00	-3.845384e-05	5.100000e-03	-4.592272e+00	-2.342059e-02	
26	1.395134e+00	-2.111639e-04	3.200000e-03	-8.440308e-01	-2.700899e-03	
27	1.480372e+00	-3.406699e-04	2.700000e-03	-5.315336e-01	-1.435141e-03	
28	1.580633e+00	-4.253366e-04	1.500000e-03	-4.222937e-01	-6.334405e-04	
29	1.665023e+00	-4.542291e-04	8.000000e-04	-3.831020e-01	-3.064816e-04	
