# Dataset name: COMPASS_Deu_Pm_Km_x_0.2544_z_0.479	
#	  PhT [GeV]   	   pred.     	    exp.     	  hes.err(%) 	  hes.err * exp 	
0	1.729162e-01	4.434786e-02	7.534000e-01	3.488966e-01	2.628587e-01	
1	2.224859e-01	4.240332e-02	7.109000e-01	3.454787e-01	2.456008e-01	
2	2.647640e-01	4.034450e-02	7.662000e-01	3.424948e-01	2.624195e-01	
3	2.998333e-01	3.861376e-02	6.711000e-01	3.387017e-01	2.273027e-01	
4	3.316625e-01	3.686076e-02	6.805000e-01	3.355174e-01	2.283196e-01	
5	3.602777e-01	3.521324e-02	5.914000e-01	3.321131e-01	1.964117e-01	
6	3.933192e-01	3.328028e-02	5.544000e-01	3.277937e-01	1.817288e-01	
7	4.280187e-01	3.118426e-02	5.058000e-01	3.227435e-01	1.632437e-01	
8	4.609772e-01	2.917531e-02	4.990000e-01	3.174783e-01	1.584217e-01	
9	4.991994e-01	2.690727e-02	4.110000e-01	3.105031e-01	1.276168e-01	
10	5.333854e-01	2.485610e-02	3.767000e-01	3.040376e-01	1.145310e-01	
11	5.689464e-01	2.285250e-02	3.300000e-01	2.961097e-01	9.771621e-02	
12	6.124541e-01	2.041624e-02	2.711000e-01	2.862860e-01	7.761213e-02	
13	6.549809e-01	1.823329e-02	2.106000e-01	2.752651e-01	5.797083e-02	
14	6.996428e-01	1.603563e-02	1.937000e-01	2.635109e-01	5.104206e-02	
15	7.471278e-01	1.394808e-02	1.666000e-01	2.499037e-01	4.163396e-02	
16	7.971198e-01	1.193165e-02	1.105000e-01	2.361420e-01	2.609369e-02	
17	8.474668e-01	1.013972e-02	8.470000e-02	2.227291e-01	1.886516e-02	
18	9.018315e-01	8.441102e-03	6.530000e-02	2.117713e-01	1.382866e-02	
19	9.651943e-01	6.753508e-03	5.200000e-02	2.065596e-01	1.074110e-02	
20	1.027132e+00	5.390243e-03	3.510000e-02	2.147467e-01	7.537609e-03	
21	1.086646e+00	4.276793e-03	2.480000e-02	2.401738e-01	5.956311e-03	
22	1.144989e+00	3.383486e-03	2.120000e-02	2.831160e-01	6.002060e-03	
23	1.198499e+00	2.679037e-03	1.700000e-02	3.425102e-01	5.822674e-03	
24	1.265385e+00	1.953059e-03	9.800000e-03	4.485087e-01	4.395385e-03	
25	1.326085e+00	1.401133e-03	7.400000e-03	5.971511e-01	4.418918e-03	
26	1.398356e+00	8.576777e-04	5.100000e-03	9.127438e-01	4.654994e-03	
27	1.487044e+00	3.237995e-04	2.900000e-03	2.192381e+00	6.357905e-03	
28	1.574484e+00	-9.169276e-05	2.000000e-03	-6.913994e+00	-1.382799e-02	
29	1.668832e+00	-4.466045e-04	1.200000e-03	-1.244481e+00	-1.493377e-03	
