# Dataset name: COMPASS_Deu_Pp_Kp_x_0.1570_z_0.480	
#	  PhT [GeV]   	   pred.     	    exp.     	  hes.err(%) 	  hes.err * exp 	
0	1.743560e-01	5.379256e-01	1.028500e+00	5.014875e-02	5.157799e-02	
1	2.222611e-01	5.152313e-01	9.650000e-01	5.003100e-02	4.827991e-02	
2	2.643861e-01	4.911920e-01	9.129000e-01	4.990704e-02	4.556013e-02	
3	3.000000e-01	4.696248e-01	8.451000e-01	4.976005e-02	4.205221e-02	
4	3.303029e-01	4.500410e-01	9.378000e-01	4.964415e-02	4.655628e-02	
5	3.602777e-01	4.292707e-01	8.919000e-01	4.950351e-02	4.415218e-02	
6	3.928104e-01	4.058492e-01	7.455000e-01	4.933961e-02	3.678268e-02	
7	4.275512e-01	3.808971e-01	7.392000e-01	4.914387e-02	3.632715e-02	
8	4.610857e-01	3.559299e-01	7.649000e-01	4.894331e-02	3.743673e-02	
9	4.990992e-01	3.281071e-01	6.236000e-01	4.867963e-02	3.035662e-02	
10	5.333854e-01	3.028343e-01	6.305000e-01	4.844367e-02	3.054373e-02	
11	5.696490e-01	2.770767e-01	5.387000e-01	4.815049e-02	2.593867e-02	
12	6.110646e-01	2.481170e-01	4.696000e-01	4.782754e-02	2.245981e-02	
13	6.551336e-01	2.191754e-01	4.001000e-01	4.744809e-02	1.898398e-02	
14	6.999286e-01	1.911823e-01	3.495000e-01	4.709530e-02	1.645981e-02	
15	7.485319e-01	1.635000e-01	2.911000e-01	4.672689e-02	1.360220e-02	
16	7.987490e-01	1.375072e-01	2.814000e-01	4.649077e-02	1.308250e-02	
17	8.482924e-01	1.144567e-01	1.788000e-01	4.644476e-02	8.304324e-03	
18	9.030504e-01	9.230115e-02	1.667000e-01	4.689952e-02	7.818150e-03	
19	9.667471e-01	7.032578e-02	1.241000e-01	4.854102e-02	6.023941e-03	
20	1.028980e+00	5.280919e-02	8.730000e-02	5.223600e-02	4.560202e-03	
21	1.088072e+00	3.911657e-02	7.840000e-02	5.918797e-02	4.640337e-03	
22	1.146168e+00	2.831193e-02	6.210000e-02	7.129539e-02	4.427444e-03	
23	1.206234e+00	1.929317e-02	4.740000e-02	9.377667e-02	4.445014e-03	
24	1.265978e+00	1.227367e-02	4.000000e-02	1.355426e-01	5.421706e-03	
25	1.327968e+00	6.552721e-03	2.690000e-02	2.359827e-01	6.347935e-03	
26	1.395994e+00	1.806095e-03	2.460000e-02	7.930938e-01	1.951011e-02	
27	1.473194e+00	-2.165194e-03	1.180000e-02	-6.064330e-01	-7.155910e-03	
28	1.576134e+00	-5.694140e-03	9.500000e-03	-2.027650e-01	-1.926268e-03	
29	1.683300e+00	-8.012172e-03	1.060000e-02	-1.250104e-01	-1.325110e-03	
