# Dataset name: COMPASS_Deu_Pp_Kp_x_0.0771_z_0.481	
#	  PhT [GeV]   	   pred.     	    exp.     	  hes.err(%) 	  hes.err * exp 	
0	1.726268e-01	5.257301e-01	1.039500e+00	4.346520e-02	4.518208e-02	
1	2.231591e-01	5.003083e-01	1.045000e+00	4.327993e-02	4.522753e-02	
2	2.640076e-01	4.753852e-01	1.032300e+00	4.314858e-02	4.454228e-02	
3	2.998333e-01	4.522391e-01	9.400000e-01	4.296656e-02	4.038857e-02	
4	3.315117e-01	4.301888e-01	8.908000e-01	4.282589e-02	3.814930e-02	
5	3.601389e-01	4.093818e-01	8.643000e-01	4.265014e-02	3.686252e-02	
6	3.928104e-01	3.846492e-01	7.736000e-01	4.246342e-02	3.284970e-02	
7	4.275512e-01	3.584791e-01	7.552000e-01	4.220574e-02	3.187378e-02	
8	4.614109e-01	3.322697e-01	7.059000e-01	4.196429e-02	2.962259e-02	
9	4.999000e-01	3.031706e-01	6.071000e-01	4.161832e-02	2.526648e-02	
10	5.334792e-01	2.778263e-01	5.656000e-01	4.133160e-02	2.337715e-02	
11	5.688585e-01	2.522882e-01	4.873000e-01	4.095335e-02	1.995657e-02	
12	6.123724e-01	2.217123e-01	4.688000e-01	4.052881e-02	1.899990e-02	
13	6.550573e-01	1.938821e-01	3.879000e-01	4.003873e-02	1.553103e-02	
14	6.992854e-01	1.667567e-01	3.296000e-01	3.961045e-02	1.305560e-02	
15	7.473286e-01	1.402638e-01	2.763000e-01	3.914912e-02	1.081690e-02	
16	7.995624e-01	1.143188e-01	2.435000e-01	3.895239e-02	9.484908e-03	
17	8.478797e-01	9.358120e-02	2.052000e-01	3.910212e-02	8.023754e-03	
18	9.024411e-01	7.329733e-02	1.554000e-01	4.030322e-02	6.263120e-03	
19	9.659710e-01	5.375893e-02	1.201000e-01	4.389556e-02	5.271857e-03	
20	1.028154e+00	3.853953e-02	8.970000e-02	5.166350e-02	4.634216e-03	
21	1.084574e+00	2.744530e-02	7.950000e-02	6.513812e-02	5.178481e-03	
22	1.144902e+00	1.821307e-02	5.680000e-02	9.081573e-02	5.158333e-03	
23	1.203703e+00	1.120236e-02	4.220000e-02	1.396605e-01	5.893671e-03	
24	1.264199e+00	5.782075e-03	3.180000e-02	2.565330e-01	8.157749e-03	
25	1.328571e+00	1.474426e-03	2.570000e-02	9.466428e-01	2.432872e-02	
26	1.394382e+00	-1.670693e-03	2.030000e-02	-7.761380e-01	-1.575560e-02	
27	1.482869e+00	-4.499591e-03	1.130000e-02	-2.566423e-01	-2.900058e-03	
28	1.581487e+00	-6.330713e-03	9.200000e-03	-1.563862e-01	-1.438753e-03	
29	1.678392e+00	-7.322265e-03	6.600000e-03	-1.142452e-01	-7.540184e-04	
