# Dataset name: COMPASS_Deu_Pp_Kp_x_0.1488_z_0.345	
#	  PhT [GeV]   	   pred.     	    exp.     	  hes.err(%) 	  hes.err * exp 	
0	2.233831e-01	1.562989e+00	3.735900e+00	4.821285e-02	1.801184e-01	
1	2.641969e-01	1.464144e+00	3.574000e+00	4.785046e-02	1.710175e-01	
2	3.000000e-01	1.370080e+00	3.240400e+00	4.745293e-02	1.537665e-01	
3	3.315117e-01	1.281537e+00	3.047400e+00	4.707116e-02	1.434446e-01	
4	3.601389e-01	1.200442e+00	2.834400e+00	4.666613e-02	1.322705e-01	
5	3.933192e-01	1.104937e+00	2.542500e+00	4.615354e-02	1.173454e-01	
6	4.276681e-01	1.004902e+00	2.313400e+00	4.557800e-02	1.054401e-01	
7	4.613025e-01	9.100194e-01	2.045700e+00	4.495100e-02	9.195626e-02	
8	4.992995e-01	8.051176e-01	1.778600e+00	4.422125e-02	7.865192e-02	
9	5.335729e-01	7.162778e-01	1.561300e+00	4.351758e-02	6.794400e-02	
10	5.694734e-01	6.278040e-01	1.334100e+00	4.281351e-02	5.711751e-02	
11	6.117189e-01	5.330262e-01	1.121000e+00	4.203520e-02	4.712146e-02	
12	6.549046e-01	4.458560e-01	9.355000e-01	4.145951e-02	3.878537e-02	
13	6.992138e-01	3.664091e-01	7.425000e-01	4.130642e-02	3.067002e-02	
14	7.476630e-01	2.918794e-01	6.091000e-01	4.201045e-02	2.558857e-02	
15	7.984360e-01	2.258193e-01	4.524000e-01	4.446161e-02	2.011443e-02	
16	8.475848e-01	1.725861e-01	3.184000e-01	4.943609e-02	1.574045e-02	
17	9.014433e-01	1.249639e-01	2.553000e-01	5.945649e-02	1.517924e-02	
18	9.642095e-01	8.113679e-02	1.794000e-01	8.146031e-02	1.461398e-02	
19	1.027959e+00	4.736786e-02	1.275000e-01	1.270943e-01	1.620453e-02	
20	1.085587e+00	2.415203e-02	7.850000e-02	2.303851e-01	1.808523e-02	
21	1.143678e+00	6.570028e-03	6.460000e-02	7.787432e-01	5.030681e-02	
22	1.202830e+00	-6.849967e-03	4.080000e-02	-6.800842e-01	-2.774743e-02	
23	1.262656e+00	-1.664446e-02	3.360000e-02	-2.519345e-01	-8.464999e-03	
24	1.325255e+00	-2.353342e-02	2.160000e-02	-1.577487e-01	-3.407372e-03	
25	1.396173e+00	-2.861215e-02	1.620000e-02	-1.121235e-01	-1.816400e-03	
26	1.481655e+00	-3.154669e-02	1.050000e-02	-8.446950e-02	-8.869297e-04	
27	1.578829e+00	-3.202919e-02	6.900000e-03	-6.721297e-02	-4.637695e-04	
28	1.676484e+00	-3.031042e-02	3.900000e-03	-5.726455e-02	-2.233317e-04	
