# Dataset name: COMPASS_Deu_Pp_Kp_x_0.0752_z_0.245	
#	  PhT [GeV]   	   pred.     	    exp.     	  hes.err(%) 	  hes.err * exp 	
0	3.602777e-01	2.381837e+00	5.701900e+00	3.903896e-02	2.225963e-01	
1	3.934463e-01	2.124160e+00	5.148400e+00	3.837685e-02	1.975794e-01	
2	4.276681e-01	1.865309e+00	4.565300e+00	3.778308e-02	1.724911e-01	
3	4.609772e-01	1.626155e+00	3.930200e+00	3.744295e-02	1.471583e-01	
4	4.991994e-01	1.376313e+00	3.317500e+00	3.740326e-02	1.240853e-01	
5	5.335729e-01	1.177226e+00	2.772300e+00	3.782795e-02	1.048704e-01	
6	5.692978e-01	9.949857e-01	2.237400e+00	3.889102e-02	8.701476e-02	
7	6.115554e-01	8.119339e-01	1.813500e+00	4.084855e-02	7.407884e-02	
8	6.547519e-01	6.567740e-01	1.406400e+00	4.359013e-02	6.130515e-02	
9	6.991423e-01	5.253082e-01	1.079600e+00	4.705168e-02	5.079700e-02	
10	7.466592e-01	4.103385e-01	7.705000e-01	5.126171e-02	3.949715e-02	
11	7.988116e-01	3.082567e-01	5.631000e-01	5.649307e-02	3.181125e-02	
12	8.476438e-01	2.308256e-01	4.300000e-01	6.221059e-02	2.675055e-02	
13	9.009440e-01	1.629421e-01	2.924000e-01	6.967951e-02	2.037429e-02	
14	9.652461e-01	9.987326e-02	2.038000e-01	8.241283e-02	1.679573e-02	
15	1.027910e+00	5.467923e-02	1.332000e-01	1.048963e-01	1.397219e-02	
16	1.084804e+00	2.436987e-02	9.110000e-02	1.625508e-01	1.480838e-02	
17	1.143110e+00	2.427547e-03	6.760000e-02	1.094375e+00	7.397978e-02	
18	1.202082e+00	-1.157243e-02	4.820000e-02	-1.676646e-01	-8.081435e-03	
19	1.261864e+00	-2.025523e-02	3.460000e-02	-8.573063e-02	-2.966280e-03	
20	1.327630e+00	-2.490947e-02	2.690000e-02	-7.275299e-02	-1.957055e-03	
21	1.396388e+00	-2.548164e-02	1.790000e-02	-7.467508e-02	-1.336684e-03	
22	1.482093e+00	-2.259391e-02	1.150000e-02	-8.236301e-02	-9.471746e-04	
23	1.577625e+00	-1.720317e-02	7.000000e-03	-9.617991e-02	-6.732593e-04	
24	1.681160e+00	-1.081960e-02	4.000000e-03	-1.269206e-01	-5.076826e-04	
