# Dataset name: COMPASS_Deu_Pp_Kp_x_0.1326_z_0.682	
#	  PhT [GeV]   	   pred.     	    exp.     	  hes.err(%) 	  hes.err * exp 	
0	1.729162e-01	2.241528e-01	4.700000e-01	5.911794e-02	2.778543e-02	
1	2.233831e-01	2.137164e-01	4.380000e-01	5.908629e-02	2.587980e-02	
2	2.647640e-01	2.036979e-01	4.240000e-01	5.905732e-02	2.504031e-02	
3	2.994996e-01	1.943460e-01	4.091000e-01	5.903760e-02	2.415228e-02	
4	3.315117e-01	1.851876e-01	3.899000e-01	5.900118e-02	2.300456e-02	
5	3.608324e-01	1.763428e-01	3.708000e-01	5.897439e-02	2.186770e-02	
6	3.937004e-01	1.661461e-01	3.425000e-01	5.893187e-02	2.018417e-02	
7	4.280187e-01	1.551492e-01	3.200000e-01	5.888920e-02	1.884455e-02	
8	4.610857e-01	1.444138e-01	2.924000e-01	5.884445e-02	1.720612e-02	
9	4.995998e-01	1.319388e-01	2.590000e-01	5.877012e-02	1.522146e-02	
10	5.335729e-01	1.209916e-01	2.396000e-01	5.870799e-02	1.406643e-02	
11	5.694734e-01	1.096871e-01	2.273000e-01	5.862042e-02	1.332442e-02	
12	6.124541e-01	9.654529e-02	1.815000e-01	5.851361e-02	1.062022e-02	
13	6.552099e-01	8.409534e-02	1.624000e-01	5.839176e-02	9.482821e-03	
14	6.996428e-01	7.200391e-02	1.416000e-01	5.822996e-02	8.245363e-03	
15	7.470609e-01	6.005363e-02	1.134000e-01	5.805046e-02	6.582922e-03	
16	7.980601e-01	4.849502e-02	9.540000e-02	5.781792e-02	5.515829e-03	
17	8.484103e-01	3.835200e-02	8.000000e-02	5.760446e-02	4.608357e-03	
18	9.010549e-01	2.916810e-02	6.410000e-02	5.742181e-02	3.680738e-03	
19	9.647279e-01	1.984006e-02	4.780000e-02	5.764605e-02	2.755481e-03	
20	1.026840e+00	1.254252e-02	3.800000e-02	5.966969e-02	2.267448e-03	
21	1.083790e+00	7.201001e-03	2.500000e-02	6.905155e-02	1.726289e-03	
22	1.142147e+00	2.937069e-03	2.120000e-02	1.260864e-01	2.673032e-03	
23	1.203287e+00	-4.561455e-04	1.300000e-02	-8.074671e-01	-1.049707e-02	
24	1.260357e+00	-2.786771e-03	1.000000e-02	-1.506579e-01	-1.506579e-03	
25	1.328458e+00	-4.705941e-03	5.600000e-03	-1.024448e-01	-5.736909e-04	
26	1.395099e+00	-5.912543e-03	5.700000e-03	-8.850179e-02	-5.044602e-04	
27	1.478817e+00	-6.715473e-03	2.400000e-03	-8.122689e-02	-1.949445e-04	
28	1.578005e+00	-7.002419e-03	1.100000e-03	-7.707005e-02	-8.477705e-05	
29	1.681131e+00	-6.849101e-03	3.000000e-04	-7.467074e-02	-2.240122e-05	
