# Dataset name: ATLAS_8TeV_y_1.2_1.6	
#	  qT [GeV]   	   pred.     	    exp.     	  hes.err(%) 	  hes.err * exp 	
0	1.000000e+00	7.385347e-03	2.658000e-02	1.631157e-02	4.335616e-04	
1	3.000000e+00	1.599648e-02	5.536000e-02	1.143813e-02	6.332148e-04	
2	5.000000e+00	1.715715e-02	5.529000e-02	7.136653e-03	3.945855e-04	
3	7.000000e+00	1.530363e-02	4.816000e-02	4.171175e-03	2.008838e-04	
4	9.000000e+00	1.308863e-02	4.066000e-02	2.676477e-03	1.088256e-04	
5	1.150000e+01	1.064688e-02	3.270000e-02	2.632957e-03	8.609768e-05	
6	1.450000e+01	8.302409e-03	2.534000e-02	3.987785e-03	1.010505e-04	
7	1.800000e+01	6.328717e-03	1.917000e-02	5.369336e-03	1.029302e-04	
8	2.250000e+01	4.503803e-03	1.374000e-02	7.412195e-03	1.018436e-04	
9	2.750000e+01	3.209608e-03	9.915000e-03	8.852902e-03	8.777652e-05	
10	3.350000e+01	2.189567e-03	6.918000e-03	1.020405e-02	7.059159e-05	
11	4.100000e+01	1.277067e-03	4.606000e-03	1.311253e-02	6.039632e-05	
12	5.000000e+01	5.842157e-04	2.978000e-03	1.836263e-02	5.468391e-05	
13	6.000000e+01	2.010989e-04	1.939000e-03	2.189081e-02	4.244628e-05	
14	7.000000e+01	-2.665076e-05	1.284000e-03	-3.064287e-02	-3.934545e-05	
15	8.000000e+01	-1.585350e-04	8.786000e-04	-4.562390e-02	-4.008516e-05	
16	9.500000e+01	0.000000e+00	4.959000e-04	-nan	-nan	
17	1.275000e+02	0.000000e+00	1.936000e-04	-nan	-nan	
18	1.750000e+02	0.000000e+00	5.363000e-05	-nan	-nan	
19	5.500000e+02	0.000000e+00	2.099000e-06	-nan	-nan	
