# Dataset name: ATLAS_8TeV_y_0.8_1.2	
#	  qT [GeV]   	   pred.     	    exp.     	  hes.err(%) 	  hes.err * exp 	
0	1.000000e+00	7.534673e-03	2.711000e-02	1.843056e-02	4.996525e-04	
1	3.000000e+00	1.638300e-02	5.611000e-02	1.321151e-02	7.412976e-04	
2	5.000000e+00	1.754648e-02	5.691000e-02	8.250130e-03	4.695149e-04	
3	7.000000e+00	1.558118e-02	4.906000e-02	4.642655e-03	2.277687e-04	
4	9.000000e+00	1.323025e-02	4.096000e-02	2.730276e-03	1.118321e-04	
5	1.150000e+01	1.064509e-02	3.244000e-02	2.726994e-03	8.846368e-05	
6	1.450000e+01	8.229647e-03	2.519000e-02	4.472107e-03	1.126524e-04	
7	1.800000e+01	6.242229e-03	1.888000e-02	6.178425e-03	1.166487e-04	
8	2.250000e+01	4.425464e-03	1.355000e-02	8.546992e-03	1.158117e-04	
9	2.750000e+01	3.140876e-03	9.693000e-03	1.027147e-02	9.956133e-05	
10	3.350000e+01	2.138523e-03	6.777000e-03	1.185159e-02	8.031824e-05	
11	4.100000e+01	1.259290e-03	4.544000e-03	1.510013e-02	6.861500e-05	
12	5.000000e+01	6.214956e-04	2.940000e-03	2.103015e-02	6.182863e-05	
13	6.000000e+01	2.865335e-04	1.907000e-03	2.466554e-02	4.703718e-05	
14	7.000000e+01	5.218927e-05	1.249000e-03	3.384254e-02	4.226933e-05	
15	8.000000e+01	-1.003695e-04	8.337000e-04	-4.906998e-02	-4.090964e-05	
16	9.500000e+01	0.000000e+00	4.832000e-04	-nan	-nan	
17	1.275000e+02	0.000000e+00	1.831000e-04	-nan	-nan	
18	1.750000e+02	0.000000e+00	5.182000e-05	-nan	-nan	
19	5.500000e+02	0.000000e+00	2.061000e-06	-nan	-nan	
