# Dataset name: COMPASS_Deu_Pp_Kp_x_0.2544_z_0.482	
#	  PhT [GeV]   	   pred.     	    exp.     	  hes.err(%) 	  hes.err * exp 	
0	1.726268e-01	2.092484e-01	1.635200e+00	9.095368e-03	1.487275e-02	
1	2.236068e-01	1.983143e-01	1.642400e+00	9.051017e-03	1.486539e-02	
2	2.649528e-01	1.877242e-01	1.428400e+00	9.021047e-03	1.288566e-02	
3	2.994996e-01	1.783133e-01	1.321000e+00	8.978201e-03	1.186020e-02	
4	3.319639e-01	1.688535e-01	1.361200e+00	8.943358e-03	1.217370e-02	
5	3.602777e-01	1.601896e-01	1.167000e+00	8.900832e-03	1.038727e-02	
6	3.937004e-01	1.496659e-01	1.066300e+00	8.853079e-03	9.440039e-03	
7	4.275512e-01	1.390095e-01	1.070200e+00	8.789999e-03	9.407057e-03	
8	4.616276e-01	1.281056e-01	8.482000e-01	8.725962e-03	7.401361e-03	
9	4.994998e-01	1.162505e-01	8.531000e-01	8.637333e-03	7.368509e-03	
10	5.336666e-01	1.056653e-01	7.457000e-01	8.554757e-03	6.379282e-03	
11	5.692978e-01	9.512177e-02	6.104000e-01	8.450524e-03	5.158200e-03	
12	6.115554e-01	8.305063e-02	5.111000e-01	8.321330e-03	4.253032e-03	
13	6.552862e-01	7.149902e-02	4.137000e-01	8.166235e-03	3.378371e-03	
14	7.002857e-01	6.045220e-02	3.766000e-01	7.996590e-03	3.011516e-03	
15	7.462573e-01	5.034918e-02	2.928000e-01	7.817569e-03	2.288984e-03	
16	7.996874e-01	3.988037e-02	2.175000e-01	7.626478e-03	1.658759e-03	
17	8.476438e-01	3.183087e-02	1.941000e-01	7.548326e-03	1.465130e-03	
18	9.016651e-01	2.407340e-02	1.413000e-01	7.678352e-03	1.084951e-03	
19	9.645206e-01	1.666777e-02	9.660000e-02	8.677302e-03	8.382274e-04	
20	1.027619e+00	1.084842e-02	6.390000e-02	1.167445e-02	7.459975e-04	
21	1.086462e+00	6.593809e-03	4.890000e-02	1.847140e-02	9.032513e-04	
22	1.140877e+00	3.564935e-03	2.950000e-02	3.451471e-02	1.018184e-03	
23	1.201041e+00	9.817390e-04	2.080000e-02	1.266856e-01	2.635060e-03	
24	1.255627e+00	-7.561292e-04	1.230000e-02	-1.651266e-01	-2.031057e-03	
25	1.325858e+00	-2.375347e-03	1.490000e-02	-5.168764e-02	-7.701458e-04	
26	1.393700e+00	-3.420132e-03	4.900000e-03	-3.463386e-02	-1.697059e-04	
27	1.480304e+00	-4.242588e-03	5.100000e-03	-2.603609e-02	-1.327841e-04	
28	1.572355e+00	-4.682922e-03	1.900000e-03	-2.134438e-02	-4.055432e-05	
29	1.674366e+00	-4.859651e-03	1.700000e-03	-1.797964e-02	-3.056540e-05	
