# Dataset name: COMPASS_Deu_Pp_Kp_x_0.1570_z_0.345	
#	  PhT [GeV]   	   pred.     	    exp.     	  hes.err(%) 	  hes.err * exp 	
0	2.247221e-01	3.437226e-01	2.953000e+00	1.418847e-02	4.189856e-02	
1	2.658947e-01	3.262620e-01	2.466600e+00	1.396926e-02	3.445658e-02	
2	2.993326e-01	3.110836e-01	3.075700e+00	1.374659e-02	4.228039e-02	
3	3.312099e-01	2.950597e-01	2.342900e+00	1.353493e-02	3.171099e-02	
4	3.608324e-01	2.803928e-01	2.345100e+00	1.328299e-02	3.114993e-02	
5	3.935734e-01	2.636553e-01	2.300900e+00	1.298742e-02	2.988275e-02	
6	4.281355e-01	2.452976e-01	2.006800e+00	1.265435e-02	2.539474e-02	
7	4.610857e-01	2.284090e-01	2.010900e+00	1.228789e-02	2.470971e-02	
8	5.007994e-01	2.077715e-01	1.787100e+00	1.183176e-02	2.114455e-02	
9	5.338539e-01	1.916253e-01	1.564900e+00	1.140071e-02	1.784097e-02	
10	5.694734e-01	1.744082e-01	1.433800e+00	1.092619e-02	1.566597e-02	
11	6.117189e-01	1.555403e-01	1.124800e+00	1.031826e-02	1.160598e-02	
12	6.548282e-01	1.375550e-01	1.059200e+00	9.684696e-03	1.025803e-02	
13	6.987131e-01	1.205911e-01	8.163000e-01	9.037997e-03	7.377717e-03	
14	7.481978e-01	1.035398e-01	6.143000e-01	8.359712e-03	5.135371e-03	
15	7.974961e-01	8.826176e-02	4.740000e-01	7.790447e-03	3.692672e-03	
16	8.469947e-01	7.492736e-02	3.924000e-01	7.456294e-03	2.925850e-03	
17	9.013324e-01	6.211356e-02	2.880000e-01	7.481742e-03	2.154742e-03	
18	9.634833e-01	4.958453e-02	2.597000e-01	8.175593e-03	2.123201e-03	
19	1.029126e+00	3.856222e-02	2.026000e-01	9.832659e-03	1.992097e-03	
20	1.085587e+00	3.056220e-02	1.232000e-01	1.205233e-02	1.484847e-03	
21	1.144159e+00	2.358748e-02	1.057000e-01	1.531450e-02	1.618743e-03	
22	1.203079e+00	1.760030e-02	6.560000e-02	1.989520e-02	1.305125e-03	
23	1.264753e+00	1.236382e-02	4.950000e-02	2.725352e-02	1.349049e-03	
24	1.327968e+00	7.975963e-03	3.330000e-02	3.989369e-02	1.328460e-03	
25	1.392731e+00	4.199547e-03	3.190000e-02	7.026307e-02	2.241392e-03	
26	1.479899e+00	3.076830e-04	2.200000e-02	8.589983e-01	1.889796e-02	
27	1.575976e+00	-2.775359e-03	1.320000e-02	-8.225776e-02	-1.085802e-03	
28	1.681517e+00	-4.923386e-03	9.800000e-03	-3.814558e-02	-3.738267e-04	
