# Dataset name: COMPASS_Deu_Pp_Kp_x_0.1488_z_0.681	
#	  PhT [GeV]   	   pred.     	    exp.     	  hes.err(%) 	  hes.err * exp 	
0	1.729162e-01	5.999753e-02	3.553000e-01	1.764254e-02	6.268394e-03	
1	2.236068e-01	5.760000e-02	3.579000e-01	1.758643e-02	6.294183e-03	
2	2.636285e-01	5.536670e-02	3.461000e-01	1.753219e-02	6.067889e-03	
3	3.000000e-01	5.307441e-02	2.925000e-01	1.749065e-02	5.116016e-03	
4	3.312099e-01	5.099958e-02	3.123000e-01	1.742528e-02	5.441916e-03	
5	3.605551e-01	4.889922e-02	3.036000e-01	1.737402e-02	5.274754e-03	
6	3.939543e-01	4.646336e-02	2.654000e-01	1.729402e-02	4.589833e-03	
7	4.275512e-01	4.387303e-02	2.512000e-01	1.721372e-02	4.324085e-03	
8	4.605432e-01	4.127191e-02	2.477000e-01	1.712719e-02	4.242404e-03	
9	4.993996e-01	3.822645e-02	2.232000e-01	1.699046e-02	3.792270e-03	
10	5.339476e-01	3.547046e-02	1.972000e-01	1.686567e-02	3.325910e-03	
11	5.695612e-01	3.268816e-02	1.852000e-01	1.670267e-02	3.093334e-03	
12	6.117189e-01	2.942163e-02	1.749000e-01	1.649951e-02	2.885764e-03	
13	6.554388e-01	2.613733e-02	1.446000e-01	1.624733e-02	2.349364e-03	
14	6.995713e-01	2.300990e-02	1.229000e-01	1.592998e-02	1.957795e-03	
15	7.477968e-01	1.975994e-02	1.118000e-01	1.552968e-02	1.736218e-03	
16	7.991871e-01	1.659362e-02	9.140000e-02	1.498755e-02	1.369862e-03	
17	8.475848e-01	1.385415e-02	8.700000e-02	1.437738e-02	1.250832e-03	
18	9.007774e-01	1.118462e-02	6.160000e-02	1.352550e-02	8.331705e-04	
19	9.666437e-01	8.299816e-03	5.280000e-02	1.221073e-02	6.447268e-04	
20	1.027765e+00	6.081857e-03	4.010000e-02	1.076248e-02	4.315753e-04	
21	1.087198e+00	4.274286e-03	3.410000e-02	9.794832e-03	3.340038e-04	
22	1.143022e+00	2.894922e-03	2.530000e-02	1.179855e-02	2.985033e-04	
23	1.202456e+00	1.705370e-03	1.860000e-02	2.306214e-02	4.289559e-04	
24	1.263487e+00	7.428875e-04	1.430000e-02	6.526914e-02	9.333487e-04	
25	1.328909e+00	-2.009154e-05	1.150000e-02	-2.849440e+00	-3.276855e-02	
26	1.395600e+00	-5.961336e-04	8.300000e-03	-1.061567e-01	-8.811006e-04	
27	1.479257e+00	-1.066936e-03	5.400000e-03	-6.308710e-02	-3.406703e-04	
28	1.577244e+00	-1.380590e-03	3.000000e-03	-4.914290e-02	-1.474287e-04	
29	1.677260e+00	-1.523240e-03	2.500000e-03	-4.305615e-02	-1.076404e-04	
