# Dataset name: COMPASS_Deu_Pp_Kp_x_0.1326_z_0.482	
#	  PhT [GeV]   	   pred.     	    exp.     	  hes.err(%) 	  hes.err * exp 	
0	1.726268e-01	1.872207e-01	1.646100e+00	1.824031e-02	3.002538e-02	
1	2.233831e-01	1.770339e-01	1.532700e+00	1.811387e-02	2.776314e-02	
2	2.641969e-01	1.671897e-01	1.489700e+00	1.801851e-02	2.684218e-02	
3	2.998333e-01	1.580812e-01	1.340600e+00	1.789095e-02	2.398461e-02	
4	3.318132e-01	1.492652e-01	1.306000e+00	1.778248e-02	2.322392e-02	
5	3.601389e-01	1.412587e-01	1.125300e+00	1.765184e-02	1.986361e-02	
6	3.935734e-01	1.314488e-01	1.114800e+00	1.750105e-02	1.951017e-02	
7	4.276681e-01	1.215360e-01	1.010000e+00	1.730142e-02	1.747444e-02	
8	4.611941e-01	1.116405e-01	9.542000e-01	1.709699e-02	1.631395e-02	
9	4.992995e-01	1.007451e-01	8.124000e-01	1.680850e-02	1.365523e-02	
10	5.339476e-01	9.097341e-02	7.097000e-01	1.652558e-02	1.172821e-02	
11	5.698245e-01	8.141258e-02	6.479000e-01	1.616881e-02	1.047577e-02	
12	6.118006e-01	7.066709e-02	5.327000e-01	1.571187e-02	8.369714e-03	
13	6.549809e-01	6.056813e-02	4.482000e-01	1.514201e-02	6.786649e-03	
14	6.989993e-01	5.105198e-02	3.728000e-01	1.448439e-02	5.399779e-03	
15	7.473286e-01	4.184479e-02	2.990000e-01	1.364024e-02	4.078432e-03	
16	7.985612e-01	3.323010e-02	2.410000e-01	1.264568e-02	3.047609e-03	
17	8.472308e-01	2.632925e-02	1.837000e-01	1.171804e-02	2.152605e-03	
18	9.003888e-01	1.990596e-02	1.368000e-01	1.102536e-02	1.508269e-03	
19	9.645206e-01	1.376158e-02	9.820000e-02	1.213444e-02	1.191602e-03	
20	1.027667e+00	9.099801e-03	7.320000e-02	1.777898e-02	1.301422e-03	
21	1.084435e+00	5.859839e-03	4.980000e-02	2.945486e-02	1.466852e-03	
22	1.142541e+00	3.373152e-03	3.610000e-02	5.500351e-02	1.985627e-03	
23	1.201374e+00	1.481066e-03	2.390000e-02	1.301843e-01	3.111406e-03	
24	1.261705e+00	9.780516e-05	1.600000e-02	1.989493e+00	3.183190e-02	
25	1.328383e+00	-9.707120e-04	1.230000e-02	-1.956445e-01	-2.406427e-03	
26	1.392013e+00	-1.640150e-03	7.900000e-03	-1.103370e-01	-8.716624e-04	
27	1.481621e+00	-2.193019e-03	4.500000e-03	-7.458075e-02	-3.356134e-04	
28	1.571496e+00	-2.447085e-03	2.700000e-03	-5.846668e-02	-1.578600e-04	
29	1.686179e+00	-2.522619e-03	1.200000e-03	-4.601867e-02	-5.522240e-05	
