# Dataset name: COMPASS_Deu_Pm_Km_x_0.1488_z_0.344	
#	  PhT [GeV]   	   pred.     	    exp.     	  hes.err(%) 	  hes.err * exp 	
0	2.233831e-01	1.233896e+00	2.344700e+00	3.486928e-03	8.175800e-03	
1	2.645751e-01	1.155379e+00	2.213000e+00	3.413948e-03	7.555067e-03	
2	2.998333e-01	1.082568e+00	2.121300e+00	3.336843e-03	7.078444e-03	
3	3.313608e-01	1.012855e+00	1.979600e+00	3.271847e-03	6.476948e-03	
4	3.606938e-01	9.474723e-01	1.768000e+00	3.189441e-03	5.638932e-03	
5	3.933192e-01	8.737230e-01	1.650200e+00	3.095143e-03	5.107604e-03	
6	4.277850e-01	7.946148e-01	1.514900e+00	2.999278e-03	4.543606e-03	
7	4.610857e-01	7.207453e-01	1.349400e+00	2.896817e-03	3.908965e-03	
8	4.995998e-01	6.369992e-01	1.230100e+00	2.794985e-03	3.438111e-03	
9	5.331979e-01	5.685154e-01	1.132100e+00	2.721786e-03	3.081334e-03	
10	5.696490e-01	4.977364e-01	9.568000e-01	2.683675e-03	2.567740e-03	
11	6.117189e-01	4.234604e-01	7.980000e-01	2.738201e-03	2.185084e-03	
12	6.552862e-01	3.542643e-01	6.354000e-01	2.955181e-03	1.877722e-03	
13	6.991423e-01	2.922374e-01	5.102000e-01	3.379286e-03	1.724112e-03	
14	7.474624e-01	2.335861e-01	4.114000e-01	4.175925e-03	1.717976e-03	
15	7.989368e-01	1.806815e-01	3.329000e-01	5.408313e-03	1.800427e-03	
16	8.468766e-01	1.395832e-01	2.565000e-01	7.074543e-03	1.814620e-03	
17	9.013324e-01	1.013203e-01	1.817000e-01	9.734856e-03	1.768823e-03	
18	9.645206e-01	6.621603e-02	1.299000e-01	1.454883e-02	1.889893e-03	
19	1.026499e+00	3.991482e-02	8.940000e-02	2.311918e-02	2.066854e-03	
20	1.082959e+00	2.146450e-02	6.180000e-02	4.053328e-02	2.504957e-03	
21	1.145557e+00	6.127750e-03	4.840000e-02	1.309992e-01	6.340362e-03	
22	1.200916e+00	-4.108006e-03	3.310000e-02	-1.784926e-01	-5.908105e-03	
23	1.263329e+00	-1.252792e-02	2.310000e-02	-5.220112e-02	-1.205846e-03	
24	1.329323e+00	-1.846210e-02	1.630000e-02	-3.080620e-02	-5.021410e-04	
25	1.393162e+00	-2.234344e-02	1.140000e-02	-2.172002e-02	-2.476082e-04	
26	1.479764e+00	-2.502946e-02	8.000000e-03	-1.535469e-02	-1.228375e-04	
27	1.577720e+00	-2.564556e-02	4.600000e-03	-1.106231e-02	-5.088661e-05	
28	1.668083e+00	-2.456059e-02	2.800000e-03	-8.263602e-03	-2.313808e-05	
