# Dataset name: COMPASS_Deu_Pm_Km_x_0.0260_z_0.243	
#	  PhT [GeV]   	   pred.     	    exp.     	  hes.err(%) 	  hes.err * exp 	
0	3.315117e-01	2.334675e+00	4.614000e+00	6.552606e-03	3.023372e-02	
1	3.604164e-01	2.147776e+00	4.403400e+00	6.693238e-03	2.947300e-02	
2	3.934463e-01	1.936031e+00	3.839400e+00	7.013059e-03	2.692594e-02	
3	4.272002e-01	1.725982e+00	3.535500e+00	7.523114e-03	2.659797e-02	
4	4.610857e-01	1.524452e+00	2.979000e+00	8.184029e-03	2.438022e-02	
5	4.987986e-01	1.318856e+00	2.579100e+00	9.139807e-03	2.357248e-02	
6	5.337603e-01	1.149636e+00	2.235300e+00	1.023646e-02	2.288157e-02	
7	5.695612e-01	9.949395e-01	1.928500e+00	1.144262e-02	2.206709e-02	
8	6.120458e-01	8.367182e-01	1.450800e+00	1.301109e-02	1.887650e-02	
9	6.546755e-01	7.022324e-01	1.254600e+00	1.466676e-02	1.840092e-02	
10	6.994283e-01	5.823070e-01	9.411000e-01	1.642823e-02	1.546061e-02	
11	7.475293e-01	4.735517e-01	7.790000e-01	1.837360e-02	1.431303e-02	
12	7.983107e-01	3.769952e-01	5.765000e-01	2.050973e-02	1.182386e-02	
13	8.474668e-01	2.978775e-01	4.492000e-01	2.270594e-02	1.019951e-02	
14	9.009995e-01	2.257227e-01	3.201000e-01	2.540338e-02	8.131623e-03	
15	9.664885e-01	1.549429e-01	2.397000e-01	2.946675e-02	7.063180e-03	
16	1.028154e+00	1.029617e-01	1.700000e-01	3.445824e-02	5.857901e-03	
17	1.085587e+00	6.441765e-02	1.278000e-01	4.125353e-02	5.272201e-03	
18	1.142235e+00	3.510473e-02	9.350000e-02	5.354014e-02	5.006003e-03	
19	1.203578e+00	1.275079e-02	7.190000e-02	9.537315e-02	6.857330e-03	
20	1.263645e+00	-2.906105e-03	5.040000e-02	-2.277698e-01	-1.147960e-02	
21	1.325104e+00	-1.403951e-02	4.030000e-02	-2.029032e-02	-8.176999e-04	
22	1.396889e+00	-2.133560e-02	2.810000e-02	-1.948078e-02	-5.474098e-04	
23	1.477295e+00	-2.407091e-02	2.050000e-02	-2.817312e-02	-5.775490e-04	
24	1.580253e+00	-2.324332e-02	1.290000e-02	-3.804466e-02	-4.907761e-04	
25	1.677439e+00	-1.973869e-02	8.700000e-03	-4.693938e-02	-4.083726e-04	
