# Dataset name: COMPASS_Deu_Pm_Km_x_0.0427_z_0.479	
#	  PhT [GeV]   	   pred.     	    exp.     	  hes.err(%) 	  hes.err * exp 	
0	1.726268e-01	4.462159e-01	8.733000e-01	9.510017e-03	8.305098e-03	
1	2.231591e-01	4.220451e-01	7.737000e-01	9.364636e-03	7.245419e-03	
2	2.640076e-01	3.984425e-01	7.791000e-01	9.275237e-03	7.226337e-03	
3	3.003331e-01	3.763028e-01	7.445000e-01	9.131091e-03	6.798097e-03	
4	3.310589e-01	3.561325e-01	6.918000e-01	9.025047e-03	6.243528e-03	
5	3.604164e-01	3.363845e-01	6.578000e-01	8.882246e-03	5.842741e-03	
6	3.930649e-01	3.137007e-01	6.136000e-01	8.740495e-03	5.363168e-03	
7	4.276681e-01	2.896798e-01	5.591000e-01	8.537771e-03	4.773468e-03	
8	4.609772e-01	2.662736e-01	5.373000e-01	8.358397e-03	4.490967e-03	
9	4.994998e-01	2.401809e-01	4.874000e-01	8.097975e-03	3.946953e-03	
10	5.339476e-01	2.171057e-01	4.021000e-01	7.884126e-03	3.170207e-03	
11	5.697368e-01	1.945693e-01	3.858000e-01	7.632902e-03	2.944774e-03	
12	6.119640e-01	1.689714e-01	3.137000e-01	7.390235e-03	2.318317e-03	
13	6.552862e-01	1.450952e-01	2.924000e-01	7.210017e-03	2.108209e-03	
14	6.992854e-01	1.226504e-01	2.463000e-01	7.204301e-03	1.774419e-03	
15	7.476630e-01	1.010063e-01	2.042000e-01	7.597690e-03	1.551448e-03	
16	7.993748e-01	8.067365e-02	1.672000e-01	8.650387e-03	1.446345e-03	
17	8.484692e-01	6.434251e-02	1.306000e-01	1.060524e-02	1.385044e-03	
18	9.002777e-01	4.976973e-02	1.095000e-01	1.374410e-02	1.504979e-03	
19	9.647798e-01	3.527250e-02	8.300000e-02	1.988994e-02	1.650865e-03	
20	1.027278e+00	2.451171e-02	6.600000e-02	2.904187e-02	1.916764e-03	
21	1.084804e+00	1.684066e-02	4.770000e-02	4.188389e-02	1.997861e-03	
22	1.142454e+00	1.109596e-02	3.590000e-02	6.227462e-02	2.235659e-03	
23	1.203412e+00	6.525252e-03	2.720000e-02	1.013285e-01	2.756135e-03	
24	1.262537e+00	3.367857e-03	2.140000e-02	1.857685e-01	3.975446e-03	
25	1.327328e+00	8.979140e-04	1.480000e-02	6.436926e-01	9.526650e-03	
26	1.394633e+00	-8.100775e-04	1.150000e-02	-6.473268e-01	-7.444258e-03	
27	1.478817e+00	-2.126199e-03	7.400000e-03	-2.137041e-01	-1.581410e-03	
28	1.580000e+00	-2.930014e-03	4.900000e-03	-1.266344e-01	-6.205086e-04	
29	1.674455e+00	-3.262593e-03	3.600000e-03	-9.099490e-02	-3.275816e-04	
