# Dataset name: COMPASS_Deu_Pm_Km_x_0.0170_z_0.344	
#	  PhT [GeV]   	   pred.     	    exp.     	  hes.err(%) 	  hes.err * exp 	
0	1.723369e-01	1.247719e+00	2.265700e+00	1.013078e-02	2.295330e-02	
1	2.240536e-01	1.167053e+00	2.273900e+00	1.004007e-02	2.283012e-02	
2	2.645751e-01	1.094403e+00	2.035200e+00	9.968543e-03	2.028798e-02	
3	3.001666e-01	1.024936e+00	1.995100e+00	9.923280e-03	1.979794e-02	
4	3.312099e-01	9.581994e-01	1.908900e+00	9.885430e-03	1.887030e-02	
5	3.604164e-01	8.973206e-01	1.692400e+00	9.906120e-03	1.676512e-02	
6	3.926831e-01	8.267823e-01	1.697300e+00	9.952947e-03	1.689314e-02	
7	4.270831e-01	7.533712e-01	1.458200e+00	1.010349e-02	1.473291e-02	
8	4.618441e-01	6.815748e-01	1.445800e+00	1.039257e-02	1.502558e-02	
9	5.002999e-01	6.039953e-01	1.255600e+00	1.080923e-02	1.357206e-02	
10	5.333854e-01	5.432085e-01	1.015200e+00	1.142538e-02	1.159905e-02	
11	5.691221e-01	4.805554e-01	9.339000e-01	1.218655e-02	1.138102e-02	
12	6.118006e-01	4.144204e-01	7.859000e-01	1.349409e-02	1.060500e-02	
13	6.544463e-01	3.550728e-01	6.414000e-01	1.503030e-02	9.640437e-03	
14	6.992138e-01	3.011096e-01	5.217000e-01	1.702244e-02	8.880606e-03	
15	7.485987e-01	2.503700e-01	4.141000e-01	1.959627e-02	8.114815e-03	
16	7.973707e-01	2.073626e-01	3.385000e-01	2.237556e-02	7.574127e-03	
17	8.485871e-01	1.701241e-01	2.675000e-01	2.573253e-02	6.883452e-03	
18	9.015542e-01	1.378783e-01	1.944000e-01	2.949582e-02	5.733988e-03	
19	9.651425e-01	1.064022e-01	1.728000e-01	3.446290e-02	5.955190e-03	
20	1.027424e+00	8.191645e-02	1.181000e-01	3.982199e-02	4.702977e-03	
21	1.086324e+00	6.322801e-02	9.940000e-02	4.536330e-02	4.509112e-03	
22	1.145295e+00	4.830130e-02	6.310000e-02	5.149080e-02	3.249070e-03	
23	1.202123e+00	3.641273e-02	5.360000e-02	5.816917e-02	3.117867e-03	
24	1.265820e+00	2.599162e-02	3.430000e-02	6.709637e-02	2.301405e-03	
25	1.327592e+00	1.781425e-02	3.390000e-02	7.831589e-02	2.654909e-03	
26	1.394919e+00	1.068777e-02	2.340000e-02	9.804898e-02	2.294346e-03	
27	1.481520e+00	4.280160e-03	1.320000e-02	1.605075e-01	2.118699e-03	
28	1.583824e+00	-9.944256e-04	1.030000e-02	-3.398176e-01	-3.500121e-03	
29	1.673768e+00	-3.969432e-03	9.400000e-03	-3.207447e-02	-3.015001e-04	
