# Dataset name: COMPASS_Deu_Pm_Km_x_0.1326_z_0.345	
#	  PhT [GeV]   	   pred.     	    exp.     	  hes.err(%) 	  hes.err * exp 	
0	2.641969e-01	1.157368e+00	2.369200e+00	3.582799e-03	8.488367e-03	
1	2.998333e-01	1.076743e+00	2.307000e+00	3.544133e-03	8.176315e-03	
2	3.316625e-01	1.000019e+00	2.075200e+00	3.511087e-03	7.286207e-03	
3	3.601389e-01	9.307501e-01	1.944700e+00	3.478607e-03	6.764847e-03	
4	3.933192e-01	8.490216e-01	1.798200e+00	3.446506e-03	6.197507e-03	
5	4.273172e-01	7.652247e-01	1.568000e+00	3.421593e-03	5.365057e-03	
6	4.609772e-01	6.852293e-01	1.425300e+00	3.417326e-03	4.870715e-03	
7	4.994998e-01	5.968084e-01	1.283200e+00	3.437833e-03	4.411428e-03	
8	5.334792e-01	5.244126e-01	1.112800e+00	3.515248e-03	3.911768e-03	
9	5.693856e-01	4.527350e-01	9.266000e-01	3.647225e-03	3.379518e-03	
10	6.117189e-01	3.770413e-01	7.696000e-01	3.953748e-03	3.042805e-03	
11	6.553625e-01	3.081931e-01	6.229000e-01	4.449149e-03	2.771375e-03	
12	6.990708e-01	2.483298e-01	4.997000e-01	5.183536e-03	2.590213e-03	
13	7.472617e-01	1.927899e-01	3.776000e-01	6.377508e-03	2.408147e-03	
14	7.990620e-01	1.435478e-01	2.882000e-01	8.169241e-03	2.354375e-03	
15	8.473488e-01	1.063814e-01	2.085000e-01	1.062085e-02	2.214447e-03	
16	8.996666e-01	7.415521e-02	1.377000e-01	1.451285e-02	1.998419e-03	
17	9.651943e-01	4.337275e-02	9.130000e-02	2.295396e-02	2.095697e-03	
18	1.027083e+00	2.226782e-02	6.280000e-02	4.092075e-02	2.569823e-03	
19	1.087244e+00	7.425324e-03	3.960000e-02	1.104812e-01	4.375056e-03	
20	1.141184e+00	-2.026880e-03	2.940000e-02	-3.641250e-01	-1.070528e-02	
21	1.202872e+00	-9.587996e-03	1.920000e-02	-6.666996e-02	-1.280063e-03	
22	1.264753e+00	-1.439164e-02	1.200000e-02	-3.785662e-02	-4.542794e-04	
23	1.323745e+00	-1.698644e-02	1.030000e-02	-2.691918e-02	-2.772676e-04	
24	1.396997e+00	-1.848046e-02	6.400000e-03	-1.919320e-02	-1.228365e-04	
25	1.474483e+00	-1.842061e-02	4.300000e-03	-1.431590e-02	-6.155836e-05	
26	1.569140e+00	-1.691705e-02	2.000000e-03	-9.946587e-03	-1.989317e-05	
27	1.663911e+00	-1.474924e-02	1.100000e-03	-6.422649e-03	-7.064914e-06	
