# Dataset name: COMPASS_Deu_Pm_Km_x_0.2544_z_0.680	
#	  PhT [GeV]   	   pred.     	    exp.     	  hes.err(%) 	  hes.err * exp 	
0	1.732051e-01	1.390965e-01	1.767000e-01	5.507888e-03	9.732439e-04	
1	2.242766e-01	1.330249e-01	1.798000e-01	5.501696e-03	9.892049e-04	
2	2.638181e-01	1.274947e-01	2.151000e-01	5.495837e-03	1.182155e-03	
3	3.001666e-01	1.218432e-01	1.494000e-01	5.489864e-03	8.201857e-04	
4	3.300000e-01	1.168840e-01	1.665000e-01	5.483950e-03	9.130777e-04	
5	3.608324e-01	1.114440e-01	1.566000e-01	5.477446e-03	8.577680e-04	
6	3.937004e-01	1.054985e-01	1.150000e-01	5.468310e-03	6.288557e-04	
7	4.272002e-01	9.914806e-02	1.371000e-01	5.459978e-03	7.485630e-04	
8	4.610857e-01	9.261230e-02	1.091000e-01	5.450086e-03	5.946044e-04	
9	5.004998e-01	8.501754e-02	1.176000e-01	5.435603e-03	6.392269e-04	
10	5.338539e-01	7.854134e-02	1.113000e-01	5.422800e-03	6.035577e-04	
11	5.704384e-01	7.157498e-02	8.570000e-02	5.405957e-03	4.632905e-04	
12	6.124541e-01	6.372648e-02	6.690000e-02	5.386658e-03	3.603674e-04	
13	6.565821e-01	5.582749e-02	6.500000e-02	5.362700e-03	3.485755e-04	
14	6.983552e-01	4.869325e-02	5.640000e-02	5.338286e-03	3.010793e-04	
15	7.483983e-01	4.070751e-02	3.940000e-02	5.308731e-03	2.091640e-04	
16	7.976215e-01	3.355592e-02	3.760000e-02	5.281170e-03	1.985720e-04	
17	8.469357e-01	2.705132e-02	3.450000e-02	5.267503e-03	1.817289e-04	
18	9.000556e-01	2.088274e-02	2.390000e-02	5.290697e-03	1.264477e-04	
19	9.638465e-01	1.451587e-02	1.780000e-02	5.474279e-03	9.744217e-05	
20	1.028105e+00	9.270839e-03	1.070000e-02	6.220913e-03	6.656377e-05	
21	1.085173e+00	5.462774e-03	9.500000e-03	8.525488e-03	8.099214e-05	
22	1.146647e+00	2.212440e-03	6.300000e-03	1.941183e-02	1.222945e-04	
23	1.203121e+00	-1.369711e-04	5.800000e-03	-3.230838e-01	-1.873886e-03	
24	1.271928e+00	-2.261737e-03	2.700000e-03	-2.107916e-02	-5.691374e-05	
25	1.326386e+00	-3.490918e-03	2.600000e-03	-1.441037e-02	-3.746697e-05	
26	1.392731e+00	-4.544202e-03	1.600000e-03	-1.151365e-02	-1.842184e-05	
27	1.478783e+00	-5.337228e-03	1.200000e-03	-9.955370e-03	-1.194644e-05	
28	1.592953e+00	-5.728606e-03	6.000000e-04	-8.992951e-03	-5.395771e-06	
29	1.698323e+00	-5.687247e-03	2.000000e-04	-8.500315e-03	-1.700063e-06	
