# Dataset name: COMPASS_Deu_Pm_Km_x_0.0170_z_0.683	
#	  PhT [GeV]   	   pred.     	    exp.     	  hes.err(%) 	  hes.err * exp 	
0	1.714643e-01	1.378931e-01	1.882000e-01	2.128567e-02	4.005963e-03	
1	2.238303e-01	1.308512e-01	2.098000e-01	2.118938e-02	4.445532e-03	
2	2.630589e-01	1.247012e-01	1.962000e-01	2.109383e-02	4.138609e-03	
3	3.004996e-01	1.181673e-01	1.868000e-01	2.099923e-02	3.922657e-03	
4	3.304542e-01	1.126694e-01	1.516000e-01	2.089494e-02	3.167673e-03	
5	3.600000e-01	1.069657e-01	1.649000e-01	2.079327e-02	3.428810e-03	
6	3.926831e-01	1.004912e-01	1.838000e-01	2.066114e-02	3.797518e-03	
7	4.270831e-01	9.354266e-02	1.307000e-01	2.049842e-02	2.679144e-03	
8	4.621688e-01	8.637997e-02	1.480000e-01	2.032064e-02	3.007455e-03	
9	4.993996e-01	7.887950e-02	1.173000e-01	2.009056e-02	2.356623e-03	
10	5.353503e-01	7.172191e-02	1.136000e-01	1.985423e-02	2.255441e-03	
11	5.682429e-01	6.536998e-02	9.370000e-02	1.961179e-02	1.837625e-03	
12	6.131068e-01	5.708064e-02	1.116000e-01	1.923421e-02	2.146538e-03	
13	6.532228e-01	5.007760e-02	8.420000e-02	1.887490e-02	1.589267e-03	
14	6.982836e-01	4.282868e-02	7.680000e-02	1.843019e-02	1.415439e-03	
15	7.484651e-01	3.546908e-02	6.540000e-02	1.795652e-02	1.174357e-03	
16	7.993748e-01	2.890140e-02	5.180000e-02	1.757481e-02	9.103754e-04	
17	8.472898e-01	2.347371e-02	5.170000e-02	1.750324e-02	9.049173e-04	
18	9.018869e-01	1.821315e-02	3.430000e-02	1.818738e-02	6.238272e-04	
19	9.675743e-01	1.305112e-02	3.110000e-02	2.120311e-02	6.594167e-04	
20	1.027959e+00	9.330042e-03	2.130000e-02	2.767685e-02	5.895170e-04	
21	1.085633e+00	6.549141e-03	2.150000e-02	3.912890e-02	8.412713e-04	
22	1.145775e+00	4.329157e-03	1.610000e-02	5.992854e-02	9.648495e-04	
23	1.206026e+00	2.681881e-03	1.010000e-02	9.804188e-02	9.902229e-04	
24	1.261190e+00	1.557628e-03	9.600000e-03	1.686804e-01	1.619332e-03	
25	1.326574e+00	6.258645e-04	8.700000e-03	4.142717e-01	3.604164e-03	
26	1.397498e+00	-5.871645e-05	5.600000e-03	-4.265744e+00	-2.388816e-02	
27	1.478344e+00	-5.197914e-04	4.100000e-03	-4.555454e-01	-1.867736e-03	
28	1.576991e+00	-8.221850e-04	3.500000e-03	-2.624036e-01	-9.184127e-04	
29	1.670419e+00	-9.358540e-04	1.700000e-03	-2.075833e-01	-3.528917e-04	
