# Dataset name: COMPASS_Deu_Pp_Kp_x_0.0678_z_0.345	
#	  PhT [GeV]   	   pred.     	    exp.     	  hes.err(%) 	  hes.err * exp 	
0	2.996665e-01	1.613444e+00	3.401900e+00	4.938675e-02	1.680088e-01	
1	3.316625e-01	1.485934e+00	3.204700e+00	4.870797e-02	1.560944e-01	
2	3.601389e-01	1.368256e+00	3.032600e+00	4.802604e-02	1.456438e-01	
3	3.935734e-01	1.231089e+00	2.664200e+00	4.708102e-02	1.254333e-01	
4	4.275512e-01	1.093260e+00	2.338600e+00	4.599751e-02	1.075698e-01	
5	4.615192e-01	9.610976e-01	2.198600e+00	4.475758e-02	9.840401e-02	
6	4.996999e-01	8.216168e-01	1.884900e+00	4.321712e-02	8.145995e-02	
7	5.331979e-01	7.088294e-01	1.618900e+00	4.175607e-02	6.759890e-02	
8	5.693856e-01	5.985384e-01	1.418600e+00	4.014504e-02	5.694976e-02	
9	6.111465e-01	4.861974e-01	1.127600e+00	3.841036e-02	4.331152e-02	
10	6.545991e-01	3.867177e-01	8.677000e-01	3.712090e-02	3.220980e-02	
11	6.987847e-01	3.015193e-01	6.955000e-01	3.716044e-02	2.584508e-02	
12	7.465923e-01	2.266821e-01	5.287000e-01	3.989272e-02	2.109128e-02	
13	7.978722e-01	1.627662e-01	3.861000e-01	4.804011e-02	1.854829e-02	
14	8.470537e-01	1.151322e-01	2.569000e-01	6.281604e-02	1.613744e-02	
15	9.009995e-01	7.540196e-02	1.948000e-01	9.043844e-02	1.761741e-02	
16	9.627045e-01	4.264978e-02	1.205000e-01	1.481553e-01	1.785272e-02	
17	1.027473e+00	1.963534e-02	7.970000e-02	2.866016e-01	2.284215e-02	
18	1.086094e+00	6.265507e-03	5.550000e-02	7.765621e-01	4.309920e-02	
19	1.140614e+00	-1.392689e-03	3.940000e-02	-2.931591e+00	-1.155047e-01	
20	1.204492e+00	-6.222762e-03	2.930000e-02	-5.044309e-01	-1.477983e-02	
21	1.264555e+00	-7.895004e-03	1.540000e-02	-2.889555e-01	-4.449914e-03	
22	1.325406e+00	-7.799455e-03	1.350000e-02	-1.925218e-01	-2.599045e-03	
23	1.395887e+00	-6.343156e-03	9.800000e-03	-1.272818e-01	-1.247362e-03	
24	1.473330e+00	-3.975430e-03	4.400000e-03	-1.563213e-01	-6.878137e-04	
25	1.571814e+00	-8.988430e-04	2.100000e-03	-1.135000e+00	-2.383500e-03	
26	1.670778e+00	1.696587e-03	2.000000e-03	7.761380e-01	1.552276e-03	
