# Dataset name: COMPASS_Deu_Pp_Kp_x_0.2909_z_0.345	
#	  PhT [GeV]   	   pred.     	    exp.     	  hes.err(%) 	  hes.err * exp 	
0	1.714643e-01	2.323491e+00	4.028100e+00	6.114016e-02	2.462787e-01	
1	2.227106e-01	2.170747e+00	3.677700e+00	6.056814e-02	2.227515e-01	
2	2.643861e-01	2.027729e+00	3.330000e+00	5.997521e-02	1.997174e-01	
3	2.996665e-01	1.896630e+00	3.262700e+00	5.934145e-02	1.936133e-01	
4	3.313608e-01	1.769856e+00	3.003300e+00	5.869998e-02	1.762936e-01	
5	3.595831e-01	1.657169e+00	2.664200e+00	5.804915e-02	1.546545e-01	
6	3.924283e-01	1.523487e+00	2.598300e+00	5.720479e-02	1.486352e-01	
7	4.275512e-01	1.377757e+00	2.625700e+00	5.618792e-02	1.475326e-01	
8	4.601087e-01	1.247296e+00	2.256000e+00	5.513758e-02	1.243904e-01	
9	4.987986e-01	1.094629e+00	1.847900e+00	5.376558e-02	9.935341e-02	
10	5.335729e-01	9.659702e-01	1.631800e+00	5.243284e-02	8.555990e-02	
11	5.699123e-01	8.375381e-01	1.232100e+00	5.097584e-02	6.280733e-02	
12	6.122091e-01	7.016408e-01	1.099400e+00	4.930925e-02	5.421059e-02	
13	6.548282e-01	5.782033e-01	9.617000e-01	4.788923e-02	4.605507e-02	
14	6.987847e-01	4.644799e-01	8.049000e-01	4.720045e-02	3.799164e-02	
15	7.485319e-01	3.546827e-01	6.262000e-01	4.856839e-02	3.041352e-02	
16	7.968061e-01	2.643114e-01	4.172000e-01	5.435644e-02	2.267751e-02	
17	8.469357e-01	1.874657e-01	3.374000e-01	6.870154e-02	2.317990e-02	
18	8.999444e-01	1.216955e-01	2.834000e-01	1.009098e-01	2.859783e-02	
19	9.648316e-01	5.962547e-02	1.669000e-01	2.022303e-01	3.375223e-02	
20	1.027327e+00	1.594963e-02	1.051000e-01	7.399214e-01	7.776574e-02	
21	1.087750e+00	-1.467144e-02	9.050000e-02	-7.724685e-01	-6.990840e-02	
22	1.143591e+00	-3.463787e-02	5.990000e-02	-3.088057e-01	-1.849746e-02	
23	1.205612e+00	-5.005856e-02	6.000000e-02	-1.963509e-01	-1.178105e-02	
24	1.265109e+00	-5.962419e-02	2.540000e-02	-1.493477e-01	-3.793431e-03	
25	1.322800e+00	-6.456456e-02	2.110000e-02	-1.232040e-01	-2.599604e-03	
26	1.387191e+00	-6.745318e-02	1.650000e-02	-1.029932e-01	-1.699388e-03	
27	1.481553e+00	-6.727307e-02	9.100000e-03	-8.327522e-02	-7.578045e-04	
28	1.585118e+00	-6.354062e-02	7.400000e-03	-6.923957e-02	-5.123728e-04	
29	1.683568e+00	-5.755274e-02	5.000000e-03	-6.075171e-02	-3.037586e-04	
