# Dataset name: COMPASS_Deu_Pp_Kp_x_0.1570_z_0.480	
#	  PhT [GeV]   	   pred.     	    exp.     	  hes.err(%) 	  hes.err * exp 	
0	1.743560e-01	7.255639e-01	1.028500e+00	5.209604e-02	5.358077e-02	
1	2.222611e-01	6.928390e-01	9.650000e-01	5.196143e-02	5.014278e-02	
2	2.643861e-01	6.581282e-01	9.129000e-01	5.181477e-02	4.730170e-02	
3	3.000000e-01	6.271697e-01	8.451000e-01	5.164937e-02	4.364888e-02	
4	3.303029e-01	5.991231e-01	9.378000e-01	5.150853e-02	4.830470e-02	
5	3.602777e-01	5.691964e-01	8.919000e-01	5.134777e-02	4.579708e-02	
6	3.928104e-01	5.355365e-01	7.455000e-01	5.115041e-02	3.813263e-02	
7	4.275512e-01	4.998931e-01	7.392000e-01	5.091864e-02	3.763906e-02	
8	4.610857e-01	4.641230e-01	7.649000e-01	5.066986e-02	3.875738e-02	
9	4.990992e-01	4.245083e-01	6.236000e-01	5.034939e-02	3.139788e-02	
10	5.333854e-01	3.884779e-01	6.305000e-01	5.004644e-02	3.155428e-02	
11	5.696490e-01	3.519793e-01	5.387000e-01	4.967911e-02	2.676214e-02	
12	6.110646e-01	3.109525e-01	4.696000e-01	4.924734e-02	2.312655e-02	
13	6.551336e-01	2.702218e-01	4.001000e-01	4.874563e-02	1.950313e-02	
14	6.999286e-01	2.309340e-01	3.495000e-01	4.824818e-02	1.686274e-02	
15	7.485319e-01	1.924191e-01	2.911000e-01	4.774667e-02	1.389906e-02	
16	7.987490e-01	1.565627e-01	2.814000e-01	4.744603e-02	1.335131e-02	
17	8.482924e-01	1.249760e-01	1.788000e-01	4.758569e-02	8.508322e-03	
18	9.030504e-01	9.509096e-02	1.667000e-01	4.897225e-02	8.163674e-03	
19	9.667471e-01	6.589676e-02	1.241000e-01	5.424030e-02	6.731221e-03	
20	1.028980e+00	4.324976e-02	8.730000e-02	6.820707e-02	5.954477e-03	
21	1.088072e+00	2.605208e-02	7.840000e-02	1.019441e-01	7.992414e-03	
22	1.146168e+00	1.303569e-02	6.210000e-02	1.950618e-01	1.211334e-02	
23	1.206234e+00	2.672669e-03	4.740000e-02	9.338366e-01	4.426386e-02	
24	1.265978e+00	-4.830946e-03	4.000000e-02	-5.080863e-01	-2.032345e-02	
25	1.327968e+00	-1.043094e-02	2.690000e-02	-2.288980e-01	-6.157355e-03	
26	1.395994e+00	-1.446639e-02	2.460000e-02	-1.570978e-01	-3.864606e-03	
27	1.473194e+00	-1.717885e-02	1.180000e-02	-1.225862e-01	-1.446517e-03	
28	1.576134e+00	-1.857061e-02	9.500000e-03	-9.895674e-02	-9.400890e-04	
29	1.683300e+00	-1.854387e-02	1.060000e-02	-8.370876e-02	-8.873129e-04	
