# Dataset name: COMPASS_Deu_Pp_Kp_x_0.0170_z_0.345	
#	  PhT [GeV]   	   pred.     	    exp.     	  hes.err(%) 	  hes.err * exp 	
0	1.726268e-01	1.989850e+00	2.853200e+00	4.057429e-02	1.157666e-01	
1	2.229350e-01	1.855712e+00	2.601400e+00	3.995872e-02	1.039486e-01	
2	2.645751e-01	1.726816e+00	2.604900e+00	3.927019e-02	1.022949e-01	
3	2.993326e-01	1.609595e+00	2.227100e+00	3.856190e-02	8.588121e-02	
4	3.312099e-01	1.493727e+00	2.074800e+00	3.782220e-02	7.847351e-02	
5	3.608324e-01	1.386584e+00	1.988800e+00	3.701955e-02	7.362448e-02	
6	3.933192e-01	1.266036e+00	1.854100e+00	3.604906e-02	6.683856e-02	
7	4.269660e-01	1.143382e+00	1.617300e+00	3.490549e-02	5.645265e-02	
8	4.608687e-01	1.024010e+00	1.445500e+00	3.365849e-02	4.865335e-02	
9	4.999000e-01	8.919917e-01	1.350200e+00	3.212168e-02	4.337069e-02	
10	5.337603e-01	7.870022e-01	1.155000e+00	3.075076e-02	3.551713e-02	
11	5.697368e-01	6.829153e-01	9.869000e-01	2.936250e-02	2.897785e-02	
12	6.122091e-01	5.743308e-01	8.675000e-01	2.797123e-02	2.426504e-02	
13	6.542935e-01	4.795855e-01	6.870000e-01	2.721432e-02	1.869624e-02	
14	6.999286e-01	3.917672e-01	6.433000e-01	2.748362e-02	1.768022e-02	
15	7.475293e-01	3.152082e-01	4.339000e-01	2.950047e-02	1.280025e-02	
16	7.988742e-01	2.467377e-01	3.659000e-01	3.412988e-02	1.248812e-02	
17	8.484692e-01	1.937483e-01	2.994000e-01	4.081096e-02	1.221880e-02	
18	9.009440e-01	1.484976e-01	2.342000e-01	5.033316e-02	1.178803e-02	
19	9.663850e-01	1.050651e-01	1.734000e-01	6.547460e-02	1.135330e-02	
20	1.028154e+00	7.461861e-02	1.329000e-01	8.308582e-02	1.104211e-02	
21	1.085357e+00	5.337343e-02	9.890000e-02	1.026890e-01	1.015595e-02	
22	1.142454e+00	3.757800e-02	6.820000e-02	1.254678e-01	8.556902e-03	
23	1.203412e+00	2.494777e-02	5.410000e-02	1.559758e-01	8.438291e-03	
24	1.262260e+00	1.638339e-02	4.700000e-02	1.910008e-01	8.977038e-03	
25	1.325519e+00	9.513320e-03	3.110000e-02	2.520832e-01	7.839789e-03	
26	1.390647e+00	4.643355e-03	2.080000e-02	3.841638e-01	7.990607e-03	
27	1.484689e+00	3.662618e-04	1.650000e-02	3.372053e+00	5.563887e-02	
28	1.579715e+00	-1.898473e-03	1.230000e-02	-5.754140e-01	-7.077593e-03	
29	1.681101e+00	-3.200701e-03	9.800000e-03	-3.571395e-01	-3.499967e-03	
