# Dataset name: COMPASS_Deu_Pp_Kp_x_0.0455_z_0.244	
#	  PhT [GeV]   	   pred.     	    exp.     	  hes.err(%) 	  hes.err * exp 	
0	2.994996e-01	3.465244e+00	5.221900e+00	4.143144e-02	2.163508e-01	
1	3.315117e-01	3.206955e+00	5.429400e+00	4.025640e-02	2.185681e-01	
2	3.598611e-01	2.966682e+00	4.537100e+00	3.914150e-02	1.775889e-01	
3	3.935734e-01	2.678310e+00	4.123000e+00	3.775525e-02	1.556649e-01	
4	4.275512e-01	2.395463e+00	3.785400e+00	3.645229e-02	1.379865e-01	
5	4.613025e-01	2.124481e+00	3.103700e+00	3.543994e-02	1.099950e-01	
6	4.995998e-01	1.836506e+00	2.811200e+00	3.483008e-02	9.791432e-02	
7	5.335729e-01	1.606537e+00	2.311200e+00	3.498118e-02	8.084851e-02	
8	5.699123e-01	1.383627e+00	2.072800e+00	3.602165e-02	7.466569e-02	
9	6.118006e-01	1.158663e+00	1.673000e+00	3.831511e-02	6.410118e-02	
10	6.539113e-01	9.654424e-01	1.452700e+00	4.160263e-02	6.043614e-02	
11	6.996428e-01	7.872549e-01	1.061200e+00	4.602518e-02	4.884192e-02	
12	7.468601e-01	6.332840e-01	8.773000e-01	5.120315e-02	4.492052e-02	
13	7.997500e-01	4.901425e-01	7.199000e-01	5.758167e-02	4.145304e-02	
14	8.473488e-01	3.828793e-01	5.335000e-01	6.409917e-02	3.419690e-02	
15	9.017206e-01	2.814734e-01	3.426000e-01	7.284371e-02	2.495625e-02	
16	9.654533e-01	1.869881e-01	2.840000e-01	8.638077e-02	2.453214e-02	
17	1.028348e+00	1.157040e-01	1.991000e-01	1.073144e-01	2.136630e-02	
18	1.084804e+00	6.517995e-02	1.409000e-01	1.479723e-01	2.084929e-02	
19	1.142672e+00	2.574903e-02	1.119000e-01	2.859125e-01	3.199361e-02	
20	1.202248e+00	-2.871370e-03	7.830000e-02	-1.944727e+00	-1.522721e-01	
21	1.262418e+00	-2.248691e-02	7.040000e-02	-1.915736e-01	-1.348678e-02	
22	1.331616e+00	-3.724408e-02	4.700000e-02	-9.174612e-02	-4.312067e-03	
23	1.394382e+00	-4.421817e-02	4.680000e-02	-6.615872e-02	-3.096228e-03	
24	1.481013e+00	-4.640078e-02	2.630000e-02	-5.313712e-02	-1.397506e-03	
25	1.575881e+00	-4.308555e-02	1.700000e-02	-4.789213e-02	-8.141662e-04	
26	1.679047e+00	-3.598091e-02	1.760000e-02	-4.783705e-02	-8.419320e-04	
