# Dataset name: COMPASS_Deu_Pp_Kp_x_0.0161_z_0.684	
#	  PhT [GeV]   	   pred.     	    exp.     	  hes.err(%) 	  hes.err * exp 	
0	1.732051e-01	2.917906e-01	3.477000e-01	4.321241e-02	1.502496e-02	
1	2.229350e-01	2.749911e-01	3.052000e-01	4.318625e-02	1.318044e-02	
2	2.645751e-01	2.586661e-01	3.360000e-01	4.314892e-02	1.449804e-02	
3	3.000000e-01	2.435019e-01	3.060000e-01	4.310459e-02	1.319000e-02	
4	3.312099e-01	2.293758e-01	3.038000e-01	4.306483e-02	1.308310e-02	
5	3.597221e-01	2.160379e-01	2.724000e-01	4.302864e-02	1.172100e-02	
6	3.935734e-01	1.998973e-01	2.462000e-01	4.295691e-02	1.057599e-02	
7	4.273172e-01	1.836314e-01	2.256000e-01	4.289483e-02	9.677074e-03	
8	4.608687e-01	1.675500e-01	2.002000e-01	4.281504e-02	8.571570e-03	
9	4.994998e-01	1.493696e-01	1.656000e-01	4.269651e-02	7.070542e-03	
10	5.338539e-01	1.337083e-01	1.609000e-01	4.258901e-02	6.852572e-03	
11	5.699123e-01	1.179818e-01	1.425000e-01	4.243691e-02	6.047260e-03	
12	6.118823e-01	1.007624e-01	1.363000e-01	4.222892e-02	5.755801e-03	
13	6.562012e-01	8.402997e-02	1.131000e-01	4.196714e-02	4.746483e-03	
14	6.996428e-01	6.921396e-02	1.013000e-01	4.161504e-02	4.215604e-03	
15	7.479305e-01	5.462619e-02	9.000000e-02	4.115375e-02	3.703838e-03	
16	7.989368e-01	4.139973e-02	7.450000e-02	4.048503e-02	3.016135e-03	
17	8.491172e-01	3.046752e-02	6.100000e-02	3.961134e-02	2.416292e-03	
18	9.020532e-01	2.101506e-02	4.810000e-02	3.846422e-02	1.850129e-03	
19	9.648834e-01	1.226691e-02	4.190000e-02	3.715512e-02	1.556799e-03	
20	1.028154e+00	5.753447e-03	3.220000e-02	4.308202e-02	1.387241e-03	
21	1.086554e+00	1.431673e-03	2.590000e-02	1.546104e-01	4.004409e-03	
22	1.143678e+00	-1.561200e-03	1.930000e-02	-1.787872e-01	-3.450594e-03	
23	1.203578e+00	-3.669056e-03	1.540000e-02	-9.233209e-02	-1.421914e-03	
24	1.265188e+00	-5.014173e-03	1.250000e-02	-7.547390e-02	-9.434237e-04	
25	1.326725e+00	-5.758235e-03	8.800000e-03	-6.883390e-02	-6.057383e-04	
26	1.393413e+00	-6.082741e-03	6.500000e-03	-6.547145e-02	-4.255644e-04	
27	1.480236e+00	-6.041813e-03	4.900000e-03	-6.324154e-02	-3.098835e-04	
28	1.575563e+00	-5.645896e-03	2.700000e-03	-6.215441e-02	-1.678169e-04	
29	1.676604e+00	-5.045315e-03	2.000000e-03	-6.158371e-02	-1.231674e-04	
